Testing/Link Budget testing/short_cycle_15dBm_3_setting.csv

#Digilent WaveForms Oscilloscope Acquisition
#Device Name: Discovery2
#Serial Number: SN:210321A95EED
#Date Time: 2020-04-26 11:16:14.236
#Sample rate: 68.2667Hz
#Samples: 7936
#Trigger: Source: Channel 1 Type: Edge Condition: Rising Level: 0 V Hyst.: Auto HoldOff: 0 s
#Channel 1: Range: 500 mV/div Offset: -3 V Attenuation: 1 X
#Channel 2: Range: 500 mV/div Offset: -3 V Attenuation: 1 X

Time (s),Channel 1 (V),Channel 2 (V)
-58.59376,2.92867256837096,2.731240179557656
-58.57911156,2.224617323731331,0.5093581773772557
-58.56446312,1.932158429088509,0.5090225456538615
-58.54981468,1.700277901575638,0.5086869139314776
-58.53516624,1.511138777537564,0.5086869139314776
-58.5205178,1.354981208936734,0.5083512822090936
-58.50586936,1.225074266092078,0.5083512822090936
-58.49122092,1.115696658774686,0.5080156504867097
-58.47657247999999,1.024156015112096,0.5080156504867096
-58.46192404,0.9467503237798232,0.5076800187643262
-58.4472756,0.8811237593893879,0.5073443870419423
-58.43262716,0.8255935895205582,0.5073443870419423
-58.41797872,0.7784770817530666,0.5070087553195584
-58.40333028,0.7384280501506986,0.5070087553195584
-58.38868184,0.7041003087772402,0.5070087553195584
-58.37403339999999,0.6748207646645845,0.5066731235971744
-58.35938496,0.6499163248446247,0.5066731235971744
-58.34473652,0.6287138963492533,0.5063374918747905
-58.33008808,0.6102038397263101,0.5063374918747905
-58.31543964,0.5947227014598484,0.5060018601524066
-58.3007912,0.5812608420977079,0.5056662284300226
-58.28614276,0.5698182616398886,0.5056662284300226
-58.27149432,0.56039496008639,0.5056662284300226
-58.25684588,0.5519812979850522,0.5056662284300226
-58.24219744,0.5449138218199288,0.5053305967076387
-58.227549,0.5385194386229117,0.5053305967076387
-58.21290056,0.5334712413621113,0.5053305967076387
-58.19825212,0.5287595905853602,0.5049949649852548
-58.18360368,0.5250575792607712,0.5049949649852548
-58.16895524,0.5213555679361828,0.5046593332628708
-58.1543068,0.5186631960637547,0.5046593332628708
-58.13965836,0.5159708241913266,0.5046593332628708
-58.12500992,0.5139515452870054,0.5046593332628708
-58.11036147999999,0.5119322663826842,0.5043237015404869
-58.09571304,0.5105860804464704,0.5043237015404869
-58.0810646,0.5092398945102561,0.5043237015404869
-58.06641616,0.5078937085740423,0.503988069818103
-58.05176772,0.5068840691218814,0.503988069818103
-58.03711928,0.5058744296697211,0.503652438095719
-58.02247084,0.5052013367016142,0.503652438095719
-58.00782239999999,0.5045282437335072,0.503652438095719
-57.99317396,0.5038551507653999,0.503652438095719
-57.97852552,0.503182057797293,0.5033168063733355
-57.96387708,0.5025089648291861,0.5033168063733355
-57.94922864,0.5021724183451326,0.5033168063733355
-57.9345802,0.5018358718610791,0.5033168063733355
-57.91993176,0.5014993253770252,0.5029811746509516
-57.90528332,0.5011627788929718,0.5029811746509516
-57.89063488,0.5008262324089183,0.5029811746509516
-57.87598644,0.5004896859248649,0.5029811746509516
-57.861338,0.5001531394408114,0.5026455429285677
-57.84668955999999,0.5075571620899897,0.5100294408210142
-57.83204112,0.5095764409943095,0.5120432311553169
-57.81739268,0.5092398945102561,0.511707599432933
-57.80274424,0.5089033480262026,0.511371967710549
-57.7880958,0.5082302550580957,0.5110363359881651
-57.77344736,0.5078937085740423,0.5110363359881651
-57.75879892,0.5075571620899888,0.5107007042657812
-57.74415047999999,0.5072206156059353,0.5103650725433972
-57.72950204,0.506547522637828,0.5100294408210133
-57.7148536,0.5062109761537745,0.5096938090986294
-57.70020516,0.5062109761537745,0.5093581773762454
-57.68555672,0.5058744296697211,0.5093581773762454
-57.67090828,0.5052013367016142,0.5090225456538615
-57.65625984,0.5052013367016142,0.5086869139314776
-57.6416114,0.5048647902175607,0.5086869139314776
-57.62696296,0.5045282437335072,0.5083512822090936
-57.61231452,0.5041916972494533,0.5080156504867097
-57.59766608,0.5038551507653999,0.5080156504867097
-57.58301764,0.5038551507653999,0.5076800187643263
-57.5683692,0.5035186042813464,0.5076800187643262
-57.55372076,0.503182057797293,0.5073443870419423
-57.53907232,0.503182057797293,0.5073443870419423
-57.52442388,0.5028455113132395,0.5070087553195584
-57.50977544,0.5025089648291861,0.5066731235971744
-57.495127,0.5021724183451326,0.5066731235971744
-57.48047855999999,0.5018358718610791,0.5063374918747904
-57.46583012,0.5018358718610791,0.5060018601524066
-57.45118168,0.5014993253770252,0.5060018601524066
-57.43653324,0.5014993253770252,0.5056662284300226
-57.4218848,0.5011627788929718,0.5056662284300226
-57.40723636,0.5008262324089183,0.5053305967076387
-57.39258792,0.5008262324089183,0.5053305967076387
-57.37793947999999,0.5008262324089183,0.5049949649852548
-57.36329104,0.5004896859248649,0.5049949649852548
-57.3486426,0.5004896859248649,0.5049949649852548
-57.33399416,0.5001531394408114,0.5046593332628708
-57.31934572,0.5001531394408114,0.5046593332628708
-57.30469728,0.499816592956758,0.5043237015404869
-57.29004884,0.499816592956758,0.5043237015404869
-57.2754004,0.4994800464727045,0.5043237015404869
-57.26075196,0.4994800464727045,0.503988069818103
-57.24610352,0.4994800464727045,0.503988069818103
-57.23145508,0.499143499988651,0.503652438095719
-57.21680663999999,0.499143499988651,0.503652438095719
-57.2021582,0.499143499988651,0.503652438095719
-57.18750976,0.4988069535045971,0.5033168063733355
-57.17286132,3.466473849888474,3.446807011680129
-57.15821288,4.956028588309322,4.94305323006755
-57.14356444,4.886026919626191,4.873577463534082
-57.128916,4.877949804008907,4.865522302196869
-57.11426755999999,4.890402023918887,4.877605044202689
-57.09961912,4.87828635049296,4.861159089805878
-57.08497068,4.862132119258392,4.844377503686683
-57.07032224,4.87054578135973,4.852768296746281
-57.0556738,4.890402023918887,4.872570568366931
-57.04102536,4.906892801637509,4.889016522763741
-57.02637692,4.92136430045181,4.903448686826249
-57.01172848,4.931797241457469,4.913517638497766
-56.99708004,4.963096064474446,4.948423337625692
-56.9824316,4.988673597262513,4.973931348526868
-56.96778316,4.99607761991169,4.981315246419314
-56.95313472,4.993721794523316,4.978630192640244
-56.93848628,4.989683236714673,4.974938243694019
-56.92383784,4.980596481645229,4.965876187189655
-56.9091894,4.970836633607677,4.956142867240522
-56.89454096,4.961749878538232,4.946745179013773
-56.87989252,4.959057506665804,4.944060125234701
-56.86524408,4.954682402373108,4.940032544566095
-56.85059563999999,4.950980391048518,4.936004963897487
-56.8359472,4.949297658628252,4.934326805285568
-56.82129876,4.946605286755823,4.931977383228881
-56.80665032,4.943576368399342,4.928956697727426
-56.79200188,4.940883996526914,4.925936012225971
-56.77735344,4.94054745004286,4.925936012225971
-56.762705,4.9395378105907,4.924929117058819
-56.74805655999999,4.938191624654486,4.923586590169283
-56.73340812,4.939874357074753,4.924929117058819
-56.71875968,4.941893635979074,4.926942907393123
-56.70411124,4.941893635979074,4.926942907393123
-56.6894628,4.941893635979074,4.927278539115506
-56.67481436,4.942230182463128,4.927278539115506
-56.66016592,4.942903275431235,4.928285434282659
-56.64551748,4.942230182463128,4.92761417083789
-56.63086904,4.941220543010967,4.926271643948355
-56.6162206,4.941893635979074,4.926942907393123
-56.60157216,4.942230182463128,4.92761417083789
-56.58692371999999,4.941893635979074,4.927278539115506
-56.57227528,4.942230182463128,4.927278539115506
-56.55762684,4.942566728947181,4.92761417083789
-56.5429784,4.94054745004286,4.925936012225971
-56.52832996,4.938191624654486,4.923922221891667
-56.51368152,4.936845438718272,4.92157279983498
-56.49903308,4.937855078170433,4.9232509584469
-56.48438463999999,4.937518531686379,4.922915326724516
-56.4697362,4.936845438718272,4.921908431557364
-56.45508776,4.937181985202326,4.922244063279748
-56.44043932,4.937855078170433,4.9232509584469
-56.42579088,4.937181985202326,4.922244063279748
-56.41114244,4.936172345750165,4.921237168112596
-56.396494,4.936845438718272,4.921908431557364
-56.38184556,4.937518531686379,4.922915326724516
-56.36719712,4.936845438718272,4.922244063279748
-56.35254868,4.936172345750165,4.921237168112596
-56.33790024,4.937855078170433,4.9232509584469
-56.3232518,4.938191624654486,4.923586590169283
-56.30860336,4.937855078170433,4.9232509584469
-56.29395492,4.937855078170433,4.922915326724516
-56.27930648,4.940210903558807,4.925600380503587
-56.26465804,4.940883996526914,4.926271643948355
-56.2500096,4.940210903558807,4.925600380503587
-56.23536116,4.94054745004286,4.925600380503587
-56.22071271999999,4.942230182463128,4.92761417083789
-56.20606428,4.941893635979074,4.92761417083789
-56.19141584,4.941220543010967,4.926607275670738
-56.1767674,4.941893635979074,4.927278539115506
-56.16211896,4.941557089495021,4.926942907393123
-56.14747052,4.939874357074753,4.925600380503587
-56.13282208,4.93852817113854,4.923586590169283
-56.11817363999999,4.939201264106647,4.924593485336436
-56.1035252,4.9395378105907,4.924929117058819
-56.08887676,4.938864717622593,4.924593485336436
-56.07422832,4.937855078170433,4.9232509584469
-56.05957988,4.938864717622593,4.924257853614051
-56.04493144,4.938191624654486,4.923586590169283
-56.030283,4.936845438718272,4.922244063279748
-56.01563456,4.936508892234219,4.921908431557364
-56.00098612,4.937518531686379,4.9232509584469
-55.98633768,4.937181985202326,4.922915326724516
-55.97168924,4.935835799266111,4.921237168112596
-55.9570408,4.936508892234219,4.921908431557364
-55.94239236,4.937181985202326,4.922915326724516
-55.92774392,4.936845438718272,4.922244063279748
-55.91309548,4.935835799266111,4.921237168112596
-55.89844704,4.937181985202326,4.922579695002132
-55.8837986,4.937518531686379,4.9232509584469
-55.86915016,4.936845438718272,4.922579695002132
-55.85450171999999,4.936508892234219,4.92157279983498
-55.83985328,4.937855078170433,4.923586590169283
-55.82520484,4.937518531686379,4.9232509584469
-55.8105564,4.936172345750165,4.92157279983498
-55.79590796,4.936845438718272,4.921908431557364
-55.78125952,4.937855078170433,4.923586590169283
-55.76661108,4.937855078170433,4.923586590169283
-55.75196264,4.936845438718272,4.922244063279748
-55.7373142,4.937181985202326,4.922579695002132
-55.72266576,4.938191624654486,4.923922221891667
-55.70801732,4.941220543010967,4.92761417083789
-55.69336888,4.896123314147817,4.877269412480329
-55.67872044,4.917662289127222,4.903448686826249
-55.664072,4.934489613329897,4.920230272945444
-55.64942356,4.943912914883396,4.929963592894578
-55.63477512,4.949297658628252,4.934998068730336
-55.62012668,4.951653484016626,4.937347490787023
-55.60547824,4.951316937532573,4.93701185906464
-55.59082979999999,4.947951472692038,4.933655541840801
-55.57618136,4.948288019176092,4.934662437007952
-55.56153292,4.960740239086071,4.947752074180924
-55.54688448,4.965115343378767,4.952450918294299
-55.53223604,4.964442250410659,4.951444023127147
-55.5175876,4.962086425022285,4.94909460107046
-55.50293916,4.959394053149857,4.946409547291388
-55.48829071999999,4.955018948857162,4.942381966622782
-55.47364228,4.954345855889055,4.942381966622782
-55.45899384,4.983288853517656,4.973931348526868
-55.4443454,5.000116177720333,4.990712934646063
-55.42969696,5.000452724204386,4.991048566368447
-55.41504852,4.990019783198727,4.980643982974547
-55.40040008,4.981606121097389,4.972253189914949
-55.38575164,4.98362540000171,4.973931348526868
-55.3711032,4.976221377352533,4.966547450634422
-55.35645476,4.968480808219302,4.958827921019592
-55.34180632,4.969490447671463,4.959834816186745
-55.32715788,4.956028588309328,4.946409547291394
-55.31250944,4.957711320729589,4.948423337625692
-55.297861,4.955692041825269,4.946409547291388
-55.28321256,4.958384413697697,4.94909460107046
-55.26856412,4.957711320729589,4.948423337625692
-55.25391568,4.94626874027177,4.93701185906464
-55.23926724,4.94525910081961,4.935669332175104
-55.22461879999999,4.942566728947181,4.932984278396033
-55.20997036,4.945595647303663,4.936340595619871
-55.19532192,4.943912914883396,4.934662437007952
-55.18067348,4.946941833239877,4.937683122509407
-55.16602504,4.944586007851503,4.93533370045272
-55.1513766,4.94626874027177,4.93701185906464
-55.13672816,4.945932193787717,4.936676227342256
-55.12207972,4.945932193787717,4.936676227342256
-55.10743128,4.942230182463128,4.932984278396033
-55.09278284,4.941893635979074,4.932648646673648
-55.0781344,4.948624565660145,4.939361281121327
-55.06348596,4.944249461367449,4.934998068730336
-55.04883752,4.942566728947181,4.933319910118417
-55.03418908,4.949297658628252,4.940032544566095
-55.01954064,4.94525910081961,4.936004963897488
-55.0048922,4.94525910081961,4.936004963897488
-54.99024376,4.947278379723931,4.938018754231791
-54.97559532,4.942903275431235,4.933655541840801
-54.96094687999999,4.944249461367449,4.934998068730336
-54.94629844,4.944922554335556,4.935669332175104
-54.93165,4.946605286755823,4.937347490787023
-54.91700156,4.942230182463128,4.932984278396033
-54.90235312,4.946941833239877,4.937683122509407
-54.88770468,4.94626874027177,4.93701185906464
-54.87305624,4.944922554335556,4.935669332175104
-54.85840779999999,4.94626874027177,4.93701185906464
-54.84375936,4.94626874027177,4.93701185906464
-54.82911092,4.947951472692038,4.938690017676559
-54.81446248,4.946941833239877,4.937683122509407
-54.79981404,4.945595647303663,4.936340595619871
-54.7851656,4.944249461367449,4.934998068730336
-54.77051716,4.945932193787717,4.936340595619871
-54.75586872,4.947951472692038,4.938354385954175
-54.74122028,4.942903275431235,4.933655541840801
-54.72657184,4.942566728947181,4.933319910118417
-54.7119234,4.945595647303663,4.936004963897488
-54.69727496,4.946941833239876,4.937683122509406
-54.68262652,4.944586007851503,4.934998068730336
-54.66797808,4.945932193787717,4.936676227342256
-54.65332964,4.94626874027177,4.93701185906464
-54.6386812,4.94054745004286,4.930970488061729
-54.62403276,4.945595647303663,4.936004963897488
-54.60938432,4.94525910081961,4.936004963897488
-54.59473587999999,4.944922554335557,4.935333700452721
-54.58008744,4.946605286755823,4.937347490787023
-54.565439,4.94626874027177,4.93701185906464
-54.55079056,4.940883996526914,4.931641751506497
-54.53614212,4.943912914883396,4.934662437007952
-54.52149368,4.941893635979074,4.932648646673648
-54.50684524,4.947614926207985,4.938354385954175
-54.49219679999999,4.940883996526914,4.931306119784113
-54.47754836,4.947951472692038,4.938690017676559
-54.46289992,4.941893635979074,4.932313014951265
-54.44825148,4.948961112144199,4.93969691284371
-54.43360304,4.947951472692038,4.938690017676559
-54.4189546,4.944586007851503,4.93533370045272
-54.40430616,4.946941833239877,4.937683122509407
-54.38965772,4.943239821915289,4.933991173563184
-54.37500928,4.946941833239877,4.937683122509407
-54.36036084,4.941557089495021,4.932313014951265
-54.3457124,4.942903275431235,4.933655541840801
-54.33106395999999,4.945595647303664,4.936340595619872
-54.31641552,4.946941833239877,4.937683122509407
-54.30176708,4.941220543010967,4.931977383228881
-54.28711864,4.947951472692038,4.939025649398943
-54.2724702,4.945932193787717,4.936676227342256
-54.25782176,4.944586007851503,4.93533370045272
-54.24317332,4.946605286755823,4.937347490787023
-54.22852487999999,4.942230182463128,4.932984278396033
-54.21387644,4.947278379723931,4.938018754231791
-54.199228,4.945595647303663,4.936340595619871
-54.18457956,4.94626874027177,4.93701185906464
-54.16993112,4.941893635979074,4.932648646673648
-54.15528268,4.946941833239877,4.937683122509407
-54.14063424,4.945932193787717,4.936676227342256
-54.1259858,4.943239821915289,4.933991173563184
-54.11133736,4.946941833239877,4.937683122509407
-54.09668892,4.943576368399342,4.934326805285568
-54.08204048,4.945932193787717,4.936676227342256
-54.06739204,4.942230182463129,4.932984278396034
-54.0527436,4.948288019176092,4.939361281121327
-54.03809516,4.945595647303663,4.936340595619871
-54.02344672,4.944249461367449,4.934998068730336
-54.00879828,4.942903275431235,4.933655541840801
-53.99414984,4.948624565660145,4.939361281121327
-53.9795014,4.944922554335556,4.936004963897488
-53.96485295999999,4.947614926207984,4.938690017676558
-53.95020452,4.946605286755823,4.937683122509407
-53.93555608,4.94525910081961,4.936004963897488
-53.92090764,4.94626874027177,4.93701185906464
-53.9062592,4.947278379723931,4.938354385954175
-53.89161076,4.944922554335556,4.935669332175104
-53.87696232,4.94626874027177,4.93701185906464
-53.86231387999999,4.946941833239877,4.937683122509407
-53.84766544,4.944249461367449,4.934998068730336
-53.833017,4.944586007851503,4.93533370045272
-53.81836856,4.94626874027177,4.93701185906464
-53.80372012,4.944249461367449,4.934998068730336
-53.78907168,4.946941833239877,4.937683122509407
-53.77442324,4.944922554335556,4.935669332175104
-53.7597748,4.947278379723931,4.938354385954175
-53.74512636,4.94626874027177,4.93701185906464
-53.73047792,4.944249461367449,4.934998068730336
-53.71582948,4.944249461367449,4.934998068730336
-53.70118103999999,4.945932193787717,4.936676227342256
-53.6865326,4.94626874027177,4.937347490787023
-53.67188416,4.947614926207985,4.938354385954175
-53.65723572,4.946941833239877,4.938018754231791
-53.64258728,4.946941833239877,4.937683122509407
-53.62793884,4.94525910081961,4.936004963897488
-53.6132904,4.947614926207985,4.938690017676559
-53.59864195999999,4.946605286755823,4.937683122509407
-53.58399352,4.947278379723931,4.938354385954175
-53.56934508,4.94626874027177,4.93701185906464
-53.55469664,4.948961112144199,4.93969691284371
-53.5400482,4.948288019176092,4.939025649398943
-53.52539976,4.94525910081961,4.936340595619871
-53.51075132,4.94626874027177,4.937347490787023
-53.49610288,4.946941833239877,4.938018754231791
-53.48145444,4.94626874027177,4.93701185906464
-53.466806,4.946605286755823,4.937347490787023
-53.45215756,4.948288019176092,4.939361281121327
-53.43750912,4.946941833239878,4.938018754231792
-53.42286068,4.947951472692038,4.939025649398943
-53.40821224,4.947278379723931,4.938354385954175
-53.3935638,4.948288019176092,4.939361281121327
-53.37891536,4.946941833239877,4.938018754231791
-53.36426692,4.947614926207985,4.938354385954175
-53.34961848,4.947951472692038,4.938690017676559
-53.33497003999999,4.946941833239876,4.937683122509406
-53.3203216,4.944586007851503,4.935669332175104
-53.30567316,4.946941833239877,4.937683122509407
-53.29102472,4.946605286755823,4.937347490787023
-53.27637628,4.946941833239877,4.938018754231791
-53.26172784,4.947614926207985,4.938690017676559
-53.2470794,4.946605286755823,4.937347490787023
-53.23243095999999,4.948961112144199,4.940032544566095
-53.21778252,4.943576368399342,4.934662437007952
-53.20313408,4.946941833239877,4.937683122509407
-53.18848564,4.946605286755823,4.937347490787023
-53.1738372,4.947278379723931,4.938018754231791
-53.15918876,4.947951472692038,4.938690017676559
-53.14454032,4.948624565660145,4.93969691284371
-53.12989188,4.948288019176092,4.939025649398943
-53.11524344,4.949297658628252,4.940368176288478
-53.100595,4.948961112144199,4.940032544566095
-53.08594656,4.947614926207985,4.938690017676559
-53.07129812,4.947278379723931,4.938354385954175
-53.05664968,4.948288019176092,4.939025649398943
-53.04200124,4.947614926207985,4.938354385954175
-53.0273528,4.948961112144199,4.93969691284371
-53.01270436,4.950307298080412,4.941039439733246
-52.99805592,4.948961112144199,4.93969691284371
-52.98340748,4.947278379723931,4.938354385954175
-52.96875903999999,4.947951472692038,4.938690017676559
-52.9541106,4.947278379723931,4.938018754231791
-52.93946216,4.94626874027177,4.93701185906464
-52.92481372,4.948961112144199,4.940032544566095
-52.91016528,4.947614926207985,4.938690017676559
-52.89551684,4.949297658628252,4.940368176288478
-52.8808684,4.947614926207985,4.938690017676559
-52.86621996,4.947278379723931,4.938018754231791
-52.85157152,4.948288019176092,4.939361281121327
-52.83692308,4.947614926207985,4.938354385954175
-52.82227464,4.944586007851503,4.935669332175104
