Testing/Satellite beacon testing/setting 2 testing/short3_15dBm_setting_2.csv

#Digilent WaveForms Oscilloscope Acquisition
#Device Name: Discovery2
#Serial Number: SN:210321A95EED
#Date Time: 2020-05-11 14:12:11.298
#Sample rate: 136.533Hz
#Samples: 7592
#Trigger: Source: Channel 1 Type: Edge Condition: Rising Level: 0 V Hyst.: Auto HoldOff: 0 s
#Channel 1: Range: 700 mV/div Offset: -3 V Attenuation: 1 X
#Channel 2: Range: 700 mV/div Offset: -3 V Attenuation: 1 X

Time (s),Channel 1 (V),Channel 2 (V)
-29.29688,2.194589271154333,2.195960269938258
-29.28955578,2.079947309185428,2.08162388509687
-29.28223156,2.087343564796277,2.085312155575574
-29.27490734,2.083645436990826,2.085312155575574
-29.26758312,2.079947309185376,2.081623885096819
-29.2602589,2.087343564796277,2.08900042605433
-29.25293468,2.083645436990826,2.081623885096819
-29.24561046,2.083645436990826,2.085312155575574
-29.23828624,2.091041692601723,2.092688696533083
-29.23096202,2.083645436990826,2.085312155575574
-29.2236378,2.087343564796277,2.08900042605433
-29.21631358,2.094739820407177,2.096376967011843
-29.20898936,2.087343564796277,2.08900042605433
-29.20166514,2.094739820407177,2.096376967011843
-29.19434092,2.091041692601727,2.096376967011843
-29.1870167,2.087343564796277,2.08900042605433
-29.17969248,2.098437948212627,2.103753507969355
-29.17236826,2.091041692601727,2.092688696533087
-29.16504404,2.091041692601727,2.092688696533087
-29.15771982,2.102136076018077,2.103753507969355
-29.1503956,2.091041692601727,2.092688696533087
-29.14307138,2.094739820407177,2.096376967011843
-29.13574716,2.098437948212627,2.100065237490599
-29.12842294,2.091041692601727,2.092688696533087
-29.12109872,2.098437948212627,2.100065237490599
-29.1137745,2.094739820407177,2.096376967011843
-29.10645028,2.091041692601729,2.092688696533088
-29.09912606,2.102136076018077,2.103753507969355
-29.09180184,2.091041692601727,2.096376967011843
-29.08447762,2.091041692601727,2.092688696533087
-29.0771534,2.102136076018077,2.103753507969355
-29.06982918,2.091041692601727,2.092688696533087
-29.06250496,2.098437948212627,2.096376967011843
-29.05518074,2.102136076018077,2.100065237490599
-29.04785652,2.091041692601727,2.092688696533087
-29.0405323,2.102136076018077,2.103753507969355
-29.03320808,2.098437948212627,2.096376967011843
-29.02588386,2.091041692601727,2.092688696533087
-29.01855964,2.105834203823528,2.107441778448111
-29.01123542,2.091041692601727,2.092688696533087
-29.0039112,2.094739820407177,2.096376967011843
-28.99658698,2.105834203823528,2.103753507969355
-28.98926276,2.091041692601727,2.092688696533087
-28.98193854,2.098437948212627,2.100065237490599
-28.97461432,2.098437948212627,2.100065237490599
-28.9672901,2.087343564796277,2.08900042605433
-28.95996588,2.102136076018077,2.103753507969355
-28.95264166,2.094739820407177,2.096376967011843
-28.94531744,2.091041692601727,2.092688696533087
-28.93799322,2.102136076018077,2.103753507969355
-28.930669,2.091041692601727,2.092688696533087
-28.92334478,2.091041692601732,2.092688696533092
-28.91602056,2.102136076018077,2.103753507969355
-28.90869634,2.087343564796277,2.08900042605433
-28.90137212,2.098437948212627,2.100065237490599
-28.8940479,2.098437948212627,2.100065237490599
-28.88672368,2.087343564796277,2.08900042605433
-28.87939946,2.102136076018077,2.103753507969355
-28.87207524,2.091041692601727,2.092688696533087
-28.86475102,2.091041692601727,2.08900042605433
-28.8574268,2.102136076018077,2.103753507969355
-28.85010258,2.087343564796277,2.08900042605433
-28.84277836,2.091041692601727,2.092688696533087
-28.83545414,2.102136076018077,2.103753507969355
-28.82812992,2.083645436990826,2.085312155575574
-28.8208057,2.098437948212627,2.100065237490599
-28.81348148,2.094739820407177,2.096376967011843
-28.80615726,2.083645436990826,2.085312155575574
-28.79883304,2.102136076018077,2.103753507969355
-28.79150882,2.091041692601732,2.092688696533092
-28.7841846,2.087343564796277,2.08900042605433
-28.77686038,2.102136076018077,2.103753507969355
-28.76953616,2.087343564796277,2.08900042605433
-28.76221194,2.094739820407177,2.096376967011843
-28.75488772,2.102136076018077,2.103753507969355
-28.7475635,2.087343564796277,2.08900042605433
-28.74023928,2.098437948212625,2.100065237490597
-28.73291506,2.094739820407177,2.096376967011843
-28.72559084,2.087343564796277,2.08900042605433
-28.71826662,2.105834203823528,2.107441778448111
-28.7109424,2.091041692601727,2.092688696533087
-28.70361818,2.091041692601727,2.092688696533087
-28.69629396,2.105834203823528,2.107441778448111
-28.68896974,2.087343564796277,2.08900042605433
-28.68164552,2.094739820407177,2.100065237490599
-28.6743213,2.102136076018077,2.103753507969355
-28.66699708,2.087343564796277,2.08900042605433
-28.65967286,2.102136076018077,2.103753507969355
-28.65234864,2.098437948212627,2.100065237490599
-28.64502442,2.091041692601727,2.092688696533087
-28.6377002,2.105834203823528,2.107441778448111
-28.63037598,2.091041692601727,2.092688696533087
-28.62305176,2.091041692601727,2.092688696533087
-28.61572754,2.102136076018077,2.107441778448111
-28.60840332,2.087343564796281,2.089000426054335
-28.6010791,2.098437948212627,2.100065237490599
-28.59375488,2.102136076018077,2.103753507969355
-28.58643066,2.087343564796277,2.08900042605433
-28.57910644,2.102136076018077,2.103753507969355
-28.57178222,2.094739820407177,2.096376967011843
-28.564458,2.091041692601727,2.092688696533087
-28.55713378,2.105834203823528,2.107441778448111
-28.54980956,2.091041692601727,2.092688696533087
-28.54248534,2.094739820407177,2.096376967011843
-28.53516112,2.105834203823528,2.107441778448111
-28.5278369,2.087343564796277,2.08900042605433
-28.52051268,2.098437948212627,2.100065237490599
-28.51318846,2.102136076018077,2.103753507969355
-28.50586424,2.087343564796277,2.08900042605433
-28.49854002,2.102136076018077,2.103753507969355
-28.4912158,2.094739820407177,2.096376967011843
-28.48389158,2.091041692601727,2.092688696533087
-28.47656736,2.105834203823521,2.107441778448104
-28.46924314,2.091041692601727,2.092688696533087
-28.46191892,2.094739820407177,2.096376967011843
-28.4545947,2.105834203823528,2.107441778448111
-28.44727048,2.087343564796277,2.08900042605433
-28.43994626,2.102136076018077,2.100065237490599
-28.43262204,2.098437948212627,2.100065237490599
-28.42529782,2.087343564796283,2.089000426054337
-28.4179736,2.102136076018077,2.103753507969355
-28.41064938,2.094739820407177,2.096376967011843
-28.40332516,2.091041692601727,2.092688696533087
-28.39600094,2.105834203823528,2.107441778448111
-28.38867672,2.091041692601727,2.092688696533087
-28.3813525,2.098437948212627,2.096376967011843
-28.37402828,2.105834203823528,2.103753507969355
-28.36670406,2.091041692601727,2.08900042605433
-28.35937984,2.102136076018077,2.103753507969355
-28.35205562,2.098437948212627,2.103753507969355
-28.3447314,2.091041692601727,2.092688696533087
-28.33740718,2.105834203823528,2.107441778448111
-28.33008296,2.094739820407177,2.096376967011843
-28.32275874,2.094739820407177,2.096376967011843
-28.31543452,2.105834203823528,2.107441778448111
-28.3081103,2.091041692601727,2.092688696533087
-28.30078608,2.098437948212627,2.100065237490599
-28.29346186,2.105834203823521,2.107441778448104
-28.28613764,2.091041692601727,2.092688696533087
-28.27881342,2.105834203823528,2.107441778448111
-28.2714892,2.102136076018077,2.100065237490599
-28.26416498,2.094739820407177,2.092688696533087
-28.25684076,2.109532331628978,2.111130048926867
-28.24951654,2.094739820407177,2.096376967011843
-28.24219232,2.094739820407177,2.096376967011843
-28.2348681,2.105834203823528,2.107441778448111
-28.22754388,2.091041692601727,2.092688696533087
-28.22021966,2.102136076018077,2.103753507969355
-28.21289544,2.105834203823528,2.103753507969355
-28.20557122,2.091041692601727,2.092688696533087
-28.198247,2.105834203823528,2.107441778448111
-28.19092278,2.098437948212627,2.100065237490599
-28.18359856,2.094739820407177,2.096376967011843
-28.17627434,2.109532331628978,2.111130048926867
-28.16895012,2.094739820407177,2.096376967011843
-28.1616259,2.094739820407177,2.096376967011843
-28.15430168,2.105834203823528,2.107441778448111
-28.14697746,2.091041692601727,2.092688696533087
-28.13965324,2.102136076018077,2.103753507969355
-28.13232902,2.102136076018077,2.103753507969355
-28.1250048,2.091041692601727,2.092688696533087
-28.11768058,2.105834203823528,2.107441778448111
-28.11035636,2.098437948212625,2.100065237490597
-28.10303214,2.094739820407177,2.096376967011843
-28.09570792,2.109532331628978,2.107441778448111
-28.0883837,2.094739820407177,2.096376967011843
-28.08105948,2.098437948212627,2.100065237490599
-28.07373526,2.105834203823528,2.107441778448111
-28.06641104,2.091041692601727,2.092688696533087
-28.05908682,2.102136076018077,2.103753507969355
-28.0517626,2.102136076018077,2.103753507969355
-28.04443838,2.091041692601727,2.092688696533087
-28.03711416,2.105834203823528,2.107441778448111
-28.02978994,2.098437948212627,2.100065237490599
-28.02246572,2.094739820407177,2.096376967011843
-28.0151415,2.109532331628978,2.107441778448111
-28.00781728,2.094739820407177,2.092688696533087
-28.00049306,2.098437948212627,2.100065237490599
-27.99316884,2.105834203823528,2.107441778448111
-27.98584462,2.091041692601727,2.092688696533087
-27.9785204,2.102136076018073,2.10375350796935
-27.97119618,2.102136076018077,2.103753507969355
-27.96387196,2.091041692601727,2.092688696533087
-27.95654774,2.105834203823528,2.107441778448111
-27.94922352,2.094739820407177,2.096376967011843
-27.9418993,2.094739820407177,2.096376967011843
-27.93457508,2.105834203823528,2.107441778448111
-27.92725086,2.091041692601727,2.092688696533087
-27.91992664,2.098437948212627,2.100065237490599
-27.91260242,2.105834203823528,2.103753507969355
-27.9052782,2.091041692601727,2.092688696533087
-27.89795398,2.105834203823528,2.103753507969355
-27.89062976,2.098437948212627,2.100065237490599
-27.88330554,2.091041692601727,2.092688696533087
-27.87598132,2.105834203823528,2.107441778448111
-27.8686571,2.094739820407177,2.096376967011843
-27.86133288,2.094739820407177,2.096376967011843
-27.85400866,2.105834203823528,2.107441778448111
-27.84668444,2.091041692601733,2.092688696533093
-27.83936022,2.102136076018077,2.100065237490599
-27.832036,2.102136076018077,2.103753507969355
-27.82471178,2.091041692601727,2.092688696533087
-27.81738756,2.105834203823528,2.107441778448111
-27.81006334,2.098437948212627,2.100065237490599
-27.80273912,2.091041692601727,2.092688696533087
-27.7954149,2.105834203823523,2.107441778448106
-27.78809068,2.094739820407177,2.096376967011843
-27.78076646,2.098437948212627,2.096376967011843
-27.77344224,2.105834203823528,2.107441778448111
-27.76611802,2.094739820407177,2.092688696533087
-27.7587938,2.102136076018077,2.103753507969355
-27.75146958,2.102136076018077,2.103753507969355
-27.74414536,2.091041692601727,2.092688696533087
-27.73682114,2.105834203823528,2.107441778448111
-27.72949692,2.098437948212627,2.100065237490599
-27.7221727,2.094739820407177,2.096376967011843
-27.71484848,2.105834203823528,2.107441778448111
-27.70752426,2.094739820407177,2.096376967011843
-27.70020004,2.098437948212627,2.100065237490599
-27.69287582,2.105834203823528,2.107441778448111
-27.6855516,2.091041692601727,2.092688696533087
-27.67822738,2.102136076018077,2.103753507969355
-27.67090316,2.102136076018077,2.103753507969355
-27.66357894,2.091041692601732,2.092688696533092
-27.65625472,2.105834203823528,2.107441778448111
-27.6489305,2.094739820407177,2.096376967011843
-27.64160628,2.094739820407177,2.096376967011843
-27.63428206,2.105834203823528,2.107441778448111
-27.62695784,2.094739820407177,2.092688696533087
-27.61963362,2.098437948212627,2.100065237490599
-27.6123094,2.105834203823528,2.103753507969355
-27.60498518,2.091041692601727,2.092688696533087
-27.59766096,2.102136076018077,2.103753507969355
-27.59033674,2.102136076018077,2.100065237490599
-27.58301252,2.094739820407177,2.092688696533087
-27.5756883,2.105834203823528,2.107441778448111
-27.56836408,2.094739820407177,2.096376967011843
-27.56103986,2.094739820407177,2.096376967011843
-27.55371564,2.105834203823528,2.107441778448111
-27.54639142,2.094739820407177,2.096376967011843
-27.5390672,2.098437948212627,2.100065237490599
-27.53174298,2.102136076018077,2.103753507969355
-27.52441876,2.091041692601727,2.092688696533087
-27.51709454,2.105834203823528,2.107441778448111
-27.50977032,2.098437948212627,2.100065237490599
-27.5024461,2.094739820407177,2.092688696533087
-27.49512188,2.105834203823528,2.107441778448111
-27.48779766,2.094739820407177,2.096376967011843
-27.48047344,2.094739820407182,2.096376967011848
-27.47314922,2.105834203823528,2.107441778448111
-27.465825,2.091041692601727,2.092688696533087
-27.45850078,2.102136076018077,2.100065237490599
-27.45117656,2.102136076018077,2.103753507969355
-27.44385234,2.091041692601727,2.092688696533087
-27.43652812,2.105834203823528,2.107441778448111
-27.4292039,2.098437948212627,2.100065237490599
-27.42187968,2.094739820407177,2.092688696533087
-27.41455546,2.105834203823528,2.107441778448111
-27.40723124,2.094739820407177,2.096376967011843
-27.39990702,2.094739820407177,2.096376967011843
-27.3925828,2.105834203823528,2.107441778448111
-27.38525858,2.091041692601727,2.092688696533087
-27.37793436,2.102136076018077,2.103753507969355
-27.37061014,2.102136076018077,2.103753507969355
-27.36328592,2.091041692601727,2.092688696533087
-27.3559617,2.105834203823528,2.107441778448111
-27.34863748,2.098437948212631,2.096376967011848
-27.34131326,2.094739820407177,2.096376967011843
-27.33398904,2.105834203823528,2.107441778448111
-27.32666482,2.094739820407177,2.096376967011843
-27.3193406,2.098437948212627,2.100065237490599
-27.31201638,2.102136076018077,2.107441778448111
-27.30469216,2.091041692601727,2.092688696533087
-27.29736794,2.102136076018076,2.103753507969353
-27.29004372,2.098437948212627,2.100065237490599
-27.2827195,2.091041692601727,2.092688696533087
-27.27539528,2.105834203823528,2.107441778448111
-27.26807106,2.094739820407177,2.096376967011843
-27.26074684,2.094739820407177,2.096376967011843
-27.25342262,2.105834203823528,2.107441778448111
-27.2460984,2.094739820407177,2.096376967011843
-27.23877418,2.098437948212627,2.100065237490599
-27.23144996,2.102136076018077,2.103753507969355
-27.22412574,2.091041692601727,2.092688696533087
-27.21680152,2.102136076018077,2.103753507969355
-27.2094773,2.098437948212627,2.100065237490599
-27.20215308,2.091041692601727,2.092688696533087
-27.19482886,2.105834203823528,2.107441778448111
-27.18750464,2.094739820407177,2.096376967011843
-27.18018042,2.094739820407177,2.096376967011843
-27.1728562,2.105834203823528,2.107441778448111
-27.16553198,2.09104169260173,2.09268869653309
-27.15820776,2.098437948212627,2.100065237490599
-27.15088354,2.102136076018077,2.103753507969355
-27.14355932,2.091041692601727,2.092688696533087
-27.1362351,2.102136076018077,2.103753507969355
-27.12891088,2.098437948212627,2.100065237490599
-27.12158666,2.091041692601727,2.092688696533087
-27.11426244,2.105834203823528,2.107441778448111
-27.10693822,2.094739820407177,2.096376967011843
-27.099614,2.094739820407177,2.096376967011843
-27.09228978,2.105834203823528,2.107441778448111
-27.08496556,2.091041692601727,2.092688696533087
-27.07764134,2.098437948212627,2.100065237490599
-27.07031712,2.102136076018077,2.103753507969355
-27.0629929,2.091041692601727,2.092688696533087
-27.05566868,2.102136076018077,2.103753507969355
-27.04834446,2.094739820407177,2.096376967011843
-27.04102024,3.914218700688694,3.896252960644826
-27.03369602,4.835052524245384,4.829385391769697
-27.0263718,4.860939418883954,4.855203285121414
-27.01904758,4.886826313522105,4.881021178472707
-27.01172336,4.897920696938456,4.892085989908976
-27.00439914,4.897920696938456,4.892085989908976
-26.99707492,4.909015080354807,4.906839071824
-26.9897507,4.912713208160257,4.906839071824
-26.98242648,4.912713208160257,4.906839071824
-26.97510226,4.912713208160257,4.906839071824
-26.96777804,4.879430057911206,4.866268096557683
-26.96045382,4.857241291078504,4.844138473685146
-26.9531296,4.846146907662153,4.833073662248878
-26.94580538,4.838750652051253,4.825697121291365
-26.93848116,4.835052524245802,4.82200885081261
-26.93115694,4.835052524245802,4.82200885081261
-26.92383272,4.842448779856703,4.829385391770121
-26.9165085,4.846146907662153,4.833073662248878
-26.90918428,4.853543163273054,4.84045020320639
-26.90186006,4.846146907662153,4.836761932727634
-26.89453584,4.827656268634902,4.814632309855098
-26.88721162,4.835052524245802,4.82200885081261
-26.8798874,4.879430057911206,4.866268096557683
-26.87256318,4.897920696938456,4.884709448951464
-26.86523896,4.927505719382058,4.917903883260268
-26.85791474,4.94969448621476,4.940033506132805
-26.85059052,4.968185125242014,4.958474858526591
-26.8432663,4.975581380852912,4.969539669962854
-26.83594208,4.982977636463811,4.97322794044161
-26.82861786,4.986675764269262,4.976916210920367
-26.82129364,4.986675764269262,4.976916210920367
-26.81396942,4.986675764269262,4.976916210920367
-26.8066452,4.982977636463811,4.97322794044161
-26.79932098,4.971883253047461,4.962163129005342
-26.79199676,4.971883253047461,4.962163129005342
-26.78467254,4.968185125242011,4.958474858526586
-26.77734832,4.964486997436561,4.954786588047829
-26.7700241,4.96078886963111,4.951098317569073
-26.76269988,4.96078886963111,4.947410047090317
-26.75537566,4.945996358409309,4.936345235654048
-26.74805144,4.945996358409309,4.936345235654048
-26.74072722,4.945996358409309,4.936345235654048
-26.733403,4.942298230603859,4.932656965175293
-26.72607878,4.942298230603859,4.936345235654048
-26.71875456,4.942298230603859,4.932656965175295
-26.71143034,4.942298230603859,4.932656965175293
-26.70410612,4.938600102798409,4.928968694696537
-26.6967819,4.934901974992959,4.925280424217781
-26.68945768,4.934901974992959,4.921592153739025
-26.68213346,4.931203847187509,4.921592153739025
-26.67480924,4.927505719382058,4.917903883260268
-26.66748502,4.927505719382058,4.917903883260268
-26.6601608,4.927505719382058,4.917903883260268
-26.65283658,4.927505719382058,4.917903883260268
-26.64551236,4.927505719382058,4.917903883260268
-26.63818814,4.923807591576608,4.917903883260268
-26.63086392,4.923807591576608,4.914215612781512
-26.6235397,4.923807591576608,4.914215612781512
-26.61621548,4.923807591576608,4.914215612781512
-26.60889126,4.923807591576608,4.914215612781512
-26.60156704,4.923807591576608,4.914215612781512
-26.59424282,4.923807591576608,4.914215612781512
-26.5869186,4.923807591576608,4.914215612781512
-26.57959438,4.923807591576608,4.914215612781512
-26.57227016,4.923807591576608,4.914215612781512
-26.56494594,4.923807591576608,4.914215612781512
-26.55762172,4.923807591576608,4.917903883260268
-26.5502975,4.927505719382058,4.917903883260268
-26.54297328,4.927505719382058,4.917903883260268
-26.53564906,4.927505719382058,4.921592153739023
-26.52832484,4.927505719382058,4.921592153739025
-26.52100062,4.927505719382058,4.917903883260268
-26.5136764,4.927505719382058,4.921592153739025
-26.50635218,4.927505719382058,4.921592153739025
-26.49902796,4.927505719382058,4.917903883260268
-26.49170374,4.927505719382058,4.917903883260268
-26.48437952,4.927505719382058,4.917903883260268
-26.4770553,4.927505719382058,4.917903883260268
-26.46973108,4.927505719382058,4.917903883260268
-26.46240686,4.927505719382058,4.917903883260268
-26.45508264,4.927505719382058,4.921592153739025
-26.44775842,4.927505719382058,4.921592153739025
-26.4404342,4.927505719382058,4.917903883260268
-26.43310998,4.927505719382058,4.917903883260268
-26.42578576,4.927505719382058,4.921592153739025
-26.41846154,4.927505719382058,4.921592153739025
-26.41113732,4.927505719382058,4.921592153739025
-26.4038131,4.927505719382058,4.921592153739025
-26.39648888,4.927505719382058,4.921592153739025
-26.38916466,4.927505719382058,4.921592153739025
-26.38184044,4.927505719382058,4.921592153739025
-26.37451622,4.927505719382058,4.921592153739025
-26.367192,4.927505719382058,4.921592153739025
-26.35986778,4.927505719382058,4.921592153739025
