Testing/Satellite beacon testing/setting 2 testing/short2_15dBm_setting_2.csv

#Digilent WaveForms Oscilloscope Acquisition
#Device Name: Discovery2
#Serial Number: SN:210321A95EED
#Date Time: 2020-05-11 14:10:30.700
#Sample rate: 136.533Hz
#Samples: 7799
#Trigger: Source: Channel 1 Type: Edge Condition: Rising Level: 0 V Hyst.: Auto HoldOff: 0 s
#Channel 1: Range: 700 mV/div Offset: -3 V Attenuation: 1 X
#Channel 2: Range: 700 mV/div Offset: -3 V Attenuation: 1 X

Time (s),Channel 1 (V),Channel 2 (V)
-29.29688,1.395793665177082,1.402982117005694
-29.28955578,1.185000380266515,1.189062429237936
-29.28223156,1.177604124655518,1.185374158759083
-29.27490734,1.196094763682769,1.203815511152864
-29.26758312,1.192396635877319,1.196438970195351
-29.2602589,1.170207869044618,1.174309347322815
-29.25293468,1.196094763682769,1.203815511152864
-29.24561046,1.192396635877319,1.200127240674107
-29.23828624,1.166509741239181,1.174309347322828
-29.23096202,1.196094763682769,1.203815511152864
-29.2236378,1.192396635877319,1.200127240674107
-29.21631358,1.181302252460968,1.189062429237839
-29.20898936,1.181302252460968,1.185374158759083
-29.20166514,1.196094763682769,1.203815511152864
-29.19434092,1.192396635877319,1.196438970195351
-29.1870167,1.166509741239168,1.174309347322815
-29.17969248,1.196094763682769,1.203815511152864
-29.17236826,1.192396635877319,1.200127240674107
-29.16504404,1.170207869044618,1.177997617801571
-29.15771982,1.192396635877319,1.200127240674107
-29.1503956,1.192396635877319,1.200127240674107
-29.14307138,1.185000380266419,1.189062429237839
-29.13574716,1.177604124655518,1.185374158759083
-29.12842294,1.196094763682769,1.203815511152864
-29.12109872,1.192396635877319,1.196438970195351
-29.1137745,1.170207869044618,1.174309347322815
-29.10645028,1.196094763682758,1.20381551115285
-29.09912606,1.192396635877319,1.200127240674107
-29.09180184,1.170207869044618,1.174309347322815
-29.08447762,1.196094763682769,1.203815511152864
-29.0771534,1.196094763682769,1.200127240674107
-29.06982918,1.185000380266419,1.192750699716595
-29.06250496,1.177604124655518,1.181685888280327
-29.05518074,1.196094763682769,1.203815511152864
-29.04785652,1.192396635877319,1.196438970195351
-29.0405323,1.170207869044618,1.174309347322815
-29.03320808,1.196094763682769,1.203815511152864
-29.02588386,1.192396635877319,1.200127240674107
-29.01855964,1.170207869044618,1.174309347322815
-29.01123542,1.196094763682769,1.200127240674107
-29.0039112,1.196094763682769,1.200127240674107
-28.99658698,1.185000380266419,1.189062429237839
-28.98926276,1.177604124655518,1.185374158759083
-28.98193854,1.196094763682769,1.203815511152864
-28.97461432,1.192396635877319,1.196438970195351
-28.9672901,1.166509741239168,1.174309347322815
-28.95996588,1.196094763682769,1.203815511152864
-28.95264166,1.192396635877319,1.200127240674107
-28.94531744,1.173905996850068,1.177997617801571
-28.93799322,1.192396635877319,1.196438970195351
-28.930669,1.196094763682769,1.200127240674107
-28.92334478,1.185000380266417,1.189062429237837
-28.91602056,1.181302252460968,1.185374158759083
-28.90869634,1.196094763682769,1.203815511152864
-28.90137212,1.192396635877319,1.196438970195351
-28.8940479,1.170207869044618,1.174309347322815
-28.88672368,1.196094763682769,1.203815511152864
-28.87939946,3.485235875256466,3.46472531463036
-28.87207524,4.96078886963111,4.954786588047829
-28.86475102,5.079128959405518,5.076499513846781
-28.8574268,5.082827087210968,5.080187784325537
-28.85010258,5.060638320378267,5.058058161453001
-28.84277836,5.027355170129215,5.021175456665439
-28.83545414,4.986675764269262,4.984292751877878
-28.82812992,4.94969448621476,4.943721776611561
-28.8208057,4.909015080354807,4.906839071824
-28.81348148,4.879430057911206,4.873644637515195
-28.80615726,4.816561885218551,4.807255768897585
-28.79883304,4.80176937399675,4.79250268698256
-28.79150882,4.80176937399675,4.79250268698256
-28.7841846,4.80176937399675,4.79250268698256
-28.77686038,4.809165629607651,4.799879227940073
-28.76953616,4.812863757413101,4.799879227940073
-28.76221194,4.816561885218551,4.807255768897585
-28.75488772,4.827656268634902,4.818320580333854
-28.7475635,4.838750652051253,4.825697121291365
-28.74023928,4.84614690766216,4.836761932727639
-28.73291506,4.860939418883954,4.847826744163902
-28.72559084,4.864637546689404,4.855203285121414
-28.71826662,4.875731930105755,4.866268096557683
-28.7109424,4.890524441327556,4.881021178472707
-28.70361818,4.920109463771158,4.914215612781512
-28.69629396,4.945996358409309,4.940033506132805
-28.68896974,4.964486997436561,4.954786588047829
-28.68164552,4.971883253047461,4.965851399484098
-28.6743213,4.982977636463811,4.97322794044161
-28.66699708,4.982977636463811,4.976916210920367
-28.65967286,4.982977636463811,4.976916210920367
-28.65234864,4.982977636463811,4.976916210920367
-28.64502442,4.979279508658362,4.97322794044161
-28.6377002,4.979279508658362,4.969539669962854
-28.63037598,4.975581380852912,4.965851399484098
-28.62305176,4.968185125242011,4.958474858526586
-28.61572754,4.964486997436561,4.958474858526586
-28.60840332,4.960788869631107,4.951098317569071
-28.6010791,4.95339261402021,4.947410047090317
-28.59375488,4.94969448621476,4.943721776611561
-28.58643066,4.942298230603859,4.936345235654048
-28.57910644,4.942298230603859,4.936345235654048
-28.57178222,4.938600102798409,4.932656965175293
-28.564458,4.934901974992959,4.925280424217781
-28.55713378,4.934901974992959,4.928968694696537
-28.54980956,4.931203847187509,4.925280424217781
-28.54248534,4.927505719382058,4.921592153739025
-28.53516112,4.927505719382058,4.921592153739025
-28.5278369,4.923807591576608,4.917903883260268
-28.52051268,4.923807591576608,4.917903883260268
-28.51318846,4.923807591576608,4.917903883260268
-28.50586424,4.920109463771158,4.914215612781512
-28.49854002,4.920109463771158,4.914215612781512
-28.4912158,4.920109463771158,4.914215612781512
-28.48389158,4.916411335965708,4.910527342302756
-28.47656736,4.920109463771156,4.91421561278151
-28.46924314,4.920109463771158,4.910527342302756
-28.46191892,4.916411335965708,4.910527342302756
-28.4545947,4.920109463771158,4.914215612781512
-28.44727048,4.916411335965708,4.906839071824
-28.43994626,4.916411335965708,4.910527342302756
-28.43262204,4.916411335965708,4.910527342302756
-28.42529782,4.912713208160259,4.906839071824002
-28.4179736,4.916411335965708,4.910527342302756
-28.41064938,4.916411335965708,4.910527342302756
-28.40332516,4.912713208160257,4.906839071824
-28.39600094,4.916411335965708,4.910527342302756
-28.38867672,4.916411335965708,4.906839071824
-28.3813525,4.916411335965708,4.906839071824
-28.37402828,4.916411335965708,4.910527342302756
-28.36670406,4.912713208160257,4.906839071824
-28.35937984,4.916411335965708,4.910527342302756
-28.35205562,4.916411335965708,4.910527342302756
-28.3447314,4.912713208160257,4.906839071824
-28.33740718,4.916411335965708,4.910527342302756
-28.33008296,4.916411335965708,4.906839071824
-28.32275874,4.912713208160257,4.906839071824
-28.31543452,4.920109463771158,4.910527342302756
-28.3081103,4.916411335965708,4.906839071824
-28.30078608,4.916411335965708,4.910527342302756
-28.29346186,4.920109463771158,4.91421561278151
-28.28613764,4.920109463771158,4.910527342302756
-28.27881342,4.923807591576608,4.914215612781512
-28.2714892,4.923807591576608,4.914215612781512
-28.26416498,4.920109463771158,4.914215612781512
-28.25684076,4.923807591576608,4.917903883260268
-28.24951654,4.923807591576608,4.914215612781512
-28.24219232,4.920109463771158,4.914215612781512
-28.2348681,4.923807591576608,4.917903883260268
-28.22754388,4.920109463771158,4.914215612781512
-28.22021966,4.923807591576608,4.917903883260268
-28.21289544,4.923807591576608,4.917903883260268
-28.20557122,4.920109463771158,4.914215612781512
-28.198247,4.923807591576608,4.917903883260268
-28.19092278,4.920109463771158,4.914215612781512
-28.18359856,4.920109463771158,4.914215612781512
-28.17627434,4.923807591576608,4.914215612781512
-28.16895012,4.920109463771158,4.914215612781512
-28.1616259,4.920109463771158,4.914215612781512
-28.15430168,4.920109463771158,4.914215612781512
-28.14697746,4.916411335965708,4.910527342302756
-28.13965324,4.920109463771158,4.914215612781512
-28.13232902,4.920109463771158,4.914215612781512
-28.1250048,4.920109463771158,4.910527342302756
-28.11768058,4.920109463771158,4.914215612781512
-28.11035636,4.920109463771158,4.91421561278151
-28.10303214,4.920109463771158,4.910527342302756
-28.09570792,4.920109463771158,4.914215612781512
-28.0883837,4.920109463771158,4.914215612781512
-28.08105948,4.920109463771158,4.914215612781512
-28.07373526,4.920109463771158,4.914215612781512
-28.06641104,4.920109463771158,4.914215612781512
-28.05908682,4.920109463771158,4.914215612781512
-28.0517626,4.920109463771158,4.914215612781512
-28.04443838,4.920109463771158,4.914215612781512
-28.03711416,4.920109463771158,4.914215612781512
-28.02978994,4.920109463771158,4.914215612781512
-28.02246572,4.920109463771158,4.914215612781512
-28.0151415,4.923807591576608,4.914215612781512
-28.00781728,4.920109463771158,4.914215612781512
-28.00049306,4.920109463771158,4.914215612781512
-27.99316884,4.923807591576608,4.914215612781512
-27.98584462,4.920109463771158,4.914215612781512
-27.9785204,4.920109463771158,4.917903883260267
-27.97119618,4.920109463771158,4.914215612781512
-27.96387196,4.920109463771158,4.914215612781512
-27.95654774,4.923807591576608,4.917903883260268
-27.94922352,4.920109463771158,4.914215612781512
-27.9418993,4.920109463771158,4.914215612781512
-27.93457508,4.923807591576608,4.914215612781512
-27.92725086,4.920109463771158,4.914215612781512
-27.91992664,4.923807591576608,4.914215612781512
-27.91260242,4.920109463771158,4.914215612781512
-27.9052782,4.920109463771158,4.914215612781512
-27.89795398,4.920109463771158,4.914215612781512
-27.89062976,4.920109463771158,4.910527342302756
-27.88330554,4.920109463771158,4.910527342302756
-27.87598132,4.920109463771158,4.914215612781512
-27.8686571,4.916411335965708,4.910527342302756
-27.86133288,4.920109463771158,4.914215612781512
-27.85400866,4.920109463771158,4.914215612781512
-27.84668444,4.920109463771158,4.910527342302758
-27.83936022,4.920109463771158,4.914215612781512
-27.832036,4.920109463771158,4.914215612781512
-27.82471178,4.920109463771158,4.914215612781512
-27.81738756,4.923807591576608,4.917903883260268
-27.81006334,4.920109463771158,4.914215612781512
-27.80273912,4.920109463771158,4.914215612781512
-27.7954149,4.923807591576606,4.914215612781512
-27.78809068,4.920109463771158,4.914215612781512
-27.78076646,4.920109463771158,4.914215612781512
-27.77344224,4.923807591576608,4.914215612781512
-27.76611802,4.920109463771158,4.914215612781512
-27.7587938,4.923807591576608,4.914215612781512
-27.75146958,4.920109463771158,4.914215612781512
-27.74414536,4.920109463771158,4.914215612781512
-27.73682114,4.923807591576608,4.914215612781512
-27.72949692,4.920109463771158,4.914215612781512
-27.7221727,4.920109463771158,4.914215612781512
-27.71484848,4.923807591576608,4.914215612781512
-27.70752426,4.920109463771158,4.914215612781512
-27.70020004,4.923807591576608,4.914215612781512
-27.69287582,4.923807591576608,4.914215612781512
-27.6855516,4.920109463771158,4.914215612781512
-27.67822738,4.923807591576608,4.914215612781512
-27.67090316,4.923807591576608,4.914215612781512
-27.66357894,4.920109463771159,4.914215612781512
-27.65625472,4.923807591576608,4.914215612781512
-27.6489305,4.920109463771158,4.914215612781512
-27.64160628,4.923807591576608,4.914215612781512
-27.63428206,4.923807591576608,4.914215612781512
-27.62695784,4.920109463771158,4.914215612781512
-27.61963362,4.923807591576608,4.917903883260268
-27.6123094,4.923807591576608,4.914215612781512
-27.60498518,4.920109463771158,4.914215612781512
-27.59766096,4.923807591576608,4.917903883260268
-27.59033674,4.920109463771158,4.914215612781512
-27.58301252,4.920109463771158,4.914215612781512
-27.5756883,4.920109463771158,4.914215612781512
-27.56836408,4.920109463771158,4.910527342302756
-27.56103986,4.920109463771158,4.914215612781512
-27.55371564,4.920109463771158,4.914215612781512
-27.54639142,4.920109463771158,4.910527342302756
-27.5390672,4.920109463771158,4.914215612781512
-27.53174298,4.920109463771158,4.914215612781512
-27.52441876,4.916411335965708,4.910527342302756
-27.51709454,4.920109463771158,4.914215612781512
-27.50977032,4.916411335965708,4.910527342302756
-27.5024461,4.920109463771158,4.910527342302756
-27.49512188,4.920109463771158,4.910527342302756
-27.48779766,4.916411335965708,4.910527342302756
-27.48047344,4.920109463771158,4.91421561278151
-27.47314922,4.920109463771158,4.910527342302756
-27.465825,4.916411335965708,4.910527342302756
-27.45850078,4.920109463771158,4.914215612781512
-27.45117656,4.920109463771158,4.910527342302756
-27.44385234,4.920109463771158,4.910527342302756
-27.43652812,4.920109463771158,4.914215612781512
-27.4292039,4.920109463771158,4.914215612781512
-27.42187968,4.923807591576608,4.914215612781512
-27.41455546,4.927505719382058,4.921592153739025
-27.40723124,4.927505719382058,4.917903883260268
-27.39990702,4.864637546689404,4.847826744163902
-27.3925828,4.879430057911206,4.873644637515195
-27.38525858,4.894222569133007,4.88839771943022
-27.37793436,4.901618824743906,4.895774260387732
-27.37061014,4.912713208160257,4.906839071824
-27.36328592,4.916411335965708,4.910527342302756
-27.3559617,4.923807591576608,4.917903883260268
-27.34863748,4.927505719382056,4.921592153739023
-27.34131326,4.927505719382058,4.921592153739025
-27.33398904,4.931203847187509,4.925280424217781
-27.32666482,4.931203847187509,4.925280424217781
-27.3193406,4.931203847187509,4.925280424217781
-27.31201638,4.931203847187509,4.925280424217781
-27.30469216,4.931203847187509,4.925280424217781
-27.29736794,4.931203847187509,4.925280424217781
-27.29004372,4.931203847187509,4.925280424217781
-27.2827195,4.923807591576608,4.917903883260268
-27.27539528,4.942298230603859,4.936345235654048
-27.26807106,4.95709074182566,4.951098317569073
-27.26074684,4.96078886963111,4.954786588047829
-27.25342262,4.964486997436561,4.958474858526586
-27.2460984,4.968185125242011,4.965851399484098
-27.23877418,4.971883253047461,4.965851399484098
-27.23144996,4.975581380852912,4.969539669962854
-27.22412574,4.971883253047461,4.969539669962854
-27.21680152,4.971883253047461,4.965851399484098
-27.2094773,4.971883253047461,4.965851399484098
-27.20215308,4.964486997436561,4.958474858526586
-27.19482886,4.96078886963111,4.954786588047829
-27.18750464,4.95709074182566,4.951098317569073
-27.18018042,4.94969448621476,4.947410047090317
-27.1728562,4.968185125242011,4.965851399484098
-27.16553198,4.990373892074718,4.987981022356641
-27.15820776,5.001468275491063,5.002734104271659
-27.15088354,5.008864531101963,5.010110645229171
-27.14355932,5.012562658907414,5.013798915707927
-27.1362351,5.019958914518314,5.017487186186683
-27.12891088,5.016260786712865,5.017487186186683
-27.12158666,5.019958914518314,5.021175456665439
-27.11426244,5.016260786712865,5.017487186186683
-27.10693822,5.012562658907414,5.013798915707927
-27.099614,5.008864531101963,5.010110645229171
-27.09228978,5.005166403296514,5.006422374750415
-27.08496556,5.005166403296514,5.006422374750415
-27.07764134,5.001468275491063,5.002734104271659
-27.07031712,4.997770147685612,4.999045833792903
-27.0629929,4.994072019880162,4.995357563314147
-27.05566868,4.990373892074713,4.991669292835391
-27.04834446,4.990373892074713,4.991669292835391
-27.04102024,4.986675764269262,4.987981022356634
-27.03369602,4.982977636463813,4.98429275187788
-27.0263718,4.982977636463811,4.980604481399123
-27.01904758,4.979279508658362,4.980604481399123
-27.01172336,4.979279508658362,4.980604481399123
-27.00439914,4.979279508658362,4.980604481399123
-26.99707492,4.979279508658362,4.976916210920367
-26.9897507,4.975581380852912,4.97322794044161
-26.98242648,4.971883253047461,4.969539669962856
-26.97510226,4.971883253047461,4.97322794044161
-26.96777804,4.968185125242011,4.969539669962854
-26.96045382,4.968185125242011,4.965851399484098
-26.9531296,4.968185125242011,4.969539669962854
-26.94580538,4.964486997436561,4.965851399484098
-26.93848116,4.968185125242011,4.969539669962854
-26.93115694,4.964486997436561,4.965851399484098
-26.92383272,4.964486997436561,4.965851399484098
-26.9165085,4.964486997436561,4.965851399484098
-26.90918428,4.964486997436561,4.965851399484098
-26.90186006,4.968185125242011,4.969539669962854
-26.89453584,4.964486997436561,4.965851399484098
-26.88721162,4.964486997436561,4.965851399484098
-26.8798874,4.964486997436561,4.965851399484098
-26.87256318,4.964486997436561,4.965851399484098
-26.86523896,4.964486997436561,4.965851399484098
-26.85791474,4.964486997436561,4.965851399484098
-26.85059052,4.964486997436559,4.965851399484096
-26.8432663,4.96078886963111,4.962163129005342
-26.83594208,4.96078886963111,4.962163129005342
-26.82861786,4.964486997436561,4.965851399484098
-26.82129364,4.964486997436561,4.965851399484098
-26.81396942,4.96078886963111,4.965851399484098
-26.8066452,4.96078886963111,4.962163129005342
-26.79932098,4.95709074182566,4.958474858526586
-26.79199676,4.95709074182566,4.958474858526586
-26.78467254,4.95339261402021,4.954786588047829
-26.77734832,4.95339261402021,4.954786588047829
-26.7700241,4.94969448621476,4.951098317569073
-26.76269988,4.95339261402021,4.954786588047829
-26.75537566,4.95709074182566,4.958474858526586
-26.74805144,4.95709074182566,4.958474858526586
-26.74072722,4.96078886963111,4.962163129005342
-26.733403,4.96078886963111,4.962163129005342
-26.72607878,4.95709074182566,4.962163129005342
-26.71875456,4.960788869631108,4.962163129005342
-26.71143034,4.95709074182566,4.958474858526586
-26.70410612,4.95709074182566,4.958474858526586
-26.6967819,4.95709074182566,4.958474858526586
-26.68945768,4.95709074182566,4.958474858526586
-26.68213346,4.96078886963111,4.962163129005342
-26.67480924,4.95709074182566,4.958474858526586
-26.66748502,4.95709074182566,4.958474858526586
-26.6601608,4.95709074182566,4.958474858526586
-26.65283658,4.95709074182566,4.958474858526586
-26.64551236,4.95339261402021,4.958474858526586
-26.63818814,4.95709074182566,4.958474858526586
-26.63086392,4.96078886963111,4.962163129005342
-26.6235397,4.96078886963111,4.962163129005342
-26.61621548,4.96078886963111,4.962163129005342
-26.60889126,4.96078886963111,4.962163129005342
-26.60156704,4.96078886963111,4.962163129005342
-26.59424282,4.96078886963111,4.965851399484098
-26.5869186,4.95709074182566,4.962163129005342
-26.57959438,4.95709074182566,4.958474858526586
-26.57227016,4.95709074182566,4.958474858526586
-26.56494594,4.95339261402021,4.954786588047829
-26.55762172,4.95339261402021,4.954786588047829
-26.5502975,4.94969448621476,4.951098317569073
-26.54297328,4.94969448621476,4.951098317569073
-26.53564906,4.94969448621476,4.951098317569073
-26.52832484,4.94969448621476,4.954786588047829
-26.52100062,4.95709074182566,4.958474858526586
-26.5136764,4.95709074182566,4.958474858526586
-26.50635218,4.95709074182566,4.958474858526586
-26.49902796,4.95709074182566,4.958474858526586
-26.49170374,4.95709074182566,4.962163129005342
-26.48437952,4.96078886963111,4.962163129005342
-26.4770553,4.95709074182566,4.962163129005342
-26.46973108,4.96078886963111,4.962163129005342
-26.46240686,4.96078886963111,4.962163129005342
-26.45508264,4.96078886963111,4.962163129005342
-26.44775842,4.96078886963111,4.962163129005342
-26.4404342,4.96078886963111,4.962163129005342
-26.43310998,4.96078886963111,4.962163129005342
-26.42578576,4.96078886963111,4.962163129005342
-26.41846154,4.96078886963111,4.962163129005342
-26.41113732,4.964486997436561,4.965851399484098
-26.4038131,4.960788869631112,4.962163129005344
-26.39648888,4.96078886963111,4.965851399484098
-26.38916466,4.96078886963111,4.962163129005342
-26.38184044,4.96078886963111,4.962163129005342
-26.37451622,4.96078886963111,4.965851399484098
-26.367192,4.96078886963111,4.962163129005342
-26.35986778,4.964486997436561,4.965851399484098
-26.35254356,4.96078886963111,4.962163129005342
