Testing/Satellite beacon testing/setting 2 testing/short1_15dBm_setting_2.csv

#Digilent WaveForms Oscilloscope Acquisition
#Device Name: Discovery2
#Serial Number: SN:210321A95EED
#Date Time: 2020-05-11 14:08:39.454
#Sample rate: 136.533Hz
#Samples: 7857
#Trigger: Source: Channel 1 Type: Edge Condition: Rising Level: 0 V Hyst.: Auto HoldOff: 0 s
#Channel 1: Range: 700 mV/div Offset: -3 V Attenuation: 1 X
#Channel 2: Range: 700 mV/div Offset: -3 V Attenuation: 1 X

Time (s),Channel 1 (V),Channel 2 (V)
-29.29688,1.939418452578267,1.941469606904086
-29.28955578,1.181302252461313,1.185374158759427
-29.28223156,1.181302252460968,1.185374158759083
-29.27490734,1.181302252460968,1.185374158759083
-29.26758312,1.181302252460968,1.185374158759083
-29.2602589,1.181302252460968,1.185374158759083
-29.25293468,1.181302252460968,1.185374158759083
-29.24561046,1.181302252460968,1.185374158759083
-29.23828624,1.181302252460968,1.185374158759083
-29.23096202,1.181302252460968,1.185374158759083
-29.2236378,1.181302252460968,1.185374158759083
-29.21631358,1.181302252460968,1.185374158759083
-29.20898936,1.181302252460968,1.185374158759083
-29.20166514,1.181302252460968,1.185374158759083
-29.19434092,1.181302252460968,1.185374158759083
-29.1870167,1.181302252460968,1.185374158759083
-29.17969248,1.181302252460968,1.185374158759083
-29.17236826,1.181302252460968,1.185374158759083
-29.16504404,1.181302252460968,1.185374158759083
-29.15771982,1.181302252460968,1.185374158759083
-29.1503956,1.181302252460968,1.185374158759083
-29.14307138,1.181302252460968,1.185374158759083
-29.13574716,1.181302252460968,1.185374158759083
-29.12842294,1.181302252460968,1.185374158759083
-29.12109872,1.181302252460968,1.185374158759083
-29.1137745,1.181302252460968,1.189062429237839
-29.10645028,1.188698508071866,1.192750699716594
-29.09912606,1.188698508071869,1.192750699716595
-29.09180184,1.188698508071869,1.192750699716595
-29.08447762,1.188698508071869,1.192750699716595
-29.0771534,1.185000380266419,1.192750699716595
-29.06982918,1.188698508071869,1.192750699716595
-29.06250496,1.185000380266419,1.192750699716595
-29.05518074,1.185000380266419,1.192750699716595
-29.04785652,1.185000380266419,1.192750699716595
-29.0405323,1.185000380266419,1.192750699716595
-29.03320808,1.185000380266419,1.192750699716595
-29.02588386,1.185000380266419,1.189062429237839
-29.01855964,1.185000380266419,1.189062429237839
-29.01123542,1.185000380266419,1.189062429237839
-29.0039112,1.185000380266419,1.189062429237839
-28.99658698,1.185000380266419,1.189062429237839
-28.98926276,1.185000380266419,1.189062429237839
-28.98193854,1.185000380266419,1.189062429237839
-28.97461432,1.185000380266419,1.189062429237839
-28.9672901,1.185000380266419,1.189062429237839
-28.95996588,1.185000380266419,1.189062429237839
-28.95264166,1.185000380266419,1.189062429237839
-28.94531744,1.185000380266419,1.189062429237839
-28.93799322,1.185000380266419,1.189062429237839
-28.930669,1.185000380266419,1.189062429237839
-28.92334478,1.185000380266419,1.189062429237839
-28.91602056,1.185000380266419,1.189062429237839
-28.90869634,1.185000380266419,1.189062429237839
-28.90137212,1.185000380266419,1.189062429237839
-28.8940479,1.185000380266419,1.189062429237839
-28.88672368,1.185000380266419,1.189062429237839
-28.87939946,1.181302252460968,1.189062429237839
-28.87207524,1.185000380266419,1.189062429237839
-28.86475102,1.181302252460968,1.189062429237839
-28.8574268,1.181302252460968,1.189062429237839
-28.85010258,1.185000380266419,1.189062429237839
-28.84277836,1.181302252460968,1.189062429237839
-28.83545414,1.181302252460968,1.189062429237839
-28.82812992,1.181302252460968,1.189062429237839
-28.8208057,1.181302252460968,1.189062429237839
-28.81348148,1.181302252460968,1.189062429237839
-28.80615726,1.181302252460968,1.185374158759083
-28.79883304,1.181302252460968,1.189062429237839
-28.79150882,1.181302252460968,1.189062429237839
-28.7841846,1.181302252460968,1.189062429237839
-28.77686038,1.181302252460968,1.189062429237839
-28.76953616,1.181302252460968,1.189062429237839
-28.76221194,1.181302252460968,1.189062429237839
-28.75488772,1.181302252460968,1.189062429237839
-28.7475635,1.185000380266419,1.189062429237839
-28.74023928,1.181302252460968,1.189062429237839
-28.73291506,1.181302252460968,1.189062429237839
-28.72559084,1.181302252460968,1.189062429237839
-28.71826662,1.185000380266419,1.189062429237839
-28.7109424,1.185000380266419,1.189062429237839
-28.70361818,1.181302252460968,1.189062429237839
-28.69629396,1.181302252460968,1.189062429237839
-28.68896974,1.181302252460968,1.189062429237839
-28.68164552,1.181302252460968,1.189062429237839
-28.6743213,1.181302252460968,1.189062429237839
-28.66699708,1.181302252460968,1.189062429237839
-28.65967286,1.181302252460968,1.189062429237839
-28.65234864,1.181302252460968,1.189062429237839
-28.64502442,1.181302252460968,1.189062429237839
-28.6377002,1.181302252460968,1.189062429237839
-28.63037598,1.185000380266419,1.189062429237839
-28.62305176,1.181302252460968,1.189062429237839
-28.61572754,1.185000380266419,1.189062429237839
-28.60840332,1.185000380266417,1.189062429237839
-28.6010791,1.181302252460968,1.189062429237839
-28.59375488,1.181302252460968,1.189062429237839
-28.58643066,1.181302252460968,1.189062429237839
-28.57910644,1.181302252460968,1.189062429237839
-28.57178222,1.181302252460968,1.189062429237839
-28.564458,1.181302252460968,1.189062429237839
-28.55713378,1.181302252460968,1.189062429237839
-28.54980956,1.181302252460968,1.189062429237839
-28.54248534,1.181302252460968,1.189062429237839
-28.53516112,1.181302252460968,1.189062429237839
-28.5278369,1.181302252460968,1.189062429237839
-28.52051268,1.181302252460968,1.189062429237839
-28.51318846,1.181302252460968,1.185374158759083
-28.50586424,1.185000380266419,1.185374158759083
-28.49854002,1.181302252460968,1.189062429237839
-28.4912158,1.181302252460968,1.185374158759083
-28.48389158,1.181302252460968,1.185374158759083
-28.47656736,1.181302252460968,1.185374158759083
-28.46924314,1.181302252460968,1.185374158759083
-28.46191892,1.181302252460968,1.185374158759083
-28.4545947,1.181302252460968,1.185374158759083
-28.44727048,1.181302252460968,1.185374158759083
-28.43994626,1.181302252460968,1.185374158759083
-28.43262204,1.181302252460968,1.185374158759083
-28.42529782,1.181302252460968,1.185374158759083
-28.4179736,1.181302252460968,1.185374158759083
-28.41064938,1.181302252460968,1.185374158759083
-28.40332516,1.181302252460968,1.185374158759083
-28.39600094,1.181302252460968,1.185374158759083
-28.38867672,1.181302252460968,1.185374158759083
-28.3813525,1.181302252460968,1.185374158759083
-28.37402828,1.181302252460968,1.185374158759083
-28.36670406,1.181302252460968,1.185374158759083
-28.35937984,1.181302252460968,1.185374158759083
-28.35205562,1.181302252460968,1.185374158759083
-28.3447314,1.181302252460968,1.185374158759083
-28.33740718,1.181302252460968,1.185374158759083
-28.33008296,1.181302252460968,1.185374158759083
-28.32275874,1.181302252460968,1.185374158759083
-28.31543452,1.181302252460968,1.185374158759083
-28.3081103,1.181302252460968,1.185374158759083
-28.30078608,1.181302252460968,1.185374158759083
-28.29346186,1.181302252460968,1.185374158759083
-28.28613764,1.181302252460968,1.185374158759083
-28.27881342,1.181302252460968,1.185374158759083
-28.2714892,1.181302252460968,1.189062429237839
-28.26416498,1.181302252460968,1.185374158759083
-28.25684076,1.181302252460968,1.185374158759083
-28.24951654,1.181302252460968,1.185374158759083
-28.24219232,1.181302252460968,1.185374158759083
-28.2348681,1.181302252460968,1.185374158759083
-28.22754388,1.181302252460968,1.185374158759083
-28.22021966,1.181302252460968,1.185374158759083
-28.21289544,1.181302252460968,1.185374158759083
-28.20557122,1.181302252460968,1.185374158759083
-28.198247,1.181302252460968,1.189062429237839
-28.19092278,1.181302252460968,1.185374158759083
-28.18359856,1.181302252460968,1.185374158759083
-28.17627434,1.181302252460968,1.185374158759083
-28.16895012,1.181302252460968,1.185374158759083
-28.1616259,1.181302252460968,1.185374158759083
-28.15430168,1.181302252460968,1.189062429237839
-28.14697746,1.181302252460968,1.185374158759083
-28.13965324,1.181302252460968,1.185374158759083
-28.13232902,1.181302252460968,1.185374158759083
-28.1250048,1.181302252460968,1.185374158759083
-28.11768058,1.181302252460968,1.185374158759083
-28.11035636,1.181302252460968,1.185374158759083
-28.10303214,1.181302252460968,1.185374158759083
-28.09570792,1.181302252460968,1.185374158759083
-28.0883837,1.181302252460968,1.189062429237839
-28.08105948,1.181302252460968,1.185374158759083
-28.07373526,1.181302252460968,1.185374158759083
-28.06641104,1.181302252460968,1.185374158759083
-28.05908682,1.181302252460968,1.185374158759083
-28.0517626,1.181302252460968,1.185374158759083
-28.04443838,1.181302252460968,1.185374158759083
-28.03711416,1.181302252460968,1.185374158759083
-28.02978994,1.181302252460968,1.185374158759083
-28.02246572,1.181302252460968,1.185374158759083
-28.0151415,1.181302252460968,1.185374158759083
-28.00781728,1.181302252460968,1.185374158759083
-28.00049306,1.181302252460968,1.185374158759083
-27.99316884,1.181302252460968,1.185374158759083
-27.98584462,1.181302252460968,1.185374158759083
-27.9785204,1.181302252460968,1.185374158759083
-27.97119618,1.181302252460968,1.185374158759083
-27.96387196,1.181302252460968,1.185374158759083
-27.95654774,1.181302252460968,1.185374158759083
-27.94922352,1.181302252460968,1.185374158759083
-27.9418993,1.181302252460968,1.185374158759083
-27.93457508,1.181302252460968,1.189062429237839
-27.92725086,1.181302252460968,1.189062429237839
-27.91992664,1.181302252460968,1.185374158759083
-27.91260242,1.181302252460968,1.185374158759083
-27.9052782,1.181302252460968,1.185374158759083
-27.89795398,1.181302252460968,1.185374158759083
-27.89062976,1.181302252460968,1.185374158759083
-27.88330554,1.181302252460968,1.185374158759083
-27.87598132,1.181302252460968,1.185374158759083
-27.8686571,1.181302252460968,1.185374158759083
-27.86133288,1.181302252460968,1.185374158759083
-27.85400866,1.181302252460968,1.189062429237839
-27.84668444,1.181302252460968,1.185374158759085
-27.83936022,1.181302252460968,1.185374158759083
-27.832036,1.181302252460968,1.189062429237839
-27.82471178,1.181302252460968,1.185374158759083
-27.81738756,1.181302252460968,1.189062429237839
-27.81006334,1.181302252460968,1.189062429237839
-27.80273912,1.181302252460968,1.185374158759083
-27.7954149,1.181302252460968,1.185374158759083
-27.78809068,1.181302252460968,1.185374158759083
-27.78076646,1.181302252460968,1.185374158759083
-27.77344224,1.181302252460968,1.185374158759083
-27.76611802,1.181302252460968,1.185374158759083
-27.7587938,1.181302252460968,1.185374158759083
-27.75146958,1.181302252460968,1.185374158759083
-27.74414536,1.181302252460968,1.185374158759083
-27.73682114,1.181302252460968,1.189062429237839
-27.72949692,1.181302252460968,1.185374158759083
-27.7221727,1.181302252460968,1.189062429237839
-27.71484848,1.181302252460968,1.185374158759083
-27.70752426,1.185000380266419,1.189062429237839
-27.70020004,1.188698508071869,1.192750699716595
-27.69287582,1.188698508071869,1.192750699716595
-27.6855516,1.188698508071869,1.192750699716595
-27.67822738,1.188698508071869,1.192750699716595
-27.67090316,1.188698508071869,1.192750699716595
-27.66357894,1.18500038026642,1.192750699716595
-27.65625472,1.185000380266419,1.192750699716595
-27.6489305,1.185000380266419,1.192750699716595
-27.64160628,1.185000380266419,1.192750699716595
-27.63428206,1.185000380266419,1.192750699716595
-27.62695784,1.185000380266419,1.192750699716595
-27.61963362,1.185000380266419,1.192750699716595
-27.6123094,1.185000380266419,1.192750699716595
-27.60498518,1.185000380266419,1.189062429237839
-27.59766096,1.185000380266419,1.192750699716595
-27.59033674,1.185000380266419,1.192750699716595
-27.58301252,1.185000380266419,1.192750699716595
-27.5756883,1.185000380266419,1.192750699716595
-27.56836408,1.185000380266419,1.192750699716595
-27.56103986,1.185000380266419,1.189062429237839
-27.55371564,1.185000380266419,1.189062429237839
-27.54639142,1.185000380266419,1.189062429237839
-27.5390672,1.185000380266419,1.189062429237839
-27.53174298,1.185000380266419,1.189062429237839
-27.52441876,1.185000380266419,1.189062429237839
-27.51709454,1.185000380266419,1.189062429237839
-27.50977032,1.185000380266419,1.189062429237839
-27.5024461,1.185000380266419,1.189062429237839
-27.49512188,1.181302252460968,1.189062429237839
-27.48779766,1.181302252460968,1.189062429237839
-27.48047344,1.181302252460968,1.189062429237839
-27.47314922,1.181302252460968,1.189062429237839
-27.465825,1.181302252460968,1.189062429237839
-27.45850078,1.181302252460968,1.189062429237839
-27.45117656,1.181302252460968,1.189062429237839
-27.44385234,1.181302252460968,1.189062429237839
-27.43652812,1.181302252460968,1.189062429237839
-27.4292039,1.181302252460968,1.189062429237839
-27.42187968,1.181302252460968,1.189062429237839
-27.41455546,1.181302252460968,1.189062429237839
-27.40723124,1.181302252460968,1.189062429237839
-27.39990702,1.181302252460968,1.185374158759083
-27.3925828,1.181302252460968,1.189062429237839
-27.38525858,1.181302252460968,1.185374158759083
-27.37793436,1.181302252460968,1.189062429237839
-27.37061014,1.181302252460968,1.189062429237839
-27.36328592,1.181302252460968,1.185374158759083
-27.3559617,1.181302252460968,1.189062429237839
-27.34863748,1.181302252460968,1.189062429237839
-27.34131326,1.181302252460968,1.185374158759083
-27.33398904,1.181302252460968,1.185374158759083
-27.32666482,1.181302252460968,1.185374158759083
-27.3193406,1.181302252460968,1.185374158759083
-27.31201638,1.181302252460968,1.185374158759083
-27.30469216,1.181302252460968,1.185374158759083
-27.29736794,1.181302252460968,1.185374158759085
-27.29004372,1.181302252460968,1.189062429237839
-27.2827195,1.185000380266419,1.189062429237839
-27.27539528,1.181302252460968,1.189062429237839
-27.26807106,1.181302252460968,1.189062429237839
-27.26074684,1.181302252460968,1.189062429237839
-27.25342262,1.181302252460968,1.189062429237839
-27.2460984,1.181302252460968,1.189062429237839
-27.23877418,1.181302252460968,1.185374158759083
-27.23144996,1.181302252460968,1.185374158759083
-27.22412574,1.181302252460968,1.185374158759083
-27.21680152,1.181302252460968,1.185374158759083
-27.2094773,1.181302252460968,1.185374158759083
-27.20215308,1.181302252460968,1.185374158759083
-27.19482886,1.177604124655518,1.185374158759083
-27.18750464,1.177604124655518,1.185374158759083
-27.18018042,1.177604124655518,1.185374158759083
-27.1728562,1.181302252460968,1.185374158759083
-27.16553198,1.177604124655518,1.185374158759083
-27.15820776,1.177604124655518,1.185374158759083
-27.15088354,1.177604124655518,1.185374158759083
-27.14355932,1.177604124655518,1.185374158759083
-27.1362351,1.177604124655518,1.185374158759083
-27.12891088,1.177604124655518,1.185374158759083
-27.12158666,1.177604124655518,1.181685888280327
-27.11426244,1.177604124655518,1.185374158759083
-27.10693822,1.177604124655518,1.185374158759083
-27.099614,1.177604124655518,1.181685888280327
-27.09228978,1.177604124655518,1.185374158759083
-27.08496556,1.177604124655518,1.185374158759083
-27.07764134,1.177604124655518,1.181685888280327
-27.07031712,1.177604124655518,1.185374158759083
-27.0629929,1.177604124655518,1.181685888280327
-27.05566868,1.177604124655518,1.181685888280327
-27.04834446,1.177604124655518,1.181685888280327
-27.04102024,1.177604124655518,1.181685888280327
-27.03369602,1.177604124655518,1.181685888280327
-27.0263718,1.177604124655518,1.181685888280327
-27.01904758,1.177604124655518,1.181685888280327
-27.01172336,1.177604124655518,1.181685888280327
-27.00439914,1.177604124655518,1.181685888280327
-26.99707492,1.177604124655518,1.181685888280327
-26.9897507,1.185000380266419,1.189062429237839
-26.98242648,4.62425923933531,4.600712622087424
-26.97510226,5.001468275491063,4.999045833792903
-26.96777804,4.927505719382058,4.925280424217781
-26.96045382,4.894222569133007,4.892085989908976
-26.9531296,4.879430057911206,4.873644637515195
-26.94580538,4.883128185716656,4.881021178472707
-26.93848116,4.897920696938456,4.895774260387732
-26.93115694,4.901618824743906,4.895774260387732
-26.92383272,4.912713208160257,4.906839071824
-26.9165085,4.909015080354807,4.899462530866488
-26.90918428,4.872033802300304,4.862579826078926
-26.90186006,4.849845035467603,4.84045020320639
-26.89453584,4.838750652051253,4.825697121291365
-26.88721162,4.831354396440352,4.82200885081261
-26.8798874,4.831354396440352,4.82200885081261
-26.87256318,4.835052524245802,4.825697121291365
-26.86523896,4.842448779856703,4.829385391770121
-26.85791474,4.846146907662153,4.836761932727634
-26.85059052,4.853543163273057,4.84413847368515
-26.8432663,4.860939418883954,4.851515014642659
-26.83594208,4.868335674494855,4.85889155560017
-26.82861786,4.875731930105755,4.866268096557683
-26.82129364,4.883128185716656,4.873644637515195
-26.81396942,4.897920696938456,4.892085989908976
-26.8066452,4.923807591576608,4.917903883260268
-26.79932098,4.945996358409309,4.940033506132805
-26.79199676,4.95709074182566,4.951098317569073
-26.78467254,4.964486997436561,4.958474858526586
-26.77734832,4.968185125242011,4.962163129005342
-26.7700241,4.968185125242011,4.962163129005342
-26.76269988,4.971883253047461,4.965851399484098
-26.75537566,4.971883253047461,4.962163129005342
-26.74805144,4.968185125242011,4.962163129005342
-26.74072722,4.964486997436561,4.958474858526586
-26.733403,4.95709074182566,4.951098317569073
-26.72607878,4.95709074182566,4.951098317569073
-26.71875456,4.95709074182566,4.947410047090319
-26.71143034,4.95339261402021,4.943721776611561
-26.70410612,4.94969448621476,4.943721776611561
-26.6967819,4.945996358409309,4.940033506132805
-26.68945768,4.942298230603859,4.936345235654048
-26.68213346,4.942298230603859,4.936345235654048
-26.67480924,4.938600102798409,4.932656965175293
-26.66748502,4.938600102798407,4.928968694696537
-26.6601608,4.934901974992959,4.928968694696537
-26.65283658,4.931203847187509,4.925280424217781
-26.64551236,4.931203847187509,4.925280424217781
-26.63818814,4.927505719382058,4.921592153739025
-26.63086392,4.927505719382058,4.921592153739025
-26.6235397,4.927505719382058,4.921592153739025
-26.61621548,4.923807591576608,4.917903883260268
-26.60889126,4.923807591576608,4.917903883260268
-26.60156704,4.923807591576608,4.917903883260268
-26.59424282,4.923807591576608,4.914215612781512
-26.5869186,4.923807591576608,4.914215612781512
-26.57959438,4.920109463771158,4.914215612781512
-26.57227016,4.920109463771158,4.914215612781512
-26.56494594,4.920109463771158,4.914215612781512
-26.55762172,4.920109463771158,4.914215612781512
-26.5502975,4.920109463771158,4.914215612781512
-26.54297328,4.920109463771158,4.914215612781512
-26.53564906,4.91641133596571,4.910527342302758
-26.52832484,4.920109463771158,4.914215612781512
-26.52100062,4.920109463771158,4.914215612781512
-26.5136764,4.920109463771158,4.910527342302756
-26.50635218,4.920109463771158,4.910527342302756
-26.49902796,4.916411335965708,4.910527342302756
-26.49170374,4.916411335965708,4.910527342302756
-26.48437952,4.920109463771158,4.914215612781512
-26.4770553,4.916411335965708,4.910527342302756
-26.46973108,4.920109463771158,4.914215612781512
-26.46240686,4.920109463771158,4.914215612781512
-26.45508264,4.920109463771158,4.914215612781512
-26.44775842,4.920109463771158,4.914215612781512
-26.4404342,4.920109463771158,4.914215612781512
-26.43310998,4.920109463771158,4.914215612781512
-26.42578576,4.920109463771158,4.914215612781512
-26.41846154,4.920109463771158,4.914215612781512
-26.41113732,4.920109463771158,4.910527342302756
-26.4038131,4.920109463771158,4.91421561278151
-26.39648888,4.920109463771158,4.910527342302756
-26.38916466,4.920109463771158,4.910527342302756
-26.38184044,4.920109463771158,4.914215612781512
-26.37451622,4.920109463771158,4.914215612781512
-26.367192,4.920109463771158,4.910527342302756
