Testing/Satellite beacon testing/Super capacitor testing/5F_time_to_drain_1.csv

#Digilent WaveForms Oscilloscope Acquisition
#Device Name: Discovery2
#Serial Number: SN:210321A95EED
#Date Time: 2020-04-17 16:10:42.225
#Sample rate: 1.13778Hz
#Samples: 5735
#Trigger: Source: Channel 1 Type: Edge Condition: Either Level: 5 V Hyst.: Auto HoldOff: 0 s
#Channel 1: Range: 1 V/div Offset: -5 V Attenuation: 1 X

Time (s),Channel 1 (V)
84.375,5.624586612384303
85.25390625,6.404891579334303
86.1328125,6.401193451528853
87.01171875,6.401193451528853
87.890625,6.401193451528853
88.76953125,6.401193451528853
89.6484375,6.401193451528853
90.52734375,6.397495323723403
91.40625,6.397495323723403
92.28515625,6.397495323723403
93.1640625,6.397495323723403
94.04296875,6.393797195917952
94.921875,6.393797195917952
95.80078125,6.393797195917952
96.6796875,6.393797195917952
97.55859375,6.390099068112503
98.4375,6.390099068112503
99.31640625,6.390099068112503
100.1953125,6.386400940307052
101.07421875,6.382702812501602
101.953125,6.375306556890701
102.83203125,6.371608429085251
103.7109375,6.364212173474351
104.58984375,6.3605140456689
105.46875,6.35681591786345
106.34765625,6.35681591786345
107.2265625,6.353117790058
108.10546875,6.353117790058
108.984375,6.34941966225255
109.86328125,6.34941966225255
110.7421875,6.34941966225255
111.62109375,6.345721534447099
112.5,6.345721534447099
113.37890625,6.342023406641649
114.2578125,6.342023406641649
115.13671875,6.338325278836199
116.015625,6.338325278836199
116.89453125,6.338325278836199
117.7734375,6.334627151030748
118.65234375,6.334627151030748
119.53125,6.330929023225298
120.41015625,6.330929023225298
121.2890625,6.327230895419849
122.16796875,6.327230895419849
123.046875,6.323532767614398
123.92578125,6.323532767614398
124.8046875,6.323532767614398
125.68359375,6.319834639808947
126.5625,6.319834639808947
127.44140625,6.316136512003498
128.3203125,6.316136512003498
129.19921875,6.312438384198047
130.078125,6.312438384198047
130.95703125,6.312438384198047
131.8359375,6.308740256392597
132.71484375,6.308740256392597
133.59375,6.305042128587147
134.47265625,6.305042128587147
135.3515625,6.301344000781697
136.23046875,6.301344000781697
137.109375,6.301344000781697
137.98828125,6.301344000781697
138.8671875,6.301344000781697
139.74609375,6.301344000781697
140.625,6.301344000781697
141.50390625,6.301344000781697
142.3828125,6.297645872976246
143.26171875,6.297645872976246
144.140625,6.297645872976246
145.01953125,6.297645872976246
145.8984375,6.293947745170796
146.77734375,6.293947745170796
147.65625,6.293947745170796
148.53515625,6.293947745170796
149.4140625,6.293947745170796
150.29296875,6.290249617365346
151.171875,6.290249617365346
152.05078125,6.290249617365346
152.9296875,6.290249617365346
153.80859375,6.290249617365346
154.6875,6.290249617365346
155.56640625,6.290249617365346
156.4453125,6.286551489559896
157.32421875,6.286551489559896
158.203125,6.286551489559896
159.08203125,6.286551489559896
159.9609375,6.286551489559896
160.83984375,6.282853361754445
161.71875,6.282853361754445
162.59765625,6.282853361754445
163.4765625,6.282853361754445
164.35546875,6.282853361754445
165.234375,6.279155233948995
166.11328125,6.279155233948995
166.9921875,6.279155233948995
167.87109375,6.279155233948995
168.75,6.279155233948995
169.62890625,6.275457106143545
170.5078125,6.275457106143545
171.38671875,6.275457106143545
172.265625,6.275457106143545
173.14453125,6.275457106143545
174.0234375,6.275457106143545
174.90234375,6.275457106143545
175.78125,6.271758978338095
176.66015625,6.271758978338095
177.5390625,6.271758978338095
178.41796875,6.271758978338095
179.296875,6.268060850532645
180.17578125,6.268060850532645
181.0546875,6.268060850532645
181.93359375,6.268060850532645
182.8125,6.268060850532645
183.69140625,6.264362722727194
184.5703125,6.264362722727194
185.44921875,6.264362722727194
186.328125,6.264362722727194
187.20703125,6.264362722727194
188.0859375,6.260664594921744
188.96484375,6.260664594921744
189.84375,6.260664594921744
190.72265625,6.260664594921744
191.6015625,6.260664594921744
192.48046875,6.260664594921744
193.359375,6.256966467116293
194.23828125,6.256966467116293
195.1171875,6.256966467116293
195.99609375,6.256966467116293
196.875,6.253268339310844
197.75390625,6.253268339310844
198.6328125,6.253268339310844
199.51171875,6.253268339310844
200.390625,6.253268339310844
201.26953125,6.249570211505393
202.1484375,6.249570211505393
203.02734375,6.249570211505393
203.90625,6.249570211505393
204.78515625,6.249570211505393
205.6640625,6.249570211505393
206.54296875,6.249570211505393
207.421875,6.245872083699943
208.30078125,6.245872083699943
209.1796875,6.245872083699943
210.05859375,6.245872083699943
210.9375,6.242173955894493
211.81640625,6.242173955894493
212.6953125,6.242173955894493
213.57421875,6.242173955894493
214.453125,6.242173955894493
215.33203125,6.242173955894493
216.2109375,6.238475828089042
217.08984375,6.238475828089042
217.96875,6.238475828089042
218.84765625,6.238475828089042
219.7265625,6.238475828089042
220.60546875,6.234777700283592
221.484375,6.234777700283592
222.36328125,6.234777700283592
223.2421875,6.234777700283592
224.12109375,6.234777700283592
225,6.231079572478142
225.87890625,6.231079572478142
226.7578125,6.231079572478142
227.63671875,6.231079572478142
228.515625,6.227381444672692
229.39453125,6.227381444672692
230.2734375,6.227381444672692
231.15234375,6.227381444672692
232.03125,6.227381444672692
232.91015625,6.227381444672692
233.7890625,6.227381444672692
234.66796875,6.223683316867241
235.546875,6.223683316867241
236.42578125,6.223683316867241
237.3046875,6.223683316867241
238.18359375,6.223683316867241
239.0625,6.223683316867241
239.94140625,6.219985189061791
240.8203125,6.219985189061791
241.69921875,6.219985189061791
242.578125,6.219985189061791
243.45703125,6.219985189061791
244.3359375,6.216287061256341
245.21484375,6.216287061256341
246.09375,6.216287061256341
246.97265625,6.216287061256341
247.8515625,6.216287061256341
248.73046875,6.216287061256341
249.609375,6.212588933450891
250.48828125,6.212588933450891
251.3671875,6.212588933450891
252.24609375,6.212588933450891
253.125,6.212588933450891
254.00390625,6.20889080564544
254.8828125,6.20889080564544
255.76171875,6.20889080564544
256.640625,6.20889080564544
257.51953125,6.20889080564544
258.3984375,6.205192677839991
259.27734375,6.205192677839991
260.15625,6.205192677839991
261.03515625,6.205192677839991
261.9140625,6.205192677839991
262.79296875,6.205192677839991
263.671875,6.20149455003454
264.55078125,6.20149455003454
265.4296875,6.20149455003454
266.30859375,6.20149455003454
267.1875,6.20149455003454
268.06640625,6.19779642222909
268.9453125,6.19779642222909
269.82421875,6.19779642222909
270.703125,6.19779642222909
271.58203125,6.19779642222909
272.4609375,6.19409829442364
273.33984375,6.19409829442364
274.21875,6.19409829442364
275.09765625,6.19409829442364
275.9765625,6.19409829442364
276.85546875,6.19040016661819
277.734375,6.19040016661819
278.61328125,6.19040016661819
279.4921875,6.19040016661819
280.37109375,6.19040016661819
281.25,6.19040016661819
282.12890625,6.186702038812739
283.0078125,6.186702038812739
283.88671875,6.186702038812739
284.765625,6.186702038812739
285.64453125,6.183003911007289
286.5234375,6.183003911007289
287.40234375,6.183003911007289
288.28125,6.183003911007289
289.16015625,6.183003911007289
290.0390625,6.183003911007289
290.91796875,6.179305783201839
291.796875,6.179305783201839
292.67578125,6.179305783201839
293.5546875,6.179305783201839
294.43359375,6.179305783201839
295.3125,6.175607655396389
296.19140625,6.175607655396389
297.0703125,6.175607655396389
297.94921875,6.175607655396389
298.828125,6.175607655396389
299.70703125,6.175607655396389
300.5859375,6.171909527590938
301.46484375,6.171909527590938
302.34375,6.171909527590938
303.22265625,6.171909527590938
304.1015625,6.171909527590938
304.98046875,6.168211399785488
305.859375,6.168211399785488
306.73828125,6.168211399785488
307.6171875,6.168211399785488
308.49609375,6.168211399785488
309.375,6.168211399785488
310.25390625,6.164513271980038
311.1328125,6.164513271980038
312.01171875,6.164513271980038
312.890625,6.164513271980038
313.76953125,6.164513271980038
314.6484375,6.164513271980038
315.52734375,6.160815144174587
316.40625,6.160815144174587
317.28515625,6.160815144174587
318.1640625,6.160815144174587
319.04296875,6.160815144174587
319.921875,6.160815144174587
320.80078125,6.157117016369138
321.6796875,6.157117016369138
322.55859375,6.157117016369138
323.4375,6.157117016369138
324.31640625,6.157117016369138
325.1953125,6.157117016369138
326.07421875,6.153418888563687
326.953125,6.153418888563687
327.83203125,6.153418888563687
328.7109375,6.153418888563687
329.58984375,6.153418888563687
330.46875,6.153418888563687
331.34765625,6.149720760758237
332.2265625,6.149720760758237
333.10546875,6.149720760758237
333.984375,6.149720760758237
334.86328125,6.149720760758237
335.7421875,6.149720760758237
336.62109375,6.146022632952787
337.5,6.146022632952787
338.37890625,6.146022632952787
339.2578125,6.146022632952787
340.13671875,6.142324505147336
341.015625,6.142324505147336
341.89453125,6.142324505147336
342.7734375,6.142324505147336
343.65234375,6.142324505147336
344.53125,6.142324505147336
345.41015625,6.142324505147336
346.2890625,6.142324505147336
347.16796875,6.138626377341886
348.046875,6.138626377341886
348.92578125,6.138626377341886
349.8046875,6.138626377341886
350.68359375,6.138626377341886
351.5625,6.134928249536436
352.44140625,6.134928249536436
353.3203125,6.134928249536436
354.19921875,6.134928249536436
355.078125,6.134928249536436
355.95703125,6.134928249536436
356.8359375,6.131230121730986
357.71484375,6.131230121730986
358.59375,6.131230121730986
359.47265625,6.131230121730986
360.3515625,6.131230121730986
361.23046875,6.131230121730986
362.109375,6.127531993925535
362.98828125,6.127531993925535
363.8671875,6.127531993925535
364.74609375,6.127531993925535
365.625,6.127531993925535
366.50390625,6.123833866120085
367.3828125,6.123833866120085
368.26171875,6.123833866120085
369.140625,6.123833866120085
370.01953125,6.123833866120085
370.8984375,6.123833866120085
371.77734375,6.120135738314635
372.65625,6.120135738314635
373.53515625,6.120135738314635
374.4140625,6.120135738314635
375.29296875,6.120135738314635
376.171875,6.116437610509185
377.05078125,6.116437610509185
377.9296875,6.116437610509185
378.80859375,6.116437610509185
379.6875,6.116437610509185
380.56640625,6.116437610509185
381.4453125,6.112739482703734
382.32421875,6.112739482703734
383.203125,6.112739482703734
384.08203125,6.112739482703734
384.9609375,6.112739482703734
385.83984375,6.112739482703734
386.71875,6.112739482703734
387.59765625,6.112739482703734
388.4765625,6.109041354898284
389.35546875,6.109041354898284
390.234375,6.109041354898284
391.11328125,6.109041354898284
391.9921875,6.109041354898284
392.87109375,6.109041354898284
393.75,6.105343227092834
394.62890625,6.105343227092834
395.5078125,6.105343227092834
396.38671875,6.105343227092834
397.265625,6.105343227092834
398.14453125,6.101645099287384
399.0234375,6.101645099287384
399.90234375,6.101645099287384
400.78125,6.101645099287384
401.66015625,6.101645099287384
402.5390625,6.101645099287384
403.41796875,6.101645099287384
404.296875,6.097946971481933
405.17578125,6.097946971481933
406.0546875,6.097946971481933
406.93359375,6.097946971481933
407.8125,6.097946971481933
408.69140625,6.097946971481933
409.5703125,6.094248843676484
410.44921875,6.094248843676484
411.328125,6.094248843676484
412.20703125,6.094248843676484
413.0859375,6.094248843676484
413.96484375,6.094248843676484
414.84375,6.090550715871033
415.72265625,6.090550715871033
416.6015625,6.090550715871033
417.48046875,6.090550715871033
418.359375,6.090550715871033
419.23828125,6.090550715871033
420.1171875,6.090550715871033
420.99609375,6.086852588065582
421.875,6.086852588065582
422.75390625,6.086852588065582
423.6328125,6.086852588065582
424.51171875,6.086852588065582
425.390625,6.083154460260133
426.26953125,6.083154460260133
427.1484375,6.083154460260133
428.02734375,6.083154460260133
428.90625,6.083154460260133
429.78515625,6.083154460260133
430.6640625,6.083154460260133
431.54296875,6.079456332454683
432.421875,6.079456332454683
433.30078125,6.075758204649232
434.1796875,6.068361949038332
435.05859375,6.060965693427431
435.9375,6.057267565621981
436.81640625,6.04987131001108
437.6953125,6.04987131001108
438.57421875,6.04617318220563
439.453125,6.04617318220563
440.33203125,6.04617318220563
441.2109375,6.04247505440018
442.08984375,6.04247505440018
442.96875,6.04247505440018
443.84765625,6.03877692659473
444.7265625,6.03877692659473
445.60546875,6.03877692659473
446.484375,6.03507879878928
447.36328125,6.03507879878928
448.2421875,6.03507879878928
449.12109375,6.031380670983829
450,6.031380670983829
450.87890625,6.031380670983829
451.7578125,6.027682543178379
452.63671875,6.027682543178379
453.515625,6.023984415372929
454.39453125,6.023984415372929
455.2734375,6.023984415372929
456.15234375,6.020286287567479
457.03125,6.020286287567479
457.91015625,6.016588159762028
458.7890625,6.016588159762028
459.66796875,6.016588159762028
460.546875,6.012890031956578
461.42578125,6.012890031956578
462.3046875,6.012890031956578
463.18359375,6.009191904151128
464.0625,6.009191904151128
464.94140625,6.005493776345677
465.8203125,6.005493776345677
466.69921875,6.001795648540227
467.578125,6.001795648540227
468.45703125,6.001795648540227
469.3359375,6.001795648540227
470.21484375,6.001795648540227
471.09375,6.001795648540227
471.97265625,6.001795648540227
472.8515625,5.998097520734778
473.73046875,5.998097520734778
474.609375,5.998097520734778
475.48828125,5.998097520734778
476.3671875,5.998097520734778
477.24609375,5.998097520734778
478.125,5.998097520734778
479.00390625,5.998097520734778
479.8828125,5.994399392929327
480.76171875,5.994399392929327
481.640625,5.994399392929327
482.51953125,5.994399392929327
483.3984375,5.994399392929327
484.27734375,5.994399392929327
485.15625,5.994399392929327
486.03515625,5.990701265123876
486.9140625,5.990701265123876
487.79296875,5.990701265123876
488.671875,5.990701265123876
489.55078125,5.990701265123876
490.4296875,5.990701265123876
491.30859375,5.990701265123876
492.1875,5.987003137318426
493.06640625,5.987003137318426
493.9453125,5.987003137318426
494.82421875,5.987003137318426
495.703125,5.987003137318426
496.58203125,5.987003137318426
497.4609375,5.987003137318426
498.33984375,5.987003137318426
499.21875,5.983305009512976
500.09765625,5.983305009512976
500.9765625,5.983305009512976
501.85546875,5.983305009512976
502.734375,5.979606881707526
503.61328125,5.979606881707526
504.4921875,5.979606881707526
505.37109375,5.979606881707526
506.25,5.979606881707526
507.12890625,5.979606881707526
508.0078125,5.979606881707526
508.88671875,5.979606881707526
509.765625,5.975908753902075
510.64453125,5.975908753902075
511.5234375,5.975908753902075
512.40234375,5.975908753902075
513.28125,5.975908753902075
514.16015625,5.975908753902075
515.0390625,5.972210626096626
515.91796875,5.972210626096626
516.796875,5.972210626096626
517.67578125,5.972210626096626
518.5546875,5.972210626096626
519.43359375,5.972210626096626
520.3125,5.972210626096626
521.19140625,5.972210626096626
522.0703125,5.968512498291175
522.94921875,5.968512498291175
523.828125,5.968512498291175
524.70703125,5.968512498291175
525.5859375,5.968512498291175
526.46484375,5.968512498291175
527.34375,5.968512498291175
528.22265625,5.964814370485725
529.1015625,5.964814370485725
529.98046875,5.964814370485725
530.859375,5.964814370485725
531.73828125,5.964814370485725
532.6171875,5.964814370485725
533.49609375,5.961116242680275
534.375,5.961116242680275
535.25390625,5.961116242680275
536.1328125,5.961116242680275
537.01171875,5.961116242680275
537.890625,5.961116242680275
538.76953125,5.961116242680275
539.6484375,5.957418114874825
540.52734375,5.957418114874825
541.40625,5.957418114874825
542.28515625,5.957418114874825
543.1640625,5.957418114874825
544.04296875,5.957418114874825
544.921875,5.957418114874825
545.80078125,5.953719987069374
546.6796875,5.953719987069374
547.55859375,5.953719987069374
548.4375,5.953719987069374
549.31640625,5.953719987069374
550.1953125,5.950021859263924
551.07421875,5.950021859263924
551.953125,5.950021859263924
552.83203125,5.950021859263924
553.7109375,5.950021859263924
554.58984375,5.950021859263924
555.46875,5.950021859263924
556.34765625,5.950021859263924
557.2265625,5.946323731458474
558.10546875,5.946323731458474
558.984375,5.946323731458474
559.86328125,5.946323731458474
560.7421875,5.946323731458474
561.62109375,5.946323731458474
562.5,5.946323731458474
563.37890625,5.942625603653024
564.2578125,5.942625603653024
565.13671875,5.942625603653024
566.015625,5.942625603653024
566.89453125,5.942625603653024
567.7734375,5.942625603653024
568.65234375,5.938927475847573
569.53125,5.938927475847573
570.41015625,5.938927475847573
571.2890625,5.938927475847573
572.16796875,5.938927475847573
573.046875,5.938927475847573
573.92578125,5.938927475847573
574.8046875,5.938927475847573
575.68359375,5.935229348042123
576.5625,5.935229348042123
577.44140625,5.935229348042123
578.3203125,5.935229348042123
579.19921875,5.935229348042123
580.078125,5.935229348042123
580.95703125,5.931531220236673
581.8359375,5.931531220236673
582.71484375,5.931531220236673
583.59375,5.931531220236673
584.47265625,5.931531220236673
585.3515625,5.931531220236673
586.23046875,5.927833092431222
587.109375,5.927833092431222
587.98828125,5.927833092431222
588.8671875,5.927833092431222
589.74609375,5.927833092431222
590.625,5.927833092431222
591.50390625,5.927833092431222
592.3828125,5.927833092431222
593.26171875,5.924134964625773
594.140625,5.924134964625773
595.01953125,5.924134964625773
595.8984375,5.924134964625773
596.77734375,5.924134964625773
597.65625,5.924134964625773
598.53515625,5.924134964625773
599.4140625,5.920436836820322
600.29296875,5.920436836820322
601.171875,5.920436836820322
602.05078125,5.920436836820322
602.9296875,5.920436836820322
603.80859375,5.920436836820322
604.6875,5.916738709014872
605.56640625,5.916738709014872
606.4453125,5.916738709014872
607.32421875,5.916738709014872
608.203125,5.916738709014872
609.08203125,5.916738709014872
609.9609375,5.916738709014872
610.83984375,5.913040581209422
611.71875,5.913040581209422
612.59765625,5.913040581209422
613.4765625,5.913040581209422
614.35546875,5.913040581209422
615.234375,5.913040581209422
616.11328125,5.913040581209422
616.9921875,5.913040581209422
617.87109375,5.909342453403972
618.75,5.909342453403972
619.62890625,5.909342453403972
620.5078125,5.909342453403972
621.38671875,5.909342453403972
622.265625,5.909342453403972
623.14453125,5.909342453403972
624.0234375,5.905644325598521
624.90234375,5.905644325598521
625.78125,5.905644325598521
626.66015625,5.905644325598521
627.5390625,5.905644325598521
628.41796875,5.905644325598521
629.296875,5.905644325598521
630.17578125,5.901946197793071
631.0546875,5.901946197793071
631.93359375,5.901946197793071
632.8125,5.901946197793071
633.69140625,5.901946197793071
634.5703125,5.901946197793071
635.44921875,5.898248069987621
636.328125,5.898248069987621
637.20703125,5.898248069987621
638.0859375,5.898248069987621
638.96484375,5.898248069987621
639.84375,5.898248069987621
640.72265625,5.89454994218217
641.6015625,5.89454994218217
642.48046875,5.89454994218217
643.359375,5.89454994218217
644.23828125,5.89454994218217
645.1171875,5.89454994218217
645.99609375,5.89454994218217
646.875,5.89085181437672
647.75390625,5.89085181437672
648.6328125,5.89085181437672
649.51171875,5.89085181437672
650.390625,5.89085181437672
651.26953125,5.89085181437672
652.1484375,5.89085181437672
653.02734375,5.88715368657127
653.90625,5.88715368657127
654.78515625,5.88715368657127
655.6640625,5.88715368657127
656.54296875,5.88715368657127
657.421875,5.88715368657127
658.30078125,5.88345555876582
659.1796875,5.88345555876582
660.05859375,5.88345555876582
660.9375,5.88345555876582
661.81640625,5.88345555876582
