Testing/Satellite beacon testing/Super capacitor testing/Full_satellite_cycle1.csv

#Digilent WaveForms Oscilloscope Acquisition
#Device Name: Discovery2
#Serial Number: SN:210321A95EED
#Date Time: 2020-04-18 15:56:27.351
#Sample rate: 1.36533Hz
#Samples: 7326
#Trigger: Source: Channel 1 Type: Edge Condition: Rising Level: 0 V Hyst.: Auto HoldOff: 0 s
#Channel 1: Range: 1 V/div Offset: -5 V Attenuation: 1 X

Time (s),Channel 1 (V)
69.58007859999998,1.142455712179119
70.31250047999993,0.03671549834949883
71.04492236000033,0.0367154983489959
71.77734424000028,0.0367154983489959
72.50976612000022,0.0367154983489959
73.24218800000017,0.0367154983489959
73.97460988000012,0.0367154983489959
74.70703176000006,0.0367154983489959
75.43945364000001,0.04041362615444566
76.17187551999996,0.04411175395989463
76.90429740000036,0.04780988176534774
77.63671928000031,0.05150800957079671
78.36914116000025,0.05520613737624647
79.1015630400002,0.05890426518169711
79.83398492000015,0.06260239298714687
80.5664068000001,0.06630052079259752
81.29882868000004,0.06630052079259752
82.03125055999999,0.06999864859804728
82.76367243999994,0.07369677640349624
83.49609432000034,0.07739490420895025
84.22851620000029,0.08109303201439833
84.96093808000023,0.08479115981984897
85.69335996000018,0.08848928762529873
86.42578184000013,0.08848928762529873
87.15820372000007,0.09218741543074938
87.89062560000002,0.1032817988470995
88.62304747999997,0.1106780544579966
89.35546936000037,0.1180743100689037
90.08789124000032,0.125470565679805
90.82031312000026,0.132866821290702
91.55273500000021,0.1402630769016024
92.28515688000016,0.1513574603179526
93.01757876000011,0.158753715928853
93.75000064000005,0.1661499715397534
94.48242252,0.1735462271506547
95.21484439999995,0.1809424827615518
95.94726628000035,0.1883387383724606
96.6796881600003,0.1994331217888057
97.41211004000024,0.2031312495942563
98.14453192000019,0.2142256330106065
98.87695380000014,0.2216218886215078
99.60937568000008,0.2290181442324082
100.34179756,0.2364143998433086
101.07421944,0.2438106554542056
101.8066413199999,0.251206911065106
102.5390632000003,0.2586031666760132
103.2714850800003,0.2659994222869102
104.0039069600002,0.2733956778978106
104.7363288400002,0.280791933508711
105.4687507200001,0.2881881891196114
106.2011726000001,0.2955844447305118
106.93359448,0.3029807003414122
107.66601636,0.3103769559523092
108.3984382400004,0.3177732115632173
109.1308601200003,0.3251694671741143
109.8632820000003,0.3288675949795641
110.5957038800002,0.3362638505904645
111.3281257600001,0.3436601062013649
112.0605476400001,0.3510563618122653
112.79296952,0.3584526174231657
113.5253914,0.365848873034067
114.2578132799999,0.3695470008395151
114.9902351600003,0.3769432564504205
115.7226570400003,0.3843395120613176
116.4550789200002,0.391735767672218
117.1875008000002,0.3991320232831184
117.9199226800001,0.4065282788940188
118.6523445600001,0.4139245345049201
119.38476644,0.4213207901158205
120.11718832,0.4287170457267175
120.8496102000004,0.4361133013376229
121.5820320800003,0.4398114291430744
122.3144539600003,0.4472076847539714
123.0468758400002,0.4546039403648718
123.7792977200002,0.4620001959757731
124.5117196000001,0.4693964515866735
125.2441414800001,0.4767927071975739
125.97656336,0.4841889628084743
126.7089852399999,0.4878870906139224
127.4414071200003,0.4952833462248279
128.1738290000003,0.5026796018357249
128.9062508800002,0.5100758574466262
129.6386727600002,0.5174721130575266
130.3710946400001,0.5211702408629764
131.1035165200001,0.5285664964738768
131.8359384,0.5359627520847772
132.56836028,0.5433590076956742
133.3007821599999,0.5507552633065755
134.0332040400003,0.554453391112032
134.7656259200003,0.561849646722929
135.4980478000002,0.5692459023338294
136.2304696800002,0.5766421579447298
136.9628915600001,0.5840384135556302
137.6953134400001,0.5914346691665306
138.42773532,0.5951327969719813
139.1601572,0.5988309247774303
139.8925790800004,0.6062271803883357
140.6250009600003,0.6136234359992327
141.3574228400003,0.6210196916101332
142.0898447200002,0.6247178194155829
142.8222666000001,0.6321140750264833
143.5546884800001,0.6395103306373837
144.28711036,0.6432084584428344
145.01953224,0.6506047140537348
145.7519541199999,0.6580009696646318
146.4843760000003,0.6653972252755372
147.2167978800003,0.6690953530809862
147.9492197600002,0.6764916086918866
148.6816416400002,0.683887864302787
149.4140635200001,0.6875859921082368
150.1464854000001,0.6949822477191381
150.87890728,0.6986803755245878
151.61132916,0.7060766311354849
152.3437510400004,0.713472886746392
153.0761729200003,0.7208691423572907
153.8085948000003,0.7245672701627397
154.5410166800002,0.7319635257736401
155.2734385600002,0.7356616535790899
156.0058604400001,0.7430579091899912
156.7382823200001,0.7504541648008916
157.4707042,0.7541522926063413
158.2031260799999,0.7615485482172384
158.9355479600003,0.7689448038281455
159.6679698400003,0.7763410594390425
160.4003917200002,0.7800391872444932
161.1328136000002,0.7837373150499429
161.8652354800001,0.7911335706608442
162.5976573600001,0.7985298262717446
163.33007924,0.8022279540771944
164.06250112,0.8096242096880948
164.7949229999999,0.8170204652989919
165.5273448800003,0.8207185931044492
166.2597667600003,0.8281148487153462
166.9921886400002,0.831812976520796
167.7246105200002,0.8392092321316973
168.4570324000001,0.842907359937147
169.1894542800001,0.8503036155480475
169.92187616,0.8540017433534981
170.65429804,0.8613979989643952
171.3867199200004,0.8650961267698516
172.1191418000003,0.8724923823807487
172.8515636800003,0.8798886379916491
173.5839855600002,0.8835867657970997
174.3164074400001,0.8909830214080001
175.0488293200001,0.8946811492134508
175.7812512,0.9020774048243512
176.51367308,0.9057755326298009
177.2460949599999,0.913171788240698
177.9785168400003,0.9205680438516034
178.7109387200003,0.9242661716570524
179.4433606000002,0.9316624272679528
180.1757824800002,0.9353605550734034
180.9082043600001,0.9427568106843038
181.6406262400001,0.9464549384897536
182.37304812,0.953851194100654
183.10547,0.957549321906103
183.8378918799999,0.9649455775170017
184.5703137600003,0.9686437053224581
185.3027356400003,0.9760399609333561
186.0351575200002,0.9797380887388059
186.7675794000002,0.9871343443497063
187.5000012800001,0.9908324721551569
188.2324231600001,0.9982287277660573
188.96484504,1.001926855571508
189.6972669199999,1.009323111182405
190.4296888000003,1.01671936679331
191.1621106800003,1.020417494598759
191.8945325600002,1.027813750209659
192.6269544400002,1.031511878015109
193.3593763200001,1.03890813362601
194.0917982000001,1.04260626143146
194.82422008,1.050002517042361
195.55664196,1.057398772653261
196.2890638399999,1.061096900458709
197.0214857200003,1.064795028264165
197.7539076000003,1.072191283875062
198.4863294800002,1.075889411680512
199.2187513600002,1.079587539485962
199.9511732400001,1.086983795096863
200.6835951200001,1.090681922902313
201.416017,1.098078178513214
202.14843888,1.101776306318662
202.8808607600004,1.109172561929566
203.6132826400003,1.112870689735014
204.3457045200003,1.120266945345915
205.0781264000002,1.123965073151365
205.8105482800001,1.127663200956815
206.5429701600001,1.135059456567716
207.27539204,1.138757584373166
208.00781392,1.142455712178617
208.7402357999999,1.149851967789514
209.4726576800003,1.157248223400419
210.2050795600003,1.160946351205868
210.9375014400002,1.168342606816768
211.6699233200002,1.172040734622218
212.4023452000001,1.175738862427668
213.1347670800001,1.183135118038569
213.86718896,1.186833245844019
214.59961084,1.194229501454916
215.3320327199999,1.197927629260368
216.0644546000003,1.205323884871272
216.7968764800003,1.209022012676721
217.5292983600002,1.212720140482171
218.2617202400002,1.220116396093071
218.9941421200001,1.223814523898521
219.7265640000001,1.231210779509422
220.45898588,1.234908907314872
221.1914077599999,1.238607035120321
221.9238296400003,1.246003290731225
222.6562515200003,1.249701418536673
223.3886734000002,1.257097674147574
224.1210952800002,1.260795801953024
224.8535171600001,1.268192057563924
225.5859390400001,1.271890185369374
226.31836092,1.275588313174825
227.0507828,1.282984568785725
227.7832046799999,1.286682696591174
228.5156265600003,1.290380824396629
229.2480484400003,1.297777080007526
229.9804703200002,1.301475207812977
230.7128922000002,1.305173335618427
231.4453140800001,1.312569591229327
232.1777359600001,1.316267719034777
232.91015784,1.319965846840228
233.64257972,1.327362102451125
234.3750016000004,1.331060230256581
235.1074234800003,1.338456485867481
235.8398453600003,1.342154613672929
236.5722672400002,1.345852741478379
237.3046891200001,1.34955086928383
238.0371110000001,1.35694712489473
238.76953288,1.36434338050563
239.50195476,1.368041508311081
240.2343766399999,1.371739636116529
240.9667985200003,1.375437763921984
241.6992204000003,1.382834019532882
242.4316422800002,1.390230275143782
243.1640641600002,1.393928402949232
243.8964860400001,1.397626530754683
244.6289079200001,1.401324658560133
245.3613298,1.408720914171033
246.09375168,1.408720914171033
246.8261735599999,1.41611716978193
247.5585954400003,1.423513425392836
248.2910173200003,1.427211553198285
249.0234392000002,1.434607808809185
249.7558610800002,1.438305936614635
250.4882829600001,1.442004064420086
251.2207048400001,1.449400320030986
251.95312672,1.453098447836436
252.6855485999999,1.456796575641885
253.4179704800003,1.464192831252789
254.1503923600003,1.467890959058237
254.8828142400002,1.471589086863687
255.6152361200002,1.478985342474588
256.3476580000001,1.482683470280038
257.0800798800001,1.486381598085488
257.81250176,1.493777853696389
258.54492364,1.497475981501839
259.2773455199999,1.504872237112736
260.0097674000003,1.508570364918191
260.7421892800003,1.51226849272364
261.4746111600002,1.51596662052909
262.2070330400002,1.523362876139991
262.9394549200001,1.527061003945441
263.6718768000001,1.534457259556341
264.40429868,1.538155387361792
265.13672056,1.54185351516724
265.8691424400004,1.545551642972694
266.6015643200003,1.549249770778146
267.3339862000003,1.556646026389043
268.0664080800002,1.560344154194493
268.7988299600001,1.564042281999943
269.5312518400001,1.567740409805394
270.26367372,1.575136665416294
270.9960956,1.578834793221744
271.7285174799999,1.582532921027193
272.4609393600003,1.586231048832648
273.1933612400003,1.593627304443545
273.9257831200002,1.597325432248995
274.6582050000002,1.604721687859896
275.3906268800001,1.604721687859896
276.1230487600001,1.612117943470796
276.85547064,1.615816071276247
277.58789252,1.623212326887144
278.3203143999999,1.623212326887147
279.0527362800003,1.630608582498049
279.7851581600003,1.634306710303498
280.5175800400002,1.641702965914398
281.2500019200002,1.645401093719848
281.9824238000001,1.649099221525299
282.7148456800001,1.652797349330749
283.44726756,1.660193604941649
284.1796894399999,1.663891732747098
284.9121113200003,1.667589860552553
285.6445332000003,1.674986116163451
286.3769550800002,1.678684243968901
287.1093769600002,1.682382371774351
287.8417988400001,1.686080499579801
288.5742207200001,1.693476755190702
289.3066426,1.697174882996152
290.03906448,1.700873010801602
290.7714863599999,1.70457113860705
291.5039082400003,1.708269266412506
292.2363301200003,1.715665522023403
292.9687520000002,1.719363649828853
293.7011738800002,1.726759905439754
294.4335957600001,1.730458033245204
295.1660176400001,1.734156161050654
295.89843952,1.737854288856104
296.6308614,1.745250544467001
297.3632832800004,1.748948672272457
298.0957051600003,1.752646800077907
298.8281270400003,1.756344927883355
299.5605489200002,1.763741183494256
300.2929708000001,1.767439311299706
301.0253926800001,1.771137439105157
301.75781456,1.774835566910607
302.49023644,1.778533694716057
303.2226583199999,1.782231822521505
303.9550802000003,1.789628078132409
304.6875020800003,1.793326205937858
305.4199239600002,1.797024333743308
306.1523458400002,1.800722461548758
306.8847677200001,1.808118717159659
307.6171896000001,1.811816844965109
308.34961148,1.81551497277056
309.08203336,1.81921310057601
309.8144552399999,1.822911228381458
310.5468771200003,1.826609356186912
311.2792990000003,1.83030748399236
312.0117208800002,1.837703739603261
312.7441427600002,1.841401867408711
313.4765646400001,1.848798123019611
314.2089865200001,1.852496250825062
314.9414084,1.856194378630512
315.6738302799999,1.859892506435961
316.4062521600003,1.863590634241414
317.1386740400003,1.867288762046863
317.8710959200002,1.870986889852313
318.6035178000002,1.878383145463213
319.3359396800001,1.882081273268664
320.0683615600001,1.885779401074114
320.80078344,1.889477528879564
321.53320532,1.893175656685014
322.2656271999999,1.896873784490463
322.9980490800003,1.904270040101367
323.7304709600003,1.907968167906815
324.4628928400002,1.911666295712266
325.1953147200002,1.915364423517716
325.9277366000001,1.919062551323166
326.6601584800001,1.922760679128616
327.39258036,1.926458806934066
328.12500224,1.930156934739515
328.8574241199999,1.933855062544965
329.5898460000003,1.937553190350419
330.3222678800003,1.941251318155867
331.0546897600002,1.948647573766768
331.7871116400001,1.952345701572218
332.5195335200001,1.956043829377669
333.2519554,1.959741957183119
333.98437728,1.963440084988569
334.7167991599999,1.967138212794017
335.4492210400003,1.970836340599471
336.1816429200003,1.97453446840492
336.9140648000002,1.97823259621037
337.6464866800002,1.98562885182127
338.3789085600001,1.98932697962672
339.1113304400001,1.993025107432171
339.84375232,1.996723235237621
340.5761742,2.000421363043071
341.3085960799999,2.007817618653968
342.0410179600003,2.011515746459422
342.7734398400003,2.011515746459422
343.5058617200002,2.015213874264872
344.2382836000002,2.018912002070322
344.9707054800001,2.026308257681223
345.7031273600001,2.030006385486673
346.43554924,2.033704513292123
347.1679711199999,2.033704513292123
347.9003930000003,2.041100768903026
348.6328148800003,2.044798896708476
349.3652367600002,2.048497024513924
350.0976586400002,2.052195152319375
350.8300805200001,2.055893280124825
351.5625024000001,2.059591407930275
352.29492428,2.063289535735725
353.02734616,2.066987663541175
353.7597680399999,2.070685791346624
354.4921899200003,2.074383919152078
355.2246118000003,2.078082046957526
355.9570336800002,2.081780174762976
356.6894555600002,2.085478302568426
357.4218774400001,2.085478302568426
358.1542993200001,2.089176430373877
358.8867212,2.092874558179327
359.61914308,2.092874558179327
360.3515649599999,2.096572685984776
361.0839868400003,2.10027081379023
361.8164087200003,2.103968941595678
362.5488306000002,2.103968941595678
363.2812524800001,2.107667069401128
364.0136743600001,2.111365197206578
364.74609624,2.115063325012029
365.47851812,2.115063325012029
366.2109399999999,2.118761452817477
366.9433618800003,2.122459580622931
367.6757837600003,2.126157708428379
368.4082056400002,2.126157708428379
369.1406275200002,2.129855836233829
369.8730494000001,2.13355396403928
370.6054712800001,2.13355396403928
371.33789316,2.13725209184473
372.07031504,2.14095021965018
372.8027369199999,2.144648347455629
373.5351588000003,2.148346475261081
374.2675806800003,2.148346475261081
375.0000025600002,2.152044603066531
375.7324244400002,2.155742730871981
376.4648463200001,2.155742730871981
377.1972682000001,2.159440858677431
377.92969008,2.163138986482882
378.6621119599999,2.16683711428833
379.3945338400003,2.166837114288334
380.1269557200003,2.170535242093784
380.8593776000002,2.174233369899232
381.5917994800002,2.174233369899232
382.3242213600001,2.177931497704682
383.0566432400001,2.181629625510133
383.78906512,2.181629625510133
384.521487,2.185327753315583
385.2539088799999,2.189025881121032
385.9863307600003,2.189025881121035
386.7187526400003,2.192724008926484
387.4511745200002,2.196422136731934
388.1835964000002,2.200120264537384
388.9160182800001,2.200120264537384
389.6484401600001,2.203818392342834
390.38086204,2.207516520148284
391.11328392,2.207516520148284
391.8457057999999,2.211214647953733
392.5781276800003,2.214912775759187
393.3105495600003,2.218610903564635
394.0429714400002,2.218610903564635
394.7753933200001,2.222309031370085
395.5078152000001,2.226007159175535
396.24023708,2.226007159175535
396.97265896,2.229705286980986
397.7050808399999,2.233403414786435
398.4375027200003,2.233403414786438
399.1699246000003,2.237101542591887
399.9023464800002,2.240799670397337
400.6347683600002,2.240799670397337
401.3671902400001,2.244497798202787
402.0996121200001,2.248195926008237
402.832034,2.248195926008237
403.56445588,2.251894053813687
404.2968777599999,2.251894053813687
405.0292996400003,2.255592181619138
405.7617215200003,2.255592181619138
406.4941434000002,2.259290309424588
407.2265652800002,2.259290309424588
407.9589871600001,2.262988437230038
408.6914090400001,2.266686565035488
409.42383092,2.266686565035488
410.1562527999999,2.270384692840937
410.8886746800003,2.274082820646389
411.6210965600003,2.274082820646389
412.3535184400002,2.274082820646389
413.0859403200002,2.277780948451839
413.8183622000001,2.281479076257289
414.5507840800001,2.281479076257289
415.28320596,2.28517720406274
416.01562784,2.28517720406274
416.7480497199999,2.288875331868188
417.4804716000003,2.29257345967364
418.2128934800003,2.29257345967364
418.9453153600002,2.29627158747909
419.6777372400002,2.29996971528454
420.4101591200001,2.29996971528454
421.1425810000001,2.303667843089991
421.87500288,2.303667843089991
422.60742476,2.307365970895441
423.3398466399999,2.311064098700889
424.0722685200003,2.311064098700893
424.8046904000003,2.314762226506341
425.5371122800002,2.318460354311791
426.2695341600001,2.318460354311791
427.0019560400001,2.322158482117242
427.73437792,2.322158482117242
428.4667998,2.325856609922692
429.1992216799999,2.325856609922692
429.9316435600003,2.329554737728144
430.6640654400003,2.333252865533593
431.3964873200002,2.333252865533593
432.1289092000002,2.336950993339043
432.8613310800001,2.336950993339043
433.5937529600001,2.336950993339043
434.32617484,2.340649121144493
435.05859672,2.344347248949943
435.7910185999999,2.344347248949943
436.5234404800003,2.348045376755393
437.2558623600003,2.348045376755393
437.9882842400002,2.351743504560844
438.7207061200002,2.355441632366294
439.4531280000001,2.355441632366294
440.1855498800001,2.359139760171744
440.91797176,2.359139760171744
441.6503936399999,2.362837887977193
442.3828155200003,2.366536015782644
443.1152374000003,2.366536015782644
443.8476592800002,2.366536015782644
444.5800811600002,2.370234143588095
445.3125030400001,2.373932271393545
446.0449249200001,2.373932271393545
446.7773468,2.377630399198996
447.50976868,2.377630399198996
448.2421905599999,2.381328527004444
448.9746124400003,2.381328527004448
449.7070343200003,2.385026654809896
450.4394562000002,2.385026654809896
451.1718780800002,2.388724782615346
451.9042999600001,2.392422910420796
452.6367218400001,2.392422910420796
453.36914372,2.396121038226247
454.1015656,2.396121038226247
454.8339874799999,2.399819166031695
455.5664093600003,2.399819166031699
456.2988312400003,2.403517293837147
457.0312531200002,2.403517293837147
457.7636750000001,2.407215421642597
458.4960968800001,2.407215421642597
459.22851876,2.410913549448047
459.96094064,2.414611677253498
460.6933625199999,2.414611677253498
461.4257844000003,2.414611677253499
462.1582062800003,2.418309805058948
462.8906281600002,2.422007932864398
463.6230500400002,2.422007932864398
464.3554719200001,2.425706060669849
465.0878938000001,2.425706060669849
465.82031568,2.429404188475299
466.55273756,2.429404188475299
467.2851594399999,2.433102316280747
468.0175813200003,2.433102316280751
468.7500032000003,2.436800444086199
469.4824250800002,2.436800444086199
470.2148469600002,2.440498571891649
470.9472688400001,2.4441966996971
471.6796907200001,2.4441966996971
472.4121126,2.4441966996971
473.1445344799999,2.447894827502548
473.8769563599999,2.451592955307998
474.6093782400003,2.451592955308002
475.3418001200002,2.45529108311345
476.0742220000002,2.45529108311345
476.8066438800001,2.4589892109189
477.5390657600001,2.4589892109189
