Testing/Satellite beacon testing/Super capacitor testing/one_panel_5F_sunny_18C_1.csv

#Digilent WaveForms Oscilloscope Acquisition
#Device Name: Discovery2
#Serial Number: SN:210321A95EED
#Date Time: 2020-04-17 14:44:22.839
#Sample rate: 4.55111Hz
#Samples: 7189
#Trigger: Source: Channel 1 Type: Edge Condition: Either Level: 5 V Hyst.: Auto HoldOff: 0 s
#Channel 1: Range: 1 V/div Offset: -5 V Attenuation: 1 X

Time (s),Channel 1 (V)
21.09374976000004,0.8096242096877231
21.31347631999995,-0.007662035316407412
21.53320287999998,-0.007662035316407412
21.75292944,-0.003963907510956766
21.97265600000003,-0.007662035316407412
22.19238255999994,-0.007662035316407412
22.41210911999997,-0.007662035316407412
22.63183567999999,-0.007662035316407412
22.85156224000002,-0.003963907510956766
23.07128879999993,-0.003963907510956766
23.29101535999996,-0.003963907510956766
23.51074191999999,-0.003963907510956766
23.73046848000001,-0.003963907510956766
23.95019504000004,-0.003963907510956766
24.16992159999995,-0.003963907510956766
24.38964815999998,-0.003963907510956766
24.60937472000001,-0.003963907510956766
24.82910128000003,-0.003963907510956766
25.04882783999994,-0.003963907510956766
25.26855439999997,-0.003963907510956766
25.48828096,-0.003963907510956766
25.70800752000002,-0.003963907510956766
25.92773407999994,-0.003963907510956766
26.14746063999996,-0.0002657797055070077
26.36718719999999,-0.0002657797055070077
26.58691376000002,-0.0002657797055070077
26.80664032000004,-0.0002657797055070077
27.02636687999996,-0.0002657797055070077
27.24609343999998,0.003432348099943638
27.46582000000001,0.003432348099943638
27.68554656000003,0.003432348099943638
27.90527311999995,0.003432348099943638
28.12499967999997,0.003432348099943638
28.34472624,0.003432348099943638
28.56445280000003,0.003432348099943638
28.78417935999994,0.003432348099943638
29.00390591999997,0.003432348099943638
29.22363247999999,0.007130475905393396
29.44335904000002,0.01082860371084404
29.66308559999993,0.01082860371084404
29.88281215999996,0.01082860371084404
30.10253871999998,0.0145267315162938
30.32226528000001,0.0145267315162938
30.54199184000004,0.01452673151629548
30.76171839999995,0.01822485932174445
30.98144495999998,0.01822485932174445
31.20117152,0.01822485932174445
31.42089808000003,0.0219229871271942
31.64062463999994,0.0219229871271942
31.86035119999997,0.02562111493264485
32.08007775999999,0.02562111493264485
32.29980432000002,0.0293192427380955
32.51953087999993,0.03301737054354358
32.73925743999996,0.03301737054354525
32.95898399999999,0.0367154983489959
33.17871056000001,0.0367154983489959
33.39843712000004,0.04041362615444566
33.61816367999995,0.04041362615444566
33.83789023999998,0.0441117539598963
34.05761680000001,0.0441117539598963
34.27734336000003,0.04780988176534606
34.49706991999994,0.04780988176534606
34.71679647999997,0.05150800957079671
34.93652304,0.05150800957079671
35.15624960000002,0.05520613737624647
35.37597615999994,0.05520613737624647
35.59570271999996,0.05890426518169711
35.81542927999999,0.05890426518169711
36.03515584000002,0.06260239298714687
36.25488240000004,0.06260239298714855
36.47460895999996,0.06630052079259752
36.69433551999998,0.06630052079259752
36.91406208000001,0.06999864859804728
37.13378864000003,0.07369677640349792
37.35351519999995,0.07369677640349792
37.57324175999997,0.07369677640349792
37.79296832,0.07739490420894857
38.01269488000003,0.07739490420894857
38.23242143999994,0.08109303201439833
38.45214799999997,0.08479115981984897
38.67187455999999,0.08479115981984897
38.89160112000002,0.08848928762529873
39.11132767999993,0.08848928762529873
39.33105423999996,0.08848928762529873
39.55078079999998,0.09218741543074938
39.77050736000001,0.09588554323619913
39.99023392000004,0.09588554323619913
40.20996047999995,0.09588554323619913
40.42968703999998,0.09958367104164978
40.6494136,0.1032817988470995
40.86914016000003,0.1032817988470995
41.08886671999994,0.1032817988470995
41.30859327999997,0.1069799266525502
41.52831983999999,0.1069799266525502
41.74804640000002,0.1106780544579999
41.96777295999993,0.1106780544579999
42.18749951999996,0.1143761822634506
42.40722607999999,0.1143761822634506
42.62695264000001,0.1180743100689003
42.84667920000004,0.118074310068902
43.06640575999995,0.121772437874351
43.28613231999998,0.121772437874351
43.50585888000001,0.1254705656798016
43.72558544000003,0.1254705656798016
43.94531199999994,0.1291686934852514
44.16503855999997,0.1291686934852514
44.38476512,0.132866821290702
44.60449168000002,0.132866821290702
44.82421823999994,0.132866821290702
45.04394479999996,0.1365649490961518
45.26367135999999,0.1365649490961518
45.48339792000002,0.1365649490961518
45.70312448000004,0.1402630769016041
45.92285103999995,0.1439612047070522
46.14257759999998,0.1439612047070522
46.36230416000001,0.1476593325125028
46.58203072000003,0.1476593325125028
46.80175727999995,0.1476593325125028
47.02148383999997,0.1513574603179526
47.2412104,0.1550555881234033
47.46093696000003,0.1550555881234033
47.68066351999994,0.1550555881234033
47.90039007999997,0.158753715928853
48.12011663999999,0.158753715928853
48.33984320000002,0.158753715928853
48.55956976000004,0.1624518437343037
48.77929631999996,0.1624518437343037
48.99902287999998,0.1661499715397534
49.21874944000001,0.1661499715397534
49.43847600000004,0.1698480993452041
49.65820255999995,0.1735462271506547
49.87792911999998,0.1735462271506547
50.09765568,0.1735462271506547
50.31738224000003,0.1772443549561045
50.53710879999994,0.1772443549561045
50.75683535999997,0.1809424827615551
50.97656191999999,0.1809424827615551
51.19628848000002,0.1809424827615551
51.41601503999993,0.1846406105670032
51.63574159999996,0.1883387383724555
51.85546815999999,0.1883387383724555
52.07519472000001,0.1920368661779053
52.29492128000004,0.192036866177907
52.51464783999995,0.1957349939833559
52.73437439999998,0.1957349939833559
52.95410096000001,0.1994331217888057
53.17382752000003,0.1994331217888057
53.39355407999994,0.1994331217888057
53.61328063999997,0.2031312495942563
53.8330072,0.2068293773997061
54.05273376000002,0.2105275052051567
54.27246031999994,0.2105275052051567
54.49218687999996,0.2105275052051567
54.71191343999999,0.2142256330106065
54.93164000000002,0.2142256330106065
55.15136656000004,0.2142256330106082
55.37109311999995,0.2179237608160571
55.59081967999998,0.2179237608160571
55.81054624000001,0.2216218886215078
56.03027280000003,0.2253200164269575
56.24999935999995,0.2253200164269575
56.46972591999997,0.2290181442324082
56.68945248,0.2290181442324082
56.90917904000003,0.2290181442324082
57.12890559999994,0.2290181442324082
57.34863215999997,0.2290181442324082
57.56835871999999,0.2327162720378579
57.78808528000002,0.2327162720378579
58.00781184000004,0.2327162720378613
58.22753839999996,0.2401125276487583
58.44726495999998,0.2401125276487583
58.66699152000001,0.2401125276487583
58.88671808000004,0.243810655454209
59.10644463999995,0.2475087832596587
59.32617119999998,0.2512069110651094
59.54589776,0.2512069110651094
59.76562432000003,0.2512069110651094
59.98535087999994,0.2549050388705592
60.20507743999997,0.2549050388705592
60.42480399999999,0.2549050388705592
60.64453056000002,0.2586031666760098
60.86425711999993,0.2586031666760098
61.08398367999996,0.2623012944814596
61.30371023999999,0.2623012944814596
61.52343680000001,0.2659994222869102
61.74316336000004,0.2659994222869119
61.96288991999995,0.2696975500923608
62.18261647999998,0.2696975500923608
62.40234304000001,0.2733956778978106
62.62206960000003,0.2733956778978106
62.84179615999994,0.2770938057032613
63.06152271999997,0.280791933508711
63.28124928,0.280791933508711
63.50097584000002,0.280791933508711
63.72070239999994,0.28449006131416
63.94042895999996,0.2844900613141617
64.16015551999999,0.2844900613141617
64.37988208000002,0.2844900613141617
64.59960864000004,0.2881881891196114
64.81933519999995,0.2881881891196114
65.03906175999998,0.2918863169250621
65.25878832000001,0.2918863169250621
65.47851488000003,0.2955844447305118
65.69824143999995,0.2955844447305118
65.91796799999997,0.2992825725359625
66.13769456,0.3029807003414122
66.35742112000003,0.3029807003414122
66.57714767999994,0.3066788281468612
66.79687423999997,0.3066788281468629
67.01660079999999,0.3103769559523126
67.23632736000002,0.3066788281468629
67.45605392000004,0.3103769559523126
67.67578047999996,0.3103769559523126
67.89550703999998,0.3103769559523126
68.11523360000001,0.3140750837577633
68.33496016000004,0.3177732115632139
68.55468671999995,0.3177732115632139
68.77441327999998,0.3214713393686637
68.99413984,0.3214713393686637
69.21386640000003,0.3251694671741143
69.43359295999994,0.3251694671741143
69.65331951999997,0.3251694671741143
69.87304607999999,0.3288675949795641
70.09277264000002,0.3288675949795641
70.31249919999993,0.3325657227850131
70.53222575999996,0.3325657227850147
70.75195231999999,0.3362638505904645
70.97167888000001,0.3362638505904645
71.19140544000004,0.3399619783959151
71.41113199999995,0.3436601062013649
71.63085855999998,0.3436601062013649
71.85058512000001,0.3473582340068155
72.07031168000003,0.3473582340068155
72.29003823999994,0.3473582340068155
72.50976479999997,0.3510563618122653
72.72949136,0.3510563618122653
72.94921792000002,0.3510563618122653
73.16894447999994,0.3510563618122653
73.38867103999996,0.3547544896177159
73.60839759999999,0.3547544896177159
73.82812416000002,0.3547544896177159
74.04785072000004,0.3584526174231657
74.26757727999995,0.3584526174231657
74.48730383999998,0.3621507452286163
74.70703040000001,0.365848873034067
74.92675696000003,0.365848873034067
75.14648351999995,0.365848873034067
75.36621007999997,0.3695470008395167
75.58593664,0.3695470008395167
75.80566320000003,0.3732451286449674
76.02538975999994,0.3732451286449674
76.24511631999997,0.3732451286449674
76.46484287999999,0.3769432564504172
76.68456944000002,0.3806413842558678
76.90429600000004,0.3806413842558678
77.12402255999996,0.3806413842558678
77.34374911999998,0.3843395120613176
77.56347568000001,0.3880376398667682
77.78320224000004,0.3880376398667682
78.00292879999995,0.3880376398667682
78.22265535999998,0.3880376398667682
78.44238192,0.391735767672218
78.66210848000003,0.3954338954776686
78.88183503999994,0.3954338954776686
79.10156159999997,0.3954338954776686
79.32128815999999,0.3991320232831184
79.54101472000002,0.3991320232831184
79.76074128000005,0.402830151088569
79.98046783999996,0.402830151088569
80.20019439999999,0.4065282788940188
80.41992096000001,0.4102264066994694
80.63964752000004,0.4102264066994694
80.85937407999995,0.4102264066994694
81.07910063999998,0.4139245345049201
81.29882720000001,0.4139245345049201
81.51855376000003,0.4176226623103698
81.73828031999994,0.4176226623103698
81.95800687999997,0.4176226623103698
82.17773344,0.4213207901158205
82.39746000000002,0.4213207901158205
82.61718655999994,0.4250189179212686
82.83691311999996,0.4250189179212702
83.05663967999999,0.4287170457267209
83.27636624000002,0.4287170457267209
83.49609280000004,0.4324151735321706
83.71581935999995,0.4324151735321706
83.93554591999998,0.4324151735321706
84.15527248000001,0.4361133013376213
84.37499904000003,0.4361133013376213
84.59472559999995,0.439811429143071
84.81445215999997,0.439811429143071
85.03417872,0.439811429143071
85.25390528000003,0.4435095569485217
85.47363183999994,0.4435095569485217
85.69335839999997,0.4472076847539714
85.91308495999999,0.4472076847539714
86.13281152000002,0.4472076847539714
86.35253808000004,0.4509058125594237
86.57226463999996,0.4546039403648718
86.79199119999998,0.4546039403648718
87.01171776000001,0.4583020681703225
87.23144432000004,0.4583020681703225
87.45117087999995,0.4583020681703225
87.67089743999998,0.4620001959757731
87.890624,0.4620001959757731
88.11035056000003,0.4656983237812229
88.33007711999994,0.4656983237812229
88.54980367999997,0.4656983237812229
88.76953023999999,0.4693964515866735
88.98925680000002,0.4693964515866735
89.20898336000005,0.4730945793921233
89.42870991999996,0.4730945793921233
89.64843647999999,0.4730945793921233
89.86816304000001,0.4767927071975739
90.08788960000004,0.4767927071975739
90.30761615999995,0.4804908350030237
90.52734271999998,0.4804908350030237
90.74706928000001,0.4841889628084743
90.96679584000003,0.4841889628084743
91.18652239999994,0.4878870906139241
91.40624895999997,0.4878870906139241
91.62597552,0.4878870906139241
91.84570208000002,0.4878870906139241
92.06542863999994,0.4915852184193731
92.28515519999996,0.4915852184193747
92.50488175999999,0.4952833462248245
92.72460832000002,0.4952833462248245
92.94433488000004,0.4989814740302752
93.16406143999995,0.4989814740302752
93.38378799999998,0.4989814740302752
93.60351456000001,0.5026796018357249
93.82324112000003,0.5063777296411756
94.04296767999995,0.5063777296411756
94.26269423999997,0.5100758574466262
94.4824208,0.513773985252076
94.70214736000003,0.513773985252076
94.92187391999994,0.513773985252076
95.14160047999997,0.513773985252076
95.36132703999999,0.5174721130575266
95.58105360000002,0.5174721130575266
95.80078016000004,0.5211702408629764
96.02050671999996,0.5211702408629764
96.24023327999998,0.524868368668427
96.45995984000001,0.524868368668427
96.67968640000004,0.5285664964738768
96.89941295999995,0.5285664964738768
97.11913951999998,0.5285664964738768
97.33886608,0.5285664964738768
97.55859264000003,0.5322646242793274
97.77831919999994,0.5359627520847755
97.99804575999997,0.5359627520847772
98.21777231999999,0.5359627520847772
98.43749888000002,0.5359627520847772
98.65722544000005,0.5396608798902278
98.87695199999996,0.5396608798902278
99.09667855999999,0.5433590076956776
99.31640512000001,0.5433590076956776
99.53613168000004,0.5470571355011282
99.75585823999995,0.5470571355011282
99.97558479999998,0.5507552633065789
100.19531136,0.5507552633065789
100.41503792,0.5544533911120286
100.6347644799999,0.5544533911120286
100.85449104,0.5581515189174793
101.0742176,0.5581515189174793
101.29394416,0.5581515189174793
101.5136707199999,0.5618496467229274
101.73339728,0.561849646722929
101.95312384,0.5655477745283797
102.1728504,0.5655477745283797
102.39257696,0.5692459023338294
102.61230352,0.5692459023338294
102.83203008,0.5692459023338294
103.05175664,0.5729440301392801
103.2714832,0.5729440301392801
103.4912097599999,0.5766421579447298
103.71093632,0.5766421579447298
103.93066288,0.5766421579447298
104.15038944,0.5803402857501805
104.3701159999999,0.5803402857501805
104.58984256,0.5840384135556302
104.80956912,0.5840384135556302
105.02929568,0.5877365413610809
105.24902224,0.5877365413610809
105.4687488,0.5877365413610809
105.68847536,0.5914346691665306
105.90820192,0.5914346691665306
106.12792848,0.5951327969719813
106.3476550399999,0.5951327969719813
106.5673816,0.5988309247774319
106.78710816,0.5988309247774319
107.00683472,0.5988309247774319
107.2265612799999,0.60252905258288
107.44628784,0.6025290525828817
107.6660144,0.6025290525828817
107.88574096,0.6062271803883323
108.10546752,0.606227180388334
108.32519408,0.6099253081937821
108.54492064,0.6099253081937821
108.7646472,0.6099253081937821
108.98437376,0.6136234359992327
109.20410032,0.6136234359992327
109.42382688,0.6136234359992327
109.64355344,0.6173215638046825
109.86328,0.6173215638046825
110.0830065599999,0.6210196916101332
110.30273312,0.6210196916101332
110.52245968,0.6210196916101332
110.74218624,0.6247178194155829
110.9619128000001,0.6247178194155846
111.18163936,0.6284159472210336
111.40136592,0.6284159472210336
111.62109248,0.6321140750264833
111.84081904,0.6321140750264833
112.0605456,0.635812202831934
112.28027216,0.635812202831934
112.49999872,0.635812202831934
112.71972528,0.6395103306373837
112.9394518399999,0.6395103306373837
113.1591784,0.6432084584428344
113.37890496,0.6432084584428344
113.59863152,0.6432084584428344
113.8183580799999,0.6432084584428344
114.03808464,0.646906586248285
114.2578112,0.646906586248285
114.47753776,0.6506047140537348
114.69726432,0.6543028418591854
114.91699088,0.6543028418591854
115.13671744,0.6543028418591854
115.356444,0.6543028418591854
115.57617056,0.6580009696646352
115.7958971199999,0.6580009696646352
116.01562368,0.6616990974700858
116.23535024,0.6616990974700858
116.4550768,0.6616990974700858
116.6748033599999,0.6653972252755339
116.89452992,0.6653972252755356
117.11425648,0.6690953530809862
117.33398304,0.6690953530809862
117.5537096,0.6727934808864376
117.77343616,0.6764916086918866
117.99316272,0.6764916086918866
118.21288928,0.6764916086918866
118.43261584,0.6764916086918866
118.6523424,0.6801897364973364
118.87206896,0.6801897364973364
119.09179552,0.683887864302787
119.31152208,0.683887864302787
119.5312486399999,0.6875859921082351
119.7509752,0.6875859921082368
119.97070176,0.6875859921082368
120.19042832,0.6912841199136874
120.4101548800001,0.6912841199136874
120.62988144,0.6912841199136874
120.849608,0.6949822477191381
121.06933456,0.6949822477191381
121.28906112,0.6949822477191381
121.50878768,0.6986803755245878
121.72851424,0.6986803755245878
121.9482408,0.7023785033300385
122.16796736,0.7023785033300385
122.3876939199999,0.7060766311354882
122.60742048,0.7060766311354882
122.82714704,0.7060766311354882
123.0468736,0.7097747589409389
123.2666001599999,0.713472886746387
123.48632672,0.7134728867463886
123.70605328,0.7134728867463886
123.92577984,0.7171710145518393
124.1455064,0.7171710145518393
124.36523296,0.720869142357289
124.58495952,0.720869142357289
124.80468608,0.720869142357289
125.02441264,0.7245672701627397
125.2441391999999,0.7245672701627397
125.46386576,0.7282653979681895
125.68359232,0.7282653979681895
125.90331888,0.7282653979681895
126.1230454399999,0.7319635257736384
126.342772,0.7319635257736401
126.56249856,0.7319635257736401
126.78222512,0.7356616535790899
127.00195168,0.7356616535790915
127.22167824,0.7393597813845405
127.4414048,0.7393597813845405
127.66113136,0.7393597813845405
127.88085792,0.7430579091899912
128.10058448,0.7467560369954409
128.32031104,0.7467560369954409
128.5400376,0.7467560369954409
128.75976416,0.7504541648008916
128.9794907199999,0.7504541648008916
129.19921728,0.7504541648008916
129.41894384,0.7541522926063413
129.6386704,0.7541522926063413
129.8583969600001,0.757850420411792
130.07812352,0.757850420411792
130.29785008,0.757850420411792
130.51757664,0.7615485482172417
130.7373032,0.7615485482172417
130.95702976,0.7652466760226924
131.17675632,0.7652466760226924
131.39648288,0.7689448038281421
131.61620944,0.7689448038281421
131.8359359999999,0.7689448038281421
132.05566256,0.7726429316335928
132.27538912,0.7726429316335928
132.49511568,0.7763410594390425
132.7148422399999,0.7763410594390425
132.9345688,0.7800391872444932
133.15429536,0.7763410594390425
133.37402192,0.7837373150499429
133.59374848,0.7800391872444932
133.81347504,0.7837373150499429
134.0332016,0.7837373150499429
134.25292816,0.7874354428553936
134.47265472,0.7874354428553936
134.6923812799999,0.7874354428553936
134.91210784,0.7911335706608442
135.1318344,0.7911335706608442
135.35156096,0.7911335706608442
135.5712875199999,0.7948316984662923
135.79101408,0.794831698466294
136.01074064,0.7985298262717446
136.2304672,0.7985298262717446
136.45019376,0.802227954077196
136.66992032,0.805926081882645
136.88964688,0.805926081882645
137.10937344,0.805926081882645
137.3291,0.805926081882645
137.54882656,0.8096242096880948
137.76855312,0.8096242096880948
137.98827968,0.8133223374935454
138.20800624,0.8133223374935454
138.4277327999999,0.8170204652989935
138.64745936,0.8170204652989952
138.86718592,0.8170204652989952
139.08691248,0.8207185931044458
139.3066390400001,0.8207185931044475
139.5263656,0.8244167209098956
139.74609216,0.8244167209098956
139.96581872,0.8244167209098956
140.18554528,0.8281148487153462
140.40527184,0.8281148487153462
140.6249984,0.831812976520796
140.84472496,0.831812976520796
141.06445152,0.831812976520796
141.2841780799999,0.8355111043262466
141.50390464,0.8355111043262466
141.7236312,0.8355111043262466
141.94335776,0.8355111043262466
142.1630843200001,0.839209232131699
142.38281088,0.842907359937147
142.60253744,0.8392092321316973
142.822264,0.842907359937147
143.04199056,0.842907359937147
