Testing/Satellite beacon testing/Super capacitor testing/two_panel_5F_sunny_16C_1.csv

#Digilent WaveForms Oscilloscope Acquisition
#Device Name: Discovery2
#Serial Number: SN:210321A95EED
#Date Time: 2020-04-18 11:31:39.871
#Sample rate: 6.82667Hz
#Samples: 4070
#Trigger: Source: Channel 1 Type: Edge Condition: Rising Level: 0 V Hyst.: Auto HoldOff: 0 s
#Channel 1: Range: 1 V/div Offset: -5 V Attenuation: 1 X

Time (s),Channel 1 (V)
14.06249951999996,4.833187262020125
14.20898389000001,0.05520613737624647
14.35546826000007,0.05150800957079671
14.50195263000001,0.05150800957079671
14.64843700000006,0.05150800957079671
14.79492137,0.05150800957079671
14.94140574000005,0.05150800957079671
15.08789010999999,0.05150800957079671
15.23437448000004,0.05150800957079671
15.38085884999998,0.05150800957079671
15.52734322000003,0.05150800957079671
15.67382758999997,0.04780988176534774
15.82031196000003,0.04780988176534606
15.96679632999997,0.04780988176534606
16.11328070000002,0.04780988176534606
16.25976506999996,0.04780988176534606
16.40624944000001,0.04780988176534606
16.55273381000006,0.0441117539598963
16.69921818,0.0441117539598963
16.84570255000006,0.0441117539598963
16.99218691999999,0.0441117539598963
17.13867129000005,0.0441117539598963
17.28515565999999,0.0441117539598963
17.43164003000004,0.0441117539598963
17.57812439999998,0.04041362615444734
17.72460877000003,0.04041362615444566
17.87109313999997,0.04041362615444566
18.01757751000002,0.04041362615444566
18.16406187999996,0.04041362615444566
18.31054625000002,0.04041362615444566
18.45703062000007,0.04041362615444566
18.60351499000001,0.04041362615444566
18.74999936000006,0.0441117539598963
18.89648373,0.0441117539598963
19.04296810000005,0.0441117539598963
19.18945246999999,0.0441117539598963
19.33593684000004,0.0441117539598963
19.48242120999998,0.0441117539598963
19.62890558000004,0.0441117539598963
19.77538994999998,0.0441117539598963
19.92187432000003,0.0441117539598963
20.06835868999997,0.0441117539598963
20.21484306000002,0.04780988176534606
20.36132742999996,0.04780988176534606
20.50781180000001,0.04780988176534606
20.65429617000007,0.04780988176534606
20.80078054000001,0.04780988176534606
20.94726491000006,0.04780988176534606
21.09374928,0.04780988176534606
21.24023365000005,0.04780988176534606
21.38671801999999,0.04780988176534606
21.53320239000004,0.04780988176534606
21.67968675999998,0.05150800957079671
21.82617113000003,0.05150800957079671
21.97265549999997,0.05150800957079671
22.11913987000003,0.05150800957079671
22.26562423999997,0.05150800957079671
22.41210861000002,0.05150800957079671
22.55859297999996,0.05150800957079671
22.70507735000001,0.05150800957079671
22.85156172000006,0.05150800957079671
22.99804609,0.05150800957079671
23.14453046000006,0.05150800957079671
23.29101482999999,0.05150800957079671
23.43749920000005,0.05150800957079671
23.58398356999999,0.05520613737624647
23.73046794000004,0.05520613737624647
23.87695230999998,0.05520613737624647
24.02343668000003,0.05520613737624647
24.16992104999997,0.05520613737624647
24.31640542000002,0.05520613737624647
24.46288978999996,0.05520613737624647
24.60937416000002,0.05520613737624647
24.75585853000007,0.05520613737624647
24.90234290000001,0.05520613737624647
25.04882727000006,0.05520613737624647
25.19531164,0.05520613737624647
25.34179601000005,0.05890426518169711
25.48828037999999,0.05890426518169711
25.63476475000004,0.05890426518169711
25.78124911999998,0.05890426518169711
25.92773349000004,0.05890426518169711
26.07421785999998,0.05890426518169711
26.22070223000003,0.05890426518169711
26.36718659999997,0.05890426518169711
26.51367097000002,0.05890426518169711
26.66015533999996,0.05890426518169711
26.80663971000001,0.05890426518169711
26.95312408000007,0.06630052079259752
27.09960845000001,0.06630052079259752
27.24609282000006,0.06999864859804728
27.39257719,0.06999864859804728
27.53906156000005,0.07369677640349792
27.68554592999999,0.07369677640349792
27.83203030000004,0.07369677640349792
27.97851466999998,0.07739490420894857
28.12499904000003,0.07739490420894857
28.27148340999997,0.08109303201439665
28.41796778000003,0.08109303201439833
28.56445214999997,0.08479115981984729
28.71093652000002,0.08479115981984897
28.85742088999996,0.08479115981984897
29.00390526000001,0.08848928762529873
29.15038963000006,0.08848928762530041
29.296874,0.09218741543074938
29.44335837000006,0.09588554323620081
29.58984273999999,0.09958367104164978
29.73632711000005,0.1032817988471012
29.88281147999999,0.1069799266525502
30.02929585000004,0.1106780544579999
30.17578021999998,0.1143761822634489
30.32226459000003,0.1180743100689003
30.46874895999997,0.1180743100689003
30.61523333000002,0.121772437874351
30.76171769999996,0.1254705656797999
30.90820207000002,0.1291686934852514
31.05468644000007,0.1291686934852531
31.20117081000001,0.132866821290702
31.34765518000006,0.1365649490961518
31.49413955,0.1365649490961518
31.64062392000005,0.1402630769016041
31.78710828999999,0.1439612047070522
31.93359266000004,0.1476593325125028
32.08007702999998,0.1476593325125028
32.22656140000004,0.1513574603179526
32.37304576999998,0.1550555881234016
32.51953014000003,0.158753715928853
32.66601450999997,0.158753715928853
32.81249888000002,0.1624518437343037
32.95898324999996,0.1661499715397517
33.10546762000001,0.1698480993452041
33.25195199000007,0.1735462271506547
33.39843636000001,0.1735462271506547
33.54492073000006,0.1772443549561062
33.6914051,0.1809424827615551
33.83788947000005,0.1809424827615568
33.98437383999999,0.1846406105670049
34.13085821000004,0.1883387383724555
34.27734257999998,0.1920368661779053
34.42382695000003,0.1957349939833559
34.57031131999997,0.1957349939833559
34.71679569000003,0.1994331217888057
34.86328005999997,0.2031312495942546
35.00976443000002,0.2031312495942563
35.15624879999996,0.2068293773997044
35.30273317000001,0.2105275052051567
35.44921754000006,0.2142256330106065
35.59570191,0.2142256330106065
35.74218628000006,0.2179237608160588
35.88867064999999,0.2216218886215078
36.03515502000005,0.2253200164269575
36.18163938999999,0.2253200164269575
36.32812376000004,0.2290181442324082
36.47460812999998,0.2327162720378562
36.62109250000003,0.2364143998433086
36.76757686999997,0.2401125276487567
36.91406124000002,0.2401125276487583
37.06054560999996,0.2438106554542073
37.20702998000002,0.2475087832596587
37.35351435000007,0.2475087832596604
37.49999872000001,0.2512069110651094
37.64648309000006,0.2549050388705592
37.79296746,0.2549050388705592
37.93945183000005,0.2586031666760115
38.08593619999999,0.2623012944814596
38.23242057000004,0.2659994222869102
38.37890493999998,0.2659994222869102
38.52538931000004,0.2696975500923608
38.67187367999998,0.2733956778978089
38.81835805000003,0.2770938057032613
38.96484241999997,0.2770938057032613
39.11132679000002,0.280791933508711
39.25781115999996,0.28449006131416
39.40429553000001,0.2881881891196114
39.55077990000007,0.2881881891196131
39.69726427000001,0.2918863169250621
39.84374864000006,0.2955844447305135
39.99023301,0.2992825725359625
40.13671738000005,0.2992825725359641
40.28320174999999,0.3029807003414122
40.42968612000004,0.3066788281468629
40.57617048999998,0.3066788281468629
40.72265486000003,0.3103769559523126
40.86913922999997,0.3140750837577616
41.01562360000003,0.3177732115632139
41.16210796999997,0.3177732115632139
41.30859234000002,0.3214713393686637
41.45507670999996,0.3251694671741127
41.60156108000001,0.3288675949795641
41.74804545000006,0.3288675949795657
41.89452982,0.3325657227850147
42.04101419000006,0.3362638505904662
42.18749855999999,0.3399619783959151
42.33398293000005,0.3399619783959168
42.48046729999999,0.3436601062013649
42.62695167000004,0.3473582340068155
42.77343603999998,0.3473582340068155
42.91992041000003,0.3510563618122653
43.06640477999997,0.3547544896177143
43.21288915000002,0.3547544896177159
43.35937351999996,0.358452617423164
43.50585789000002,0.3584526174231657
43.65234226000007,0.362150745228618
43.79882663000001,0.365848873034067
43.94531100000006,0.3658488730340687
44.09179537,0.3695470008395167
44.23827974000005,0.3732451286449691
44.38476410999999,0.3769432564504172
44.53124848000004,0.3806413842558678
44.67773284999998,0.3806413842558678
44.82421722000004,0.3843395120613176
44.97070158999998,0.3880376398667665
45.11718596000003,0.3880376398667682
45.26367032999997,0.3917357676722163
45.41015470000002,0.3954338954776686
45.55663906999996,0.3991320232831167
45.70312344000001,0.402830151088569
45.84960781000007,0.402830151088569
45.99609218000001,0.402830151088569
46.14257655000006,0.4065282788940188
46.28906092,0.4065282788940188
46.43554529000005,0.4102264066994711
46.58202965999999,0.4139245345049201
46.72851403000004,0.4176226623103698
46.87499839999998,0.4213207901158205
47.02148277000003,0.4213207901158205
47.16796713999997,0.4250189179212686
47.31445151000003,0.4287170457267209
47.46093587999997,0.432415173532169
47.60742025000002,0.4361133013376213
47.75390461999996,0.4361133013376213
47.90038899000001,0.439811429143071
48.04687336000006,0.4435095569485233
48.19335773,0.4472076847539714
48.33984210000006,0.4472076847539731
48.48632646999999,0.4509058125594221
48.63281084000005,0.4509058125594237
48.77929520999999,0.4546039403648718
48.92577958000004,0.4583020681703225
49.07226394999998,0.4620001959757715
49.21874832000003,0.4620001959757731
49.36523268999997,0.4656983237812212
49.51171706000002,0.4693964515866735
49.65820142999996,0.4693964515866735
49.80468580000002,0.4730945793921233
49.95117017000007,0.4767927071975739
50.09765454000001,0.4767927071975739
50.24413891000006,0.4804908350030254
50.39062328,0.4841889628084743
50.53710765000005,0.484188962808476
50.68359201999999,0.4878870906139241
50.83007639000004,0.4915852184193747
50.97656075999998,0.4952833462248245
51.12304513000004,0.4952833462248245
51.26952949999998,0.4989814740302735
51.41601387000003,0.5026796018357249
51.56249823999997,0.5026796018357249
51.70898261000002,0.5063777296411756
51.85546697999996,0.5100758574466245
52.00195135000001,0.513773985252076
52.14843572000007,0.5137739852520776
52.29492009000001,0.5174721130575266
52.44140446000006,0.5211702408629764
52.58788883,0.5211702408629764
52.73437320000005,0.5248683686684287
52.88085756999999,0.5285664964738768
53.02734194000004,0.5322646242793274
53.17382630999998,0.5322646242793274
53.32031068000003,0.5359627520847772
53.46679504999997,0.5396608798902262
53.61327942000003,0.5433590076956776
53.75976378999997,0.5433590076956776
53.90624816000002,0.5470571355011282
54.05273252999996,0.5507552633065772
54.19921690000001,0.5507552633065789
54.34570127000006,0.5544533911120303
54.49218564,0.5581515189174793
54.63867001000006,0.561849646722929
54.78515437999999,0.561849646722929
54.93163875000005,0.5655477745283813
55.07812311999999,0.5692459023338294
55.22460749000004,0.5692459023338294
55.37109185999998,0.5729440301392784
55.51757623000003,0.5766421579447298
55.66406059999997,0.5766421579447298
55.81054497000002,0.5803402857501805
55.95702933999996,0.5840384135556286
56.10351371000002,0.5877365413610809
56.24999808000007,0.5877365413610826
56.39648245000001,0.5914346691665306
56.54296682000006,0.5951327969719813
56.68945119,0.5951327969719813
56.83593556000005,0.5988309247774336
56.98241992999999,0.6025290525828817
57.12890430000004,0.6025290525828817
57.27538866999998,0.6062271803883323
57.42187304000004,0.6062271803883323
57.56835740999998,0.6099253081937804
57.71484178000003,0.6136234359992327
57.86132614999997,0.6136234359992327
58.00781052000002,0.6173215638046825
58.15429488999996,0.6210196916101315
58.30077926000001,0.6210196916101332
58.44726363000007,0.6247178194155846
58.59374800000001,0.6284159472210336
58.74023237000006,0.6284159472210352
58.88671674,0.6321140750264833
59.03320111000005,0.635812202831934
59.17968547999999,0.635812202831934
59.32616985000004,0.6395103306373837
59.47265421999998,0.6432084584428344
59.61913859000003,0.646906586248285
59.76562295999997,0.646906586248285
59.91210733000003,0.6506047140537348
60.05859169999997,0.6543028418591837
60.20507607000002,0.6543028418591854
60.35156043999996,0.6580009696646335
60.49804481000001,0.6616990974700858
60.64452918000006,0.6616990974700875
60.79101355,0.6653972252755356
60.93749792000006,0.6690953530809862
61.08398228999999,0.6690953530809862
61.23046666000005,0.6727934808864376
61.37695102999999,0.6764916086918866
61.52343540000004,0.6764916086918866
61.66991976999998,0.6801897364973347
61.81640414000003,0.683887864302787
61.96288850999997,0.6875859921082351
62.10937288000002,0.6875859921082368
62.25585724999996,0.6912841199136858
62.40234162000002,0.6949822477191381
62.54882599000007,0.6949822477191397
62.69531036000001,0.6986803755245878
62.84179473000006,0.7023785033300385
62.9882791,0.7023785033300385
63.13476347000005,0.7060766311354899
63.28124783999999,0.7097747589409389
63.42773221000004,0.7097747589409389
63.57421657999998,0.7134728867463886
63.72070095000004,0.7171710145518393
63.86718531999998,0.7171710145518393
64.01366969000003,0.720869142357289
64.16015405999997,0.724567270162738
64.30663843000002,0.7245672701627397
64.45312279999996,0.7282653979681878
64.59960717000001,0.7319635257736401
64.74609154000007,0.7319635257736418
64.89257591000001,0.7356616535790899
65.03906028000006,0.7393597813845405
65.18554465,0.7393597813845405
65.33202902000005,0.7430579091899928
65.47851338999999,0.7467560369954409
65.62499776000004,0.7467560369954409
65.77148212999998,0.7504541648008916
65.91796650000003,0.7541522926063413
66.06445086999997,0.7541522926063413
66.21093524000003,0.757850420411792
66.35741960999997,0.7615485482172401
66.50390398000002,0.7615485482172417
66.65038834999996,0.7652466760226907
66.79687272000001,0.7689448038281421
66.94335709000006,0.7689448038281438
67.08984146,0.7726429316335928
67.23632583000006,0.7763410594390425
67.38281019999999,0.7763410594390425
67.52929457000005,0.7800391872444948
67.67577893999999,0.7837373150499429
67.82226331000004,0.7837373150499429
67.96874767999998,0.7874354428553919
68.11523205000003,0.7911335706608442
68.26171641999997,0.7911335706608442
68.40820079000002,0.794831698466294
68.55468515999996,0.798529826271743
68.70116953000002,0.7985298262717446
68.84765390000007,0.802227954077196
68.99413827000001,0.805926081882645
69.14062264000006,0.8096242096880948
69.28710701,0.8096242096880948
69.43359138000005,0.8133223374935471
69.58007574999999,0.8170204652989952
69.72656012000004,0.8170204652989952
69.87304448999998,0.8207185931044458
70.01952886000004,0.8244167209098956
70.16601322999998,0.8244167209098956
70.31249760000003,0.8281148487153462
70.45898196999997,0.8281148487153462
70.60546634000002,0.831812976520796
70.75195070999996,0.835511104326245
70.89843508000001,0.8355111043262466
71.04491945000007,0.8392092321316973
71.19140382,0.8392092321316973
71.33788819000006,0.8429073599371487
71.48437256,0.8466054877425977
71.63085693000005,0.8466054877425994
71.77734129999999,0.8503036155480475
71.92382567000004,0.8503036155480475
72.07031003999998,0.8540017433534981
72.21679441000003,0.8576998711589479
72.36327877999997,0.8613979989643968
72.50976315000003,0.8613979989643985
72.65624751999997,0.8650961267698466
72.80273189000002,0.8687942545752989
72.94921625999996,0.8687942545752989
73.09570063000001,0.8724923823807487
73.24218500000006,0.8761905101861993
73.38866937,0.8761905101861993
73.53515374000006,0.8798886379916507
73.68163810999999,0.8835867657970997
73.82812248000005,0.8835867657971014
73.97460684999999,0.8872848936025504
74.12109122000004,0.8909830214080001
74.26757558999998,0.8909830214080001
74.41405996000003,0.8946811492134508
74.56054432999997,0.8983792770188989
74.70702870000002,0.8983792770189005
74.85351306999996,0.9020774048243495
74.99999744000002,0.9057755326298009
75.14648181000007,0.9057755326298026
75.29296618000001,0.9094736604352516
75.43945055000006,0.9094736604352532
75.58593492,0.9131717882407013
75.73241929000005,0.916869916046152
75.87890365999999,0.916869916046152
76.02538803000004,0.9205680438516017
76.17187239999998,0.9242661716570524
76.31835677000004,0.9242661716570524
76.46484113999998,0.9279642994625005
76.61132551000003,0.9316624272679528
76.75780987999997,0.9316624272679528
76.90429425000002,0.9353605550734034
77.05077861999996,0.9390586828788515
77.19726299000001,0.9427568106843038
77.34374736000007,0.9427568106843055
77.49023173,0.9464549384897536
77.63671610000006,0.9464549384897553
77.78320047,0.9501530662952042
77.92968484000005,0.953851194100654
78.07616920999999,0.953851194100654
78.22265358000004,0.9575493219061046
78.36913794999998,0.9612474497115544
78.51562232000003,0.9612474497115544
78.66210668999997,0.9649455775170034
78.80859106000003,0.964945577517005
78.95507542999997,0.9686437053224531
79.10155980000002,0.9723418331279055
79.24804416999996,0.9723418331279055
79.39452854000001,0.9760399609333561
79.54101291000006,0.9797380887388059
79.68749728,0.9797380887388059
79.83398165000006,0.9834362165442582
79.98046601999999,0.9871343443497063
80.12695039000005,0.9871343443497079
80.27343475999999,0.9908324721551569
80.41991913000004,0.9945305999606067
80.56640349999998,0.9945305999606067
80.71288787000003,0.9982287277660573
80.85937223999997,1.001926855571506
81.00585661000002,1.001926855571508
81.15234097999996,1.005624983376956
81.29882535000002,1.005624983376958
81.44530972000007,1.00932311118241
81.59179409000001,1.013021238987858
81.73827846000006,1.01302123898786
81.88476283,1.016719366793308
82.03124720000005,1.020417494598759
82.17773156999999,1.020417494598759
82.32421594000004,1.024115622404209
82.47070030999998,1.027813750209659
82.61718468000004,1.031511878015109
82.76366904999998,1.031511878015109
82.91015342000003,1.035210005820559
83.05663778999997,1.035210005820559
83.20312216000002,1.03890813362601
83.34960652999996,1.042606261431458
83.49609090000001,1.04260626143146
83.64257527000007,1.046304389236912
83.78905964,1.050002517042361
83.93554401000006,1.050002517042362
84.08202838,1.053700644847811
84.22851275000005,1.057398772653263
84.37499711999999,1.061096900458711
84.52148149000004,1.061096900458711
84.66796585999998,1.064795028264161
84.81445023000003,1.064795028264161
84.96093459999997,1.06849315606961
85.10741897000003,1.072191283875062
85.25390333999997,1.072191283875062
85.40038771000002,1.075889411680512
85.54687207999996,1.075889411680512
85.69335645000001,1.079587539485962
85.83984082000006,1.079587539485964
85.98632519,1.083285667291412
86.13280956000006,1.086983795096863
86.27929392999999,1.086983795096863
86.42577830000005,1.090681922902313
86.57226266999999,1.090681922902313
86.71874704000004,1.094380050707763
86.86523140999998,1.098078178513212
87.01171578000003,1.098078178513214
87.15820014999997,1.101776306318662
87.30468452000002,1.105474434124114
87.45116888999996,1.105474434124114
87.59765326000002,1.109172561929564
87.74413763000007,1.112870689735014
87.89062200000001,1.112870689735014
88.03710637,1.116568817540465
88.18359074,1.120266945345915
88.33007511,1.120266945345915
88.47655947999999,1.123965073151365
88.62304384999999,1.123965073151365
88.76952822000004,1.127663200956815
88.91601259000004,1.131361328762265
89.06249696000003,1.131361328762265
89.20898133000003,1.135059456567716
89.35546570000002,1.138757584373166
89.50195007000002,1.138757584373166
89.64843444000002,1.142455712178617
89.79491881000001,1.142455712178617
89.94140318000001,1.146153839984067
90.08788755,1.149851967789517
90.23437192,1.149851967789517
90.38085629,1.153550095594967
90.52734065999999,1.153550095594967
90.67382502999999,1.157248223400417
90.82030940000004,1.160946351205868
90.96679377000004,1.160946351205868
91.11327814000003,1.164644479011318
91.25976251000003,1.168342606816768
91.40624688000003,1.168342606816768
91.55273125000002,1.172040734622218
91.69921562000002,1.172040734622218
91.84569999000001,1.175738862427668
91.99218436000001,1.179436990233119
92.13866873000001,1.179436990233119
92.2851531,1.183135118038569
92.43163747,1.183135118038569
92.57812183999999,1.186833245844019
92.72460620999999,1.19053137364947
92.87109057999999,1.19422950145492
