Testing/Satellite beacon testing/Super capacitor testing/two_panel_5F_sunny_14C.csv

#Digilent WaveForms Oscilloscope Acquisition
#Device Name: Discovery2
#Serial Number: SN:210321A95EED
#Date Time: 2020-04-18 09:29:03.278
#Sample rate: 4.55111Hz
#Samples: 2523
#Trigger: Source: Channel 1 Type: Edge Condition: Rising Level: 0 V Hyst.: Auto HoldOff: 0 s
#Channel 1: Range: 1 V/div Offset: -5 V Attenuation: 1 X

Time (s),Channel 1 (V)
21.09374976000004,2.588423684108473
21.31347631999995,-0.01875641873275846
21.53320287999998,-0.01875641873275846
21.75292944,-0.01875641873275846
21.97265600000003,-0.01505829092730782
22.19238255999994,-0.01505829092730782
22.41210911999997,-0.01875641873275846
22.63183567999999,-0.01875641873275846
22.85156224000002,-0.01875641873275846
23.07128879999993,-0.01875641873275846
23.29101535999996,-0.01875641873275846
23.51074191999999,-0.01875641873275846
23.73046848000001,-0.01505829092730782
23.95019504000004,-0.01505829092730782
24.16992159999995,-0.01505829092730782
24.38964815999998,-0.01875641873275846
24.60937472000001,-0.01505829092730782
24.82910128000003,-0.01875641873275846
25.04882783999994,-0.01875641873275846
25.26855439999997,-0.01875641873275846
25.48828096,-0.01875641873275846
25.70800752000002,-0.01875641873275846
25.92773407999994,-0.01875641873275846
26.14746063999996,-0.01875641873275846
26.36718719999999,-0.01875641873275846
26.58691376000002,-0.01875641873275846
26.80664032000004,-0.01875641873275678
27.02636687999996,-0.01505829092730782
27.24609343999998,-0.01505829092730782
27.46582000000001,-0.01505829092730782
27.68554656000003,-0.01505829092730782
27.90527311999995,-0.01505829092730782
28.12499967999997,-0.01505829092730782
28.34472624,-0.01505829092730782
28.56445280000003,-0.01136016312185717
28.78417935999994,-0.01136016312185717
29.00390591999997,-0.01136016312185717
29.22363247999999,-0.01136016312185717
29.44335904000002,-0.01136016312185717
29.66308559999993,-0.01136016312185717
29.88281215999996,-0.01136016312185717
30.10253871999998,-0.01136016312185717
30.32226528000001,-0.01136016312185717
30.54199184000004,-0.01136016312185717
30.76171839999995,-0.01136016312185717
30.98144495999998,-0.007662035316407412
31.20117152,-0.007662035316407412
31.42089808000003,-0.007662035316407412
31.64062463999994,-0.007662035316407412
31.86035119999997,-0.007662035316407412
32.08007775999999,-0.007662035316407412
32.29980432000002,-0.007662035316407412
32.51953087999993,-0.007662035316407412
32.73925743999996,-0.007662035316407412
32.95898399999999,-0.007662035316407412
33.17871056000001,-0.007662035316407412
33.39843712000004,-0.007662035316407412
33.61816367999995,-0.007662035316407412
33.83789023999998,-0.003963907510956766
34.05761680000001,-0.003963907510956766
34.27734336000003,-0.003963907510956766
34.49706991999994,-0.003963907510956766
34.71679647999997,-0.003963907510956766
34.93652304,-0.003963907510956766
35.15624960000002,-0.003963907510956766
35.37597615999994,-0.003963907510956766
35.59570271999996,-0.003963907510956766
35.81542927999999,-0.003963907510956766
36.03515584000002,-0.003963907510956766
36.25488240000004,-0.003963907510956766
36.47460895999996,-0.003963907510956766
36.69433551999998,-0.003963907510956766
36.91406208000001,-0.0002657797055070077
37.13378864000003,-0.0002657797055070077
37.35351519999995,-0.0002657797055070077
37.57324175999997,-0.0002657797055070077
37.79296832,-0.0002657797055070077
38.01269488000003,-0.0002657797055070077
38.23242143999994,-0.0002657797055070077
38.45214799999997,-0.0002657797055070077
38.67187455999999,-0.0002657797055070077
38.89160112000002,-0.0002657797055070077
39.11132767999993,-0.0002657797055070077
39.33105423999996,-0.0002657797055070077
39.55078079999998,0.003432348099943638
39.77050736000001,0.003432348099943638
39.99023392000004,0.003432348099943638
40.20996047999995,0.003432348099943638
40.42968703999998,0.003432348099943638
40.6494136,0.003432348099943638
40.86914016000003,0.003432348099943638
41.08886671999994,0.003432348099943638
41.30859327999997,0.003432348099943638
41.52831983999999,0.003432348099943638
41.74804640000002,0.003432348099943638
41.96777295999993,0.003432348099943638
42.18749951999996,0.007130475905393396
42.40722607999999,0.003432348099943638
42.62695264000001,0.007130475905393396
42.84667920000004,0.007130475905391715
43.06640575999995,0.003432348099943638
43.28613231999998,0.007130475905393396
43.50585888000001,0.007130475905393396
43.72558544000003,0.007130475905393396
43.94531199999994,0.007130475905393396
44.16503855999997,0.01822485932174445
44.38476512,0.0219229871271942
44.60449168000002,0.02562111493264485
44.82421823999994,0.02931924273809381
45.04394479999996,0.03301737054354525
45.26367135999999,0.0367154983489959
45.48339792000002,0.04041362615444566
45.70312448000004,0.04411175395989798
45.92285103999995,0.04780988176534606
46.14257759999998,0.05150800957079671
46.36230416000001,0.05520613737624647
46.58203072000003,0.06260239298714687
46.80175727999995,0.06999864859804728
47.02148383999997,0.07739490420894857
47.2412104,0.08109303201439833
47.46093696000003,0.08848928762529873
47.68066351999994,0.09218741543074938
47.90039007999997,0.09958367104164978
48.12011663999999,0.1032817988470995
48.33984320000002,0.1106780544579999
48.55956976000004,0.1143761822634539
48.77929631999996,0.121772437874351
48.99902287999998,0.1254705656798016
49.21874944000001,0.132866821290702
49.43847600000004,0.1365649490961518
49.65820255999995,0.1402630769016024
49.87792911999998,0.1476593325125028
50.09765568,0.1513574603179526
50.31738224000003,0.158753715928853
50.53710879999994,0.1624518437343037
50.75683535999997,0.1698480993452041
50.97656191999999,0.1735462271506547
51.19628848000002,0.1809424827615551
51.41601503999993,0.1846406105670032
51.63574159999996,0.1920368661779053
51.85546815999999,0.1957349939833559
52.07519472000001,0.2031312495942563
52.29492128000004,0.2068293773997094
52.51464783999995,0.2142256330106065
52.73437439999998,0.2179237608160571
52.95410096000001,0.2216218886215078
53.17382752000003,0.2290181442324082
53.39355407999994,0.2327162720378579
53.61328063999997,0.2401125276487583
53.8330072,0.243810655454209
54.05273376000002,0.2475087832596587
54.27246031999994,0.2549050388705558
54.49218687999996,0.2586031666760098
54.71191343999999,0.2659994222869102
54.93164000000002,0.2696975500923608
55.15136656000004,0.273395677897814
55.37109311999995,0.280791933508711
55.59081967999998,0.2844900613141617
55.81054624000001,0.2918863169250621
56.03027280000003,0.2955844447305118
56.24999935999995,0.3029807003414122
56.46972591999997,0.3066788281468629
56.68945248,0.3103769559523126
56.90917904000003,0.3177732115632139
57.12890559999994,0.321471339368662
57.34863215999997,0.3288675949795641
57.56835871999999,0.3325657227850147
57.78808528000002,0.3399619783959151
58.00781184000004,0.3436601062013666
58.22753839999996,0.3473582340068155
58.44726495999998,0.3547544896177159
58.66699152000001,0.3584526174231657
58.88671808000004,0.3621507452286163
59.10644463999995,0.3695470008395167
59.32617119999998,0.3732451286449674
59.54589776,0.3769432564504172
59.76562432000003,0.3843395120613176
59.98535087999994,0.3880376398667682
60.20507743999997,0.391735767672218
60.42480399999999,0.3991320232831184
60.64453056000002,0.402830151088569
60.86425711999993,0.4065282788940171
61.08398367999996,0.4139245345049201
61.30371023999999,0.4176226623103698
61.52343680000001,0.4250189179212702
61.74316336000004,0.4287170457267225
61.96288991999995,0.4324151735321706
62.18261647999998,0.439811429143071
62.40234304000001,0.4435095569485217
62.62206960000003,0.4509058125594221
62.84179615999994,0.4546039403648718
63.06152271999997,0.4583020681703225
63.28124928,0.4656983237812229
63.50097584000002,0.4693964515866735
63.72070239999994,0.4730945793921216
63.94042895999996,0.4804908350030237
64.16015551999999,0.4841889628084743
64.37988208000002,0.4915852184193747
64.59960864000004,0.4952833462248262
64.81933519999995,0.4989814740302752
65.03906175999998,0.5063777296411756
65.25878832000001,0.5100758574466262
65.47851488000003,0.5174721130575266
65.69824143999995,0.5211702408629764
65.91796799999997,0.524868368668427
66.13769456,0.5322646242793274
66.35742112000003,0.5359627520847772
66.57714767999994,0.5396608798902262
66.79687423999997,0.5470571355011282
67.01660079999999,0.5507552633065789
67.23632736000002,0.5544533911120286
67.45605392000004,0.5618496467229307
67.67578047999996,0.5655477745283797
67.89550703999998,0.5729440301392801
68.11523360000001,0.5766421579447298
68.33496016000004,0.5803402857501805
68.55468671999995,0.5877365413610809
68.77441327999998,0.5914346691665306
68.99413984,0.5951327969719813
69.21386640000003,0.6025290525828817
69.43359295999994,0.6062271803883323
69.65331951999997,0.6099253081937821
69.87304607999999,0.6136234359992327
70.09277264000002,0.6210196916101332
70.31249919999993,0.6247178194155812
70.53222575999996,0.6284159472210336
70.75195231999999,0.635812202831934
70.97167888000001,0.6395103306373837
71.19140544000004,0.6432084584428344
71.41113199999995,0.6506047140537348
71.63085855999998,0.6543028418591854
71.85058512000001,0.6580009696646352
72.07031168000003,0.6653972252755356
72.29003823999994,0.6690953530809862
72.50976479999997,0.672793480886436
72.72949136,0.6801897364973364
72.94921792000002,0.683887864302787
73.16894447999994,0.6875859921082351
73.38867103999996,0.6949822477191381
73.60839759999999,0.6986803755245878
73.82812416000002,0.7023785033300385
74.04785072000004,0.7097747589409406
74.26757727999995,0.7134728867463886
74.48730383999998,0.7171710145518393
74.70703040000001,0.720869142357289
74.92675696000003,0.7282653979681895
75.14648351999995,0.7319635257736401
75.36621007999997,0.7356616535790899
75.58593664,0.7430579091899912
75.80566320000003,0.7467560369954409
76.02538975999994,0.7504541648008899
76.24511631999997,0.757850420411792
76.46484287999999,0.7615485482172417
76.68456944000002,0.7652466760226924
76.90429600000004,0.7726429316335944
77.12402255999996,0.7763410594390425
77.34374911999998,0.7763410594390425
77.56347568000001,0.7800391872444932
77.78320224000004,0.7837373150499429
78.00292879999995,0.7874354428553936
78.22265535999998,0.7874354428553936
78.44238192,0.7911335706608442
78.66210848000003,0.794831698466294
78.88183503999994,0.7985298262717446
79.10156159999997,0.8022279540771944
79.32128815999999,0.805926081882645
79.54101472000002,0.8096242096880948
79.76074128000005,0.8133223374935471
79.98046783999996,0.8170204652989952
80.20019439999999,0.8207185931044458
80.41992096000001,0.8207185931044458
80.63964752000004,0.8244167209098956
80.85937407999995,0.8281148487153462
81.07910063999998,0.831812976520796
81.29882720000001,0.831812976520796
81.51855376000003,0.8355111043262466
81.73828031999994,0.8392092321316973
81.95800687999997,0.842907359937147
82.17773344,0.8466054877425977
82.39746000000002,0.8503036155480475
82.61718655999994,0.8540017433534964
82.83691311999996,0.8576998711589479
83.05663967999999,0.8613979989643985
83.27636624000002,0.8650961267698483
83.49609280000004,0.8687942545753022
83.71581935999995,0.8761905101861993
83.93554591999998,0.8798886379916491
84.15527248000001,0.8872848936025504
84.37499904000003,0.8909830214080001
84.59472559999995,0.8946811492134508
84.81445215999997,0.9020774048243512
85.03417872,0.9057755326298009
85.25390528000003,0.9094736604352516
85.47363183999994,0.9131717882406997
85.69335839999997,0.9205680438516017
85.91308495999999,0.9242661716570524
86.13281152000002,0.9279642994625021
86.35253808000004,0.9353605550734051
86.57226463999996,0.9390586828788532
86.79199119999998,0.9427568106843038
87.01171776000001,0.9501530662952042
87.23144432000004,0.953851194100654
87.45117087999995,0.9575493219061046
87.67089743999998,0.9612474497115544
87.890624,0.9686437053224548
88.11035056000003,0.9723418331279055
88.33007711999994,0.9760399609333544
88.54980367999997,0.9834362165442565
88.76953023999999,0.9871343443497063
88.98925680000002,0.9908324721551569
89.20898336000005,0.99453059996061
89.42870991999996,1.001926855571508
89.64843647999999,1.005624983376958
89.86816304000001,1.009323111182408
90.08788960000004,1.016719366793308
90.30761615999995,1.020417494598759
90.52734271999998,1.024115622404209
90.74706928000001,1.027813750209659
90.96679584000003,1.035210005820559
91.18652239999994,1.03890813362601
91.40624895999997,1.04260626143146
91.62597552,1.050002517042361
91.84570208000002,1.053700644847811
92.06542863999994,1.057398772653259
92.28515519999996,1.064795028264161
92.50488175999999,1.068493156069612
92.72460832000002,1.072191283875062
92.94433488000004,1.075889411680512
93.16406143999995,1.079587539485962
93.38378799999998,1.086983795096863
93.60351456000001,1.090681922902313
93.82324112000003,1.094380050707763
94.04296767999995,1.098078178513214
94.26269423999997,1.105474434124114
94.4824208,1.109172561929564
94.70214736000003,1.112870689735014
94.92187391999994,1.116568817540463
95.14160047999997,1.123965073151365
95.36132703999999,1.127663200956815
95.58105360000002,1.131361328762265
95.80078016000004,1.135059456567719
96.02050671999996,1.142455712178617
96.24023327999998,1.146153839984067
96.45995984000001,1.149851967789517
96.67968640000004,1.153550095594967
96.89941295999995,1.160946351205868
97.11913951999998,1.164644479011318
97.33886608,1.168342606816768
97.55859264000003,1.172040734622218
97.77831919999994,1.179436990233115
97.99804575999997,1.183135118038569
98.21777231999999,1.186833245844019
98.43749888000002,1.19053137364947
98.65722544000005,1.194229501454923
98.87695199999996,1.20162575706582
99.09667855999999,1.20532388487127
99.31640512000001,1.209022012676721
99.53613168000004,1.212720140482171
99.75585823999995,1.220116396093071
99.97558479999998,1.223814523898521
100.19531136,1.227512651703972
100.41503792,1.231210779509422
100.6347644799999,1.238607035120323
100.85449104,1.242305162925773
101.0742176,1.246003290731223
101.29394416,1.249701418536673
101.5136707199999,1.25709767414757
101.73339728,1.260795801953024
101.95312384,1.264493929758474
102.1728504,1.268192057563924
102.39257696,1.275588313174825
102.61230352,1.279286440980275
102.83203008,1.282984568785725
103.05175664,1.286682696591176
103.2714832,1.294078952202076
103.4912097599999,1.297777080007526
103.71093632,1.301475207812977
103.93066288,1.305173335618427
104.15038944,1.308871463423877
104.3701159999999,1.312569591229325
104.58984256,1.316267719034777
104.80956912,1.319965846840228
105.02929568,1.327362102451128
105.24902224,1.33106023025658
105.4687488,1.334758358062029
105.68847536,1.338456485867479
105.90820192,1.345852741478379
106.12792848,1.34955086928383
106.3476550399999,1.35324899708928
106.5673816,1.35694712489473
106.78710816,1.36434338050563
107.00683472,1.368041508311081
107.2265612799999,1.371739636116529
107.44628784,1.375437763921981
107.6660144,1.382834019532882
107.88574096,1.386532147338332
108.10546752,1.390230275143784
108.32519408,1.393928402949232
108.54492064,1.397626530754683
108.7646472,1.405022786365583
108.98437376,1.408720914171033
109.20410032,1.412419041976483
109.42382688,1.416117169781934
109.64355344,1.419815297587384
109.86328,1.423513425392834
110.0830065599999,1.430909681003735
110.30273312,1.434607808809185
110.52245968,1.438305936614635
110.74218624,1.442004064420086
110.9619128000001,1.445702192225539
111.18163936,1.453098447836436
111.40136592,1.456796575641886
111.62109248,1.460494703447337
111.84081904,1.464192831252787
112.0605456,1.471589086863687
112.28027216,1.475287214669138
112.49999872,1.478985342474588
112.71972528,1.482683470280038
112.9394518399999,1.490079725890939
113.1591784,1.493777853696389
113.37890496,1.497475981501839
113.59863152,1.501174109307289
113.8183580799999,1.504872237112738
114.03808464,1.51226849272364
114.2578112,1.51596662052909
114.47753776,1.51966474833454
114.69726432,1.523362876139994
114.91699088,1.530759131750891
115.13671744,1.534457259556341
115.356444,1.538155387361792
115.57617056,1.541853515167242
115.7958971199999,1.545551642972692
116.01562368,1.549249770778142
116.23535024,1.552947898583593
116.4550768,1.560344154194493
116.6748033599999,1.564042281999941
116.89452992,1.567740409805394
117.11425648,1.571438537610844
117.33398304,1.575136665416294
117.5537096,1.578834793221746
117.77343616,1.582532921027195
117.99316272,1.589929176638095
118.21288928,1.593627304443545
118.43261584,1.597325432248995
118.6523424,1.601023560054446
118.87206896,1.604721687859896
119.09179552,1.612117943470796
119.31152208,1.615816071276247
119.5312486399999,1.619514199081695
119.7509752,1.623212326887147
119.97070176,1.626910454692597
120.19042832,1.634306710303498
120.4101548800001,1.63800483810895
120.62988144,1.641702965914398
120.849608,1.645401093719848
121.06933456,1.649099221525299
121.28906112,1.652797349330749
121.50878768,1.660193604941649
121.72851424,1.660193604941649
121.9482408,1.66758986055255
122.16796736,1.671287988358
122.3876939199999,1.674986116163451
122.60742048,1.678684243968901
122.82714704,1.682382371774351
123.0468736,1.686080499579801
123.2666001599999,1.693476755190698
123.48632672,1.697174882996152
123.70605328,1.700873010801602
123.92577984,1.704571138607052
124.1455064,1.711967394217953
124.36523296,1.715665522023403
124.58495952,1.719363649828853
124.80468608,1.723061777634304
125.02441264,1.726759905439754
125.2441391999999,1.730458033245204
125.46386576,1.734156161050654
125.68359232,1.741552416661555
125.90331888,1.745250544467005
126.1230454399999,1.748948672272453
126.342772,1.752646800077905
126.56249856,1.760043055688806
126.78222512,1.760043055688806
127.00195168,1.767439311299708
127.22167824,1.771137439105157
127.4414048,1.774835566910607
127.66113136,1.778533694716057
127.88085792,1.782231822521507
128.10058448,1.785929950326957
128.32031104,1.789628078132408
128.5400376,1.793326205937858
128.75976416,1.797024333743308
128.9794907199999,1.800722461548756
129.19921728,1.808118717159659
129.41894384,1.811816844965109
129.6386704,1.81551497277056
129.8583969600001,1.819213100576011
130.07812352,1.82291122838146
130.29785008,1.83030748399236
130.51757664,1.834005611797811
130.7373032,1.837703739603261
130.95702976,1.841401867408711
131.17675632,1.845099995214161
131.39648288,1.848798123019611
131.61620944,1.852496250825062
131.8359359999999,1.859892506435962
132.05566256,1.863590634241413
132.27538912,1.867288762046863
132.49511568,1.870986889852313
132.7148422399999,1.874685017657761
132.9345688,1.878383145463213
133.15429536,1.882081273268664
133.37402192,1.885779401074114
133.59374848,1.893175656685014
133.81347504,1.896873784490464
134.0332016,1.900571912295915
134.25292816,1.904270040101365
134.47265472,1.907968167906815
134.6923812799999,1.911666295712266
134.91210784,1.915364423517716
135.1318344,1.919062551323166
135.35156096,1.926458806934066
135.5712875199999,1.930156934739515
135.79101408,1.933855062544967
136.01074064,1.937553190350417
136.2304672,1.941251318155867
136.45019376,1.944949445961319
136.66992032,1.948647573766768
136.88964688,1.956043829377669
137.10937344,1.959741957183119
137.3291,1.963440084988569
137.54882656,1.967138212794019
137.76855312,1.970836340599469
137.98827968,1.97453446840492
138.20800624,1.97823259621037
138.4277327999999,1.981930724015818
138.64745936,1.98932697962672
138.86718592,1.993025107432171
139.08691248,1.996723235237621
139.3066390400001,2.000421363043073
139.5263656,2.004119490848522
139.74609216,2.007817618653972
139.96581872,2.011515746459422
140.18554528,2.015213874264872
140.40527184,2.022610129875773
140.6249984,2.026308257681223
140.84472496,2.030006385486673
141.06445152,2.033704513292123
141.2841780799999,2.033704513292123
141.50390464,2.037402641097573
141.7236312,2.044798896708474
141.94335776,2.048497024513924
142.1630843200001,2.052195152319376
142.38281088,2.055893280124825
142.60253744,2.059591407930275
142.822264,2.063289535735725
143.04199056,2.066987663541175
143.26171712,2.074383919152076
143.48144368,2.078082046957526
143.70117024,2.081780174762976
143.9208968,2.085478302568426
