Testing/Satellite beacon testing/Power_Checks/1Ohm Power checks 3.3V not thru reg-Vcc.csv

#Digilent WaveForms Oscilloscope Acquisition
#Device Name: Discovery2
#Serial Number: SN:210321A95EED
#Date Time: 2019-10-03 07:57:49.982
#Sample rate: 27.3067Hz
#Samples: 7199
#Trigger: Source: Channel 1 Type: Edge Condition: Rising Level: 0 V Hyst.: Auto HoldOff: 0 s
#Channel 1: Range: 10 mV/div Offset: 0 V Attenuation: 1 X

Time (s),Channel 1 (V)
-146.48436,-0.002481795883074791
-146.44773891,-0.002818342367128151
-146.41111782,-0.002818342367128151
-146.37449673,-0.002818342367128151
-146.33787564,-0.002818342367128151
-146.30125455,-0.002818342367128151
-146.26463346,-0.002818342367128151
-146.22801237,-0.002818342367128151
-146.19139128,-0.002818342367128151
-146.15477019,-0.002818342367128151
-146.1181491,-0.002818342367128151
-146.08152801,-0.002818342367128151
-146.04490692,-0.002818342367128151
-146.00828583,-0.002818342367128151
-145.97166474,-0.002818342367128151
-145.93504365,-0.002818342367128151
-145.89842256,-0.002818342367128151
-145.86180147,-0.002818342367128151
-145.82518038,-0.002818342367128151
-145.78855929,-0.002818342367128151
-145.7519382,-0.002818342367128151
-145.71531711,-0.002818342367128151
-145.67869602,-0.002818342367128151
-145.64207493,-0.002818342367128151
-145.60545384,-0.002818342367128151
-145.56883275,-0.002818342367128151
-145.53221166,-0.002818342367128151
-145.49559057,-0.002818342367128151
-145.45896948,-0.002818342367128151
-145.42234839,-0.002818342367128151
-145.3857273,-0.002818342367128151
-145.34910621,-0.002818342367128151
-145.31248512,-0.002818342367128151
-145.27586403,-0.002818342367128151
-145.23924294,-0.002818342367128151
-145.20262185,-0.002818342367128151
-145.16600076,-0.002818342367128151
-145.12937967,-0.002818342367128151
-145.09275858,-0.002818342367128151
-145.05613749,-0.002818342367128151
-145.0195164,-0.002818342367128151
-144.98289531,-0.002818342367128151
-144.94627422,-0.002818342367128151
-144.90965313,-0.002818342367128151
-144.87303204,-0.002818342367128151
-144.83641095,-0.002818342367128151
-144.79978986,-0.002818342367128151
-144.76316877,-0.002818342367128151
-144.72654768,-0.002818342367128151
-144.68992659,-0.002818342367128151
-144.6533055,-0.002818342367128151
-144.61668441,-0.002818342367128151
-144.58006332,-0.002818342367128151
-144.54344223,-0.002818342367128151
-144.50682114,-0.002818342367128151
-144.47020005,-0.002818342367128151
-144.43357896,-0.002818342367128151
-144.39695787,-0.002818342367128151
-144.36033678,-0.002818342367128151
-144.32371569,-0.002818342367128151
-144.2870946,-0.002818342367128151
-144.25047351,-0.002818342367128151
-144.21385242,-0.002818342367128151
-144.17723133,-0.002818342367128151
-144.14061024,-0.002818342367128151
-144.10398915,-0.002818342367128151
-144.06736806,-0.002818342367128151
-144.03074697,-0.002818342367128151
-143.99412588,-0.002818342367128151
-143.95750479,-0.002818342367128151
-143.9208837,-0.002818342367128151
-143.88426261,-0.002818342367128151
-143.84764152,-0.002818342367128151
-143.81102043,-0.002818342367128151
-143.77439934,-0.002818342367128151
-143.73777825,-0.002818342367128151
-143.70115716,-0.002818342367128151
-143.66453607,-0.002818342367128151
-143.62791498,-0.002818342367128151
-143.59129389,-0.002818342367128151
-143.5546728,-0.002818342367128151
-143.51805171,-0.002818342367128151
-143.48143062,-0.002818342367128151
-143.44480953,-0.002818342367128151
-143.40818844,-0.002818342367128151
-143.37156735,-0.002818342367128151
-143.33494626,-0.002818342367128151
-143.29832517,-0.002818342367128151
-143.26170408,-0.002818342367128151
-143.22508299,-0.002818342367128151
-143.1884619,-0.002818342367128151
-143.15184081,-0.002818342367128151
-143.11521972,-0.002818342367128151
-143.07859863,-0.002818342367128151
-143.04197754,-0.002818342367128151
-143.00535645,-0.002818342367128151
-142.96873536,-0.002818342367128151
-142.93211427,-0.002818342367128151
-142.89549318,-0.002818342367128151
-142.85887209,-0.002818342367128151
-142.822251,-0.002818342367128151
-142.78562991,-0.002818342367128151
-142.74900882,-0.002818342367128151
-142.71238773,-0.002818342367128151
-142.67576664,-0.002818342367128151
-142.63914555,-0.002818342367128151
-142.60252446,-0.002818342367128151
-142.56590337,-0.002818342367128151
-142.52928228,-0.002818342367128151
-142.49266119,-0.002818342367128151
-142.4560401,-0.002818342367128151
-142.41941901,-0.002818342367128151
-142.38279792,-0.002818342367128151
-142.34617683,-0.002818342367128151
-142.30955574,-0.002818342367128151
-142.27293465,-0.002818342367128151
-142.23631356,-0.002818342367128151
-142.19969247,-0.002818342367128151
-142.16307138,-0.002818342367128151
-142.12645029,-0.002818342367128151
-142.0898292,-0.002818342367128151
-142.05320811,-0.002818342367128151
-142.01658702,-0.002818342367128151
-141.97996593,-0.002818342367128151
-141.94334484,-0.002818342367128151
-141.90672375,-0.002818342367128151
-141.87010266,-0.002818342367128151
-141.83348157,-0.002818342367128151
-141.79686048,-0.002818342367128151
-141.76023939,-0.002818342367128151
-141.7236183,-0.002818342367128151
-141.68699721,-0.002818342367128151
-141.65037612,-0.002818342367128151
-141.61375503,-0.002818342367128151
-141.57713394,-0.002818342367128151
-141.54051285,-0.002818342367128151
-141.50389176,-0.002818342367128151
-141.46727067,-0.002818342367128151
-141.43064958,-0.002818342367128151
-141.39402849,-0.002818342367128151
-141.3574074,-0.002818342367128151
-141.32078631,-0.002818342367128151
-141.28416522,-0.002818342367128151
-141.24754413,-0.002818342367128151
-141.21092304,-0.002818342367128151
-141.17430195,-0.002818342367128151
-141.13768086,-0.002818342367128151
-141.10105977,-0.002818342367128151
-141.06443868,-0.002818342367128151
-141.02781759,-0.002818342367128151
-140.9911965,-0.002818342367128151
-140.95457541,-0.002818342367128151
-140.91795432,-0.002818342367128151
-140.88133323,-0.002818342367128151
-140.84471214,-0.002818342367128151
-140.80809105,-0.002818342367128151
-140.77146996,-0.002818342367128151
-140.73484887,-0.002818342367128151
-140.69822778,-0.002818342367128151
-140.66160669,-0.002818342367128151
-140.6249856,-0.002818342367128151
-140.58836451,-0.002818342367128151
-140.55174342,0.007951145122584567
-140.51512233,0.008624238090691287
-140.47850124,0.01434552831960101
-140.44188015,0.01434552831960101
-140.40525906,0.01367243535149398
-140.36863797,0.01098006347906588
-140.33201688,0.01098006347906588
-140.29539579,0.01098006347906588
-140.2587747,0.01131660996311924
-140.22215361,0.01131660996311939
-140.18553252,0.01131660996311939
-140.14891143,0.01131660996311939
-140.11229034,0.01131660996311939
-140.07566925,0.01131660996311939
-140.03904816,0.01131660996311939
-140.00242707,0.01131660996311924
-139.96580598,0.01098006347906588
-139.92918489,0.01131660996311939
-139.8925638,0.01131660996311939
-139.85594271,0.01131660996311939
-139.81932162,0.01131660996311924
-139.78270053,0.01098006347906588
-139.74607944,0.01098006347906588
-139.70945835,0.01098006347906588
-139.67283726,0.01098006347906588
-139.63621617,0.01098006347906588
-139.59959508,0.01098006347906588
-139.56297399,0.01098006347906588
-139.5263529,0.01098006347906588
-139.48973181,0.01098006347906588
-139.45311072,0.01098006347906588
-139.41648963,0.01098006347906588
-139.37986854,0.01098006347906588
-139.34324745,0.01098006347906588
-139.30662636,0.01098006347906588
-139.27000527,0.01098006347906588
-139.23338418,0.01098006347906588
-139.19676309,0.01098006347906588
-139.160142,0.01098006347906588
-139.12352091,0.01098006347906588
-139.08689982,0.01098006347906588
-139.05027873,0.01098006347906588
-139.01365764,0.01098006347906588
-138.97703655,0.01098006347906603
-138.94041546,0.01131660996311939
-138.90379437,0.01098006347906588
-138.86717328,0.01098006347906588
-138.83055219,0.01098006347906588
-138.7939311,0.01098006347906603
-138.75731001,0.01131660996311939
-138.72068892,0.01131660996311939
-138.68406783,0.01131660996311939
-138.64744674,0.01131660996311939
-138.61082565,0.01131660996311939
-138.57420456,0.01131660996311939
-138.53758347,0.01131660996311939
-138.50096238,0.01131660996311939
-138.46434129,0.01131660996311939
-138.4277202,0.01131660996311939
-138.39109911,0.01131660996311939
-138.35447802,0.01131660996311939
-138.31785693,0.01131660996311939
-138.28123584,0.01131660996311939
-138.24461475,0.01131660996311939
-138.20799366,0.01131660996311939
-138.17137257,0.01131660996311939
-138.13475148,0.01131660996311939
-138.09813039,0.01131660996311939
-138.0615093,0.01131660996311939
-138.02488821,0.01131660996311939
-137.98826712,0.01131660996311939
-137.95164603,0.01131660996311939
-137.91502494,0.01131660996311939
-137.87840385,0.01131660996311939
-137.84178276,0.01131660996311939
-137.80516167,0.01131660996311939
-137.76854058,0.01131660996311939
-137.73191949,0.01131660996311939
-137.6952984,0.01131660996311939
-137.65867731,0.01131660996311939
-137.62205622,0.01131660996311939
-137.58543513,0.01131660996311939
-137.54881404,0.01131660996311939
-137.51219295,0.01131660996311939
-137.47557186,0.01131660996311939
-137.43895077,0.01131660996311939
-137.40232968,0.01131660996311939
-137.36570859,0.01131660996311939
-137.3290875,0.01131660996311939
-137.29246641,0.01131660996311939
-137.25584532,0.01131660996311939
-137.21922423,0.01131660996311939
-137.18260314,0.01131660996311939
-137.14598205,0.01131660996311939
-137.10936096,0.01131660996311939
-137.07273987,0.01131660996311939
-137.03611878,0.01131660996311939
-136.99949769,0.01131660996311939
-136.9628766,0.01131660996311939
-136.92625551,0.01131660996311939
-136.88963442,0.01131660996311939
-136.85301333,0.01131660996311939
-136.81639224,0.01131660996311939
-136.77977115,0.0116531564471729
-136.74315006,0.0116531564471729
-136.70652897,0.01131660996311939
-136.66990788,0.01131660996311939
-136.63328679,0.01131660996311939
-136.5966657,0.01131660996311939
-136.56004461,0.00929733105879923
-136.52342352,0.007278052154477236
-136.48680243,0.007278052154477236
-136.45018134,0.007278052154477236
-136.41356025,0.007278052154477236
-136.37693916,0.007278052154477236
-136.34031807,0.007278052154477236
-136.30369698,0.007278052154477236
-136.26707589,0.007278052154477236
-136.2304548,0.007278052154477236
-136.19383371,0.007278052154477236
-136.15721262,0.007278052154477236
-136.12059153,0.007278052154477236
-136.08397044,0.007278052154477236
-136.04734935,0.007278052154477236
-136.01072826,0.007278052154477236
-135.97410717,0.007278052154477236
-135.93748608,0.007278052154477236
-135.90086499,0.007278052154477236
-135.8642439,0.007278052154477236
-135.82762281,0.007278052154477236
-135.79100172,0.007278052154477236
-135.75438063,0.007278052154477236
-135.71775954,0.007278052154477236
-135.68113845,0.007278052154477236
-135.64451736,0.007278052154477236
-135.60789627,0.007278052154477236
-135.57127518,0.007278052154477236
-135.53465409,0.007278052154477236
-135.498033,0.007278052154477236
-135.46141191,0.007278052154477236
-135.42479082,0.007278052154477236
-135.38816973,0.007278052154477236
-135.35154864,0.007278052154477236
-135.31492755,0.007278052154477236
-135.27830646,0.007278052154477236
-135.24168537,0.007278052154477236
-135.20506428,0.007278052154477236
-135.16844319,0.007278052154477236
-135.1318221,0.007278052154477236
-135.09520101,0.007278052154477236
-135.05857992,0.007278052154477236
-135.02195883,0.007278052154477236
-134.98533774,0.007278052154477236
-134.94871665,0.007278052154477236
-134.91209556,0.007278052154477236
-134.87547447,0.007278052154477236
-134.83885338,0.007278052154477236
-134.80223229,0.007278052154477236
-134.7656112,0.007278052154477236
-134.72899011,0.007278052154477236
-134.69236902,0.007278052154477236
-134.65574793,0.007278052154477236
-134.61912684,0.007278052154477236
-134.58250575,0.007278052154477236
-134.54588466,0.007278052154477236
-134.50926357,0.007278052154477236
-134.47264248,0.007278052154477236
-134.43602139,0.007278052154477236
-134.3994003,0.007278052154477236
-134.36277921,0.007278052154477236
-134.32615812,0.007278052154477236
-134.28953703,0.007278052154477236
-134.25291594,0.007278052154477236
-134.21629485,0.007278052154477236
-134.17967376,0.007278052154477236
-134.14305267,0.007278052154477236
-134.10643158,0.007278052154477236
-134.06981049,0.007278052154477236
-134.0331894,0.007278052154477236
-133.99656831,0.007278052154477236
-133.95994722,0.007278052154477236
-133.92332613,0.007278052154477236
-133.88670504,0.007278052154477236
-133.85008395,0.007278052154477236
-133.81346286,0.007278052154477236
-133.77684177,0.007278052154477236
-133.74022068,0.007278052154477236
-133.70359959,0.007278052154477236
-133.6669785,0.007278052154477236
-133.63035741,0.007278052154477236
-133.59373632,0.007278052154477236
-133.55711523,0.007278052154477236
-133.52049414,0.007278052154477236
-133.48387305,0.007278052154477236
-133.44725196,0.01064351699501236
-133.41063087,0.01131660996311908
-133.37400978,0.01131660996311939
-133.33738869,0.01098006347906603
-133.3007676,0.01131660996311939
-133.26414651,0.01131660996311939
-133.22752542,0.01131660996311939
-133.19090433,0.01131660996311939
-133.15428324,0.01131660996311924
-133.11766215,0.01098006347906588
-133.08104106,0.01131660996311939
-133.04441997,0.01131660996311939
-133.00779888,0.01131660996311939
-132.97117779,0.01131660996311939
-132.9345567,0.01131660996311939
-132.89793561,0.01098006347906588
-132.86131452,0.01131660996311939
-132.82469343,0.01131660996311939
-132.78807234,0.01131660996311939
-132.75145125,0.01131660996311939
-132.71483016,0.01098006347906588
-132.67820907,0.01098006347906588
-132.64158798,0.01098006347906588
-132.60496689,0.01098006347906588
-132.5683458,0.01131660996311924
-132.53172471,0.01098006347906588
-132.49510362,0.01098006347906588
-132.45848253,0.01098006347906588
-132.42186144,0.01098006347906588
-132.38524035,0.01131660996311924
-132.34861926,0.01131660996311939
-132.31199817,0.01098006347906588
-132.27537708,0.01098006347906588
-132.23875599,0.01098006347906588
-132.2021349,0.01098006347906588
-132.16551381,0.01098006347906588
-132.12889272,0.01098006347906588
-132.09227163,0.01098006347906588
-132.05565054,0.01098006347906588
-132.01902945,0.01098006347906588
-131.98240836,0.01098006347906588
-131.94578727,0.01098006347906588
-131.90916618,0.01098006347906588
-131.87254509,0.01098006347906588
-131.835924,0.01064351699501252
-131.79930291,0.01064351699501236
-131.76268182,0.01098006347906588
-131.72606073,0.01098006347906588
-131.68943964,0.01098006347906588
-131.65281855,0.01098006347906588
-131.61619746,0.01098006347906588
-131.57957637,0.01098006347906572
-131.54295528,0.01064351699501236
-131.50633419,0.01098006347906588
-131.4697131,0.01098006347906588
-131.43309201,0.01098006347906588
-131.39647092,0.01064351699501236
-131.35984983,0.009970424026905645
-131.32322874,0.007278052154477236
-131.28660765,0.007278052154477236
-131.24998656,0.007278052154477236
-131.21336547,0.007278052154477236
-131.17674438,0.007278052154477236
-131.14012329,0.007278052154477236
-131.1035022,0.007278052154477236
-131.06688111,0.007278052154477236
-131.03026002,0.007278052154477236
-130.99363893,0.007278052154477236
-130.95701784,0.007278052154477236
-130.92039675,0.007278052154477236
-130.88377566,0.007278052154477236
-130.84715457,0.007278052154477236
-130.81053348,0.007278052154477236
-130.77391239,0.007278052154477236
-130.7372913,0.007278052154477236
-130.70067021,0.007278052154477236
-130.66404912,0.007278052154477236
-130.62742803,0.007278052154477236
-130.59080694,0.007278052154477236
-130.55418585,0.007278052154477236
-130.51756476,0.007278052154477236
-130.48094367,0.007278052154477236
-130.44432258,0.007278052154477236
-130.40770149,0.007278052154477236
-130.3710804,0.007278052154477236
-130.33445931,0.007278052154477236
-130.29783822,0.007278052154477236
-130.26121713,0.007278052154477236
-130.22459604,0.007278052154477236
-130.18797495,0.007278052154477236
-130.15135386,0.007278052154477236
-130.11473277,0.007278052154477236
-130.07811168,0.007278052154477236
-130.04149059,0.007278052154477236
-130.0048695,0.007278052154477236
-129.96824841,0.007278052154477236
-129.93162732,0.007278052154477236
-129.89500623,0.007278052154477236
-129.85838514,0.007278052154477236
-129.82176405,0.007278052154477236
-129.78514296,0.007278052154477236
-129.74852187,0.007278052154477236
-129.71190078,0.007278052154477236
-129.67527969,0.007278052154477236
-129.6386586,0.007278052154477236
-129.60203751,0.007278052154477236
-129.56541642,0.007278052154477236
-129.52879533,0.007278052154477236
-129.49217424,0.007278052154477236
-129.45555315,0.007278052154477236
-129.41893206,0.007278052154477236
-129.38231097,0.007278052154477236
-129.34568988,0.007278052154477236
-129.30906879,0.007278052154477236
-129.2724477,0.007278052154477236
-129.23582661,0.007278052154477236
-129.19920552,0.007278052154477236
-129.16258443,0.007278052154477236
-129.12596334,0.007278052154477236
-129.08934225,0.007278052154477236
-129.05272116,0.007278052154477236
-129.01610007,0.007278052154477236
-128.97947898,0.007278052154477236
-128.94285789,0.007278052154477236
-128.9062368,0.007278052154477236
-128.86961571,0.007278052154477236
-128.83299462,0.007278052154477236
-128.79637353,0.007278052154477236
-128.75975244,0.007278052154477236
-128.72313135,0.007278052154477236
-128.68651026,0.007278052154477236
-128.64988917,0.007278052154477236
-128.61326808,0.007278052154477236
-128.57664699,0.007278052154477236
-128.5400259,0.007278052154477236
-128.50340481,0.007278052154477236
-128.46678372,0.007278052154477236
-128.43016263,0.007278052154477236
-128.39354154,0.007278052154477236
-128.35692045,0.007278052154477236
-128.32029936,0.007278052154477236
-128.28367827,0.007278052154477236
-128.24705718,0.009633877542852439
-128.21043609,0.01098006347906526
-128.173815,0.01098006347906588
-128.13719391,0.01098006347906588
-128.10057282,0.01098006347906588
-128.06395173,0.01098006347906588
-128.02733064,0.01064351699501252
-127.99070955,0.01098006347906588
-127.95408846,0.01098006347906588
-127.91746737,0.01098006347906588
-127.88084628,0.01098006347906588
-127.84422519,0.01098006347906588
-127.8076041,0.01064351699501236
-127.77098301,0.01098006347906588
-127.73436192,0.01098006347906588
-127.69774083,0.01098006347906588
-127.66111974,0.01098006347906588
-127.62449865,0.01064351699501236
-127.58787756,0.01098006347906588
-127.55125647,0.01098006347906588
-127.51463538,0.01098006347906588
-127.47801429,0.01098006347906588
-127.4413932,0.01098006347906588
-127.40477211,0.01098006347906588
-127.36815102,0.01098006347906588
-127.33152993,0.01098006347906588
-127.29490884,0.01098006347906588
-127.25828775,0.01098006347906588
-127.22166666,0.01098006347906588
-127.18504557,0.01098006347906588
-127.14842448,0.01098006347906588
-127.11180339,0.01098006347906588
-127.0751823,0.01098006347906588
-127.03856121,0.01098006347906588
-127.00194012,0.01098006347906588
-126.96531903,0.01064351699501236
-126.92869794,0.01098006347906588
-126.89207685,0.01098006347906588
-126.85545576,0.01098006347906588
-126.81883467,0.01098006347906588
-126.78221358,0.01098006347906588
-126.74559249,0.01098006347906588
-126.7089714,0.01098006347906588
-126.67235031,0.01098006347906588
-126.63572922,0.01098006347906588
-126.59910813,0.01098006347906588
-126.56248704,0.01098006347906588
-126.52586595,0.01098006347906588
-126.48924486,0.01098006347906588
-126.45262377,0.01098006347906588
-126.41600268,0.01098006347906588
-126.37938159,0.01098006347906588
-126.3427605,0.01098006347906588
-126.30613941,0.01098006347906588
-126.26951832,0.01098006347906588
-126.23289723,0.01098006347906588
-126.19627614,0.01098006347906588
-126.15965505,0.01064351699501236
-126.12303396,0.007278052154477236
-126.08641287,0.007278052154477236
-126.04979178,0.007614598638530748
-126.01317069,0.007278052154477236
-125.9765496,0.007278052154477236
-125.93992851,0.007614598638530748
-125.90330742,0.007614598638530748
-125.86668633,0.007614598638530748
