Testing/Satellite beacon testing/Power_Checks/1Ohm Power checks 5V thru reg.csv

#Digilent WaveForms Oscilloscope Acquisition
#Device Name: Discovery2
#Serial Number: SN:210321A95EED
#Date Time: 2019-09-17 08:11:24.358
#Sample rate: 27.3067Hz
#Samples: 6818
#Trigger: Source: Channel 1 Type: Edge Condition: Rising Level: 0 V Hyst.: Auto HoldOff: 0 s
#Channel 1: Range: 20 mV/div Offset: 0 V Attenuation: 1 X
#Channel 2: Range: 50 mV/div Offset: 0 V Attenuation: 1 X

Time (s),Channel 1 (V),Channel 2 (V)
-146.48436,-0.001808702914968224,-0.001653778022498318
-146.44773891,-0.003154888851181664,-0.002660673189649557
-146.41111782,-0.003154888851181664,-0.002660673189649557
-146.37449673,-0.003154888851181664,-0.002660673189649557
-146.33787564,-0.003154888851181664,-0.002660673189649557
-146.30125455,-0.003154888851181664,-0.002660673189649557
-146.26463346,-0.003154888851181664,-0.002660673189649557
-146.22801237,-0.003154888851181664,-0.002660673189649557
-146.19139128,-0.003154888851181664,-0.002325041467265811
-146.15477019,-0.003154888851181664,-0.002325041467265658
-146.1181491,-0.003154888851181664,-0.002325041467265658
-146.08152801,-0.003154888851181664,-0.002325041467265658
-146.04490692,-0.003154888851181664,-0.002325041467265658
-146.00828583,-0.003154888851181664,-0.002325041467265658
-145.97166474,-0.003154888851181664,-0.002325041467265658
-145.93504365,-0.003154888851181664,-0.002325041467265658
-145.89842256,-0.003154888851181664,-0.002325041467265658
-145.86180147,-0.003154888851181664,-0.002325041467265658
-145.82518038,-0.003154888851181664,-0.002325041467265658
-145.78855929,-0.003154888851181664,-0.002325041467265658
-145.7519382,-0.003154888851181664,-0.002325041467265658
-145.71531711,-0.003154888851181664,-0.002325041467265658
-145.67869602,-0.003154888851181664,-0.002325041467265658
-145.64207493,-0.003154888851181664,-0.002325041467265658
-145.60545384,-0.003154888851181664,-0.002325041467265658
-145.56883275,-0.003154888851181664,-0.002325041467265658
-145.53221166,-0.003154888851181664,-0.002325041467265658
-145.49559057,-0.003154888851181664,-0.002325041467265658
-145.45896948,-0.003154888851181664,-0.002325041467265658
-145.42234839,-0.003154888851181664,-0.002325041467265658
-145.3857273,-0.003154888851181664,-0.002325041467265658
-145.34910621,-0.003154888851181664,-0.002325041467265658
-145.31248512,-0.003154888851181664,-0.002325041467265658
-145.27586403,-0.003154888851181664,-0.002325041467265658
-145.23924294,-0.003154888851181664,-0.002325041467265658
-145.20262185,-0.003154888851181664,-0.002325041467265658
-145.16600076,-0.003154888851181664,-0.002325041467265658
-145.12937967,-0.003154888851181664,-0.002325041467265658
-145.09275858,-0.003154888851181664,-0.002325041467265658
-145.05613749,-0.003154888851181664,-0.002325041467265658
-145.0195164,-0.003154888851181664,-0.002325041467265658
-144.98289531,-0.003154888851181664,-0.002325041467265658
-144.94627422,-0.003154888851181664,-0.002325041467265658
-144.90965313,-0.003154888851181664,-0.002325041467265658
-144.87303204,-0.003154888851181664,-0.002325041467265658
-144.83641095,-0.003154888851181664,-0.002660673189649557
-144.79978986,-0.003154888851181664,-0.002660673189649557
-144.76316877,-0.003154888851181664,-0.002660673189649557
-144.72654768,-0.003154888851181664,-0.002660673189649557
-144.68992659,-0.003154888851181664,-0.002660673189649557
-144.6533055,-0.003154888851181664,-0.002660673189649557
-144.61668441,-0.003154888851181664,-0.002660673189649557
-144.58006332,-0.003154888851181664,-0.002660673189649557
-144.54344223,-0.003154888851181664,-0.002325041467265811
-144.50682114,-0.003154888851181664,-0.002660673189649557
-144.47020005,-0.003154888851181664,-0.002660673189649557
-144.43357896,-0.003154888851181664,-0.002660673189649557
-144.39695787,-0.003154888851181664,-0.002325041467265658
-144.36033678,-0.003154888851181664,-0.002660673189649404
-144.32371569,-0.003154888851181664,-0.002325041467265658
-144.2870946,-0.003154888851181664,-0.002325041467265658
-144.25047351,-0.003154888851181664,-0.002325041467265658
-144.21385242,-0.003154888851181664,-0.002660673189649557
-144.17723133,-0.003154888851181664,-0.002660673189649557
-144.14061024,-0.003154888851181664,-0.002660673189649557
-144.10398915,-0.003154888851181664,-0.002660673189649557
-144.06736806,-0.003154888851181664,-0.002325041467265811
-144.03074697,-0.003154888851181664,-0.002660673189649557
-143.99412588,-0.003154888851181664,-0.002660673189649557
-143.95750479,-0.003154888851181664,-0.002325041467265811
-143.9208837,-0.003154888851181664,-0.002660673189649557
-143.88426261,-0.003154888851181664,-0.002325041467265811
-143.84764152,-0.003154888851181664,-0.002660673189649557
-143.81102043,-0.003154888851181664,-0.002325041467265658
-143.77439934,-0.003154888851181664,-0.002660673189649404
-143.73777825,-0.003154888851181664,-0.002325041467265658
-143.70115716,-0.003154888851181664,-0.002325041467265658
-143.66453607,-0.003154888851181664,-0.002325041467265658
-143.62791498,-0.003154888851181664,-0.002325041467265658
-143.59129389,-0.003154888851181664,-0.002325041467265658
-143.5546728,-0.003154888851181664,-0.002325041467265658
-143.51805171,-0.003154888851181664,-0.002325041467265658
-143.48143062,-0.003154888851181664,-0.002325041467265658
-143.44480953,-0.003154888851181664,-0.002325041467265658
-143.40818844,-0.003154888851181664,-0.002660673189649404
-143.37156735,-0.003154888851181664,-0.002325041467265658
-143.33494626,-0.003154888851181664,-0.002325041467265658
-143.29832517,-0.003154888851181664,-0.002325041467265658
-143.26170408,-0.003154888851181664,-0.002325041467265658
-143.22508299,-0.003154888851181664,-0.002325041467265658
-143.1884619,-0.003154888851181664,-0.002325041467265658
-143.15184081,-0.003154888851181664,-0.002325041467265811
-143.11521972,-0.003154888851181664,-0.002660673189649557
-143.07859863,-0.003154888851181664,-0.002660673189649557
-143.04197754,0.01703790019201993,0.09870010697024181
-143.00535645,0.02073991151661775,0.1285713302624549
-142.96873536,0.04194234001199013,0.1268931716505354
-142.93211427,0.04429816540036365,0.1268931716505354
-142.89549318,0.04328852594820311,0.1268931716505354
-142.85887209,0.03790378220334936,0.1272288033729192
-142.822251,0.03790378220334691,0.1272288033729193
-142.78562991,0.03790378220334691,0.1268931716505354
-142.74900882,0.03790378220334691,0.1268931716505354
-142.71238773,0.03790378220334691,0.1268931716505354
-142.67576664,0.03824032868740027,0.1268931716505354
-142.63914555,0.03824032868740042,0.1268931716505354
-142.60252446,0.03790378220334691,0.1268931716505353
-142.56590337,0.03790378220334691,0.1265575399281516
-142.52928228,0.03790378220334691,0.1265575399281515
-142.49266119,0.03756723571929339,0.1265575399281515
-142.4560401,0.03756723571929339,0.1265575399281515
-142.41941901,0.03756723571929339,0.1265575399281515
-142.38279792,0.03756723571929339,0.1265575399281515
-142.34617683,0.03756723571929339,0.1265575399281515
-142.30955574,0.03756723571929339,0.1265575399281514
-142.27293465,0.03756723571929339,0.1262219082057676
-142.23631356,0.03756723571929339,0.1262219082057676
-142.19969247,0.03756723571929339,0.1262219082057676
-142.16307138,0.03756723571929339,0.1262219082057676
-142.12645029,0.03723068923523988,0.1262219082057676
-142.0898292,0.03723068923523988,0.1262219082057676
-142.05320811,0.03723068923523988,0.1262219082057676
-142.01658702,0.03723068923523988,0.1258862764833839
-141.97996593,0.03723068923523988,0.1258862764833837
-141.94334484,0.03723068923523988,0.1258862764833837
-141.90672375,0.03723068923523988,0.1258862764833837
-141.87010266,0.03723068923523988,0.1258862764833837
-141.83348157,0.03723068923523988,0.1258862764833837
-141.79686048,0.03723068923523988,0.1258862764833837
-141.76023939,0.03723068923523988,0.1258862764833837
-141.7236183,0.03723068923523988,0.1258862764833837
-141.68699721,0.03723068923523988,0.1258862764833837
-141.65037612,0.03723068923523988,0.1255506447609999
-141.61375503,0.03723068923523988,0.1255506447609998
-141.57713394,0.03689414275118652,0.1255506447609998
-141.54051285,0.03723068923523988,0.1255506447609998
-141.50389176,0.03655759626713286,0.1255506447609998
-141.46727067,0.03554795681497278,0.1258862764833836
-141.43064958,0.03756723571929339,0.1262219082057676
-141.39402849,0.03790378220334691,0.1268931716505357
-141.3574074,0.03790378220334691,0.1275644350953032
-141.32078631,0.03824032868740042,0.1265575399281515
-141.28416522,0.03891342165550715,0.1201805372028603
-141.24754413,0.04968290914521986,0.002373802646108926
-141.21092304,0.04732708375684512,0.002373802646108926
-141.17430195,0.04699053727279175,0.002373802646108926
-141.13768086,0.04227888649604258,2.438058942163417e-05
-141.10105977,0.04631744430468289,2.438058942163417e-05
-141.06443868,0.04732708375684527,2.438058942163417e-05
-141.02781759,0.04732708375684527,2.438058942163417e-05
-140.9911965,0.04732708375684527,2.438058942163417e-05
-140.95457541,0.04732708375684527,2.438058942163417e-05
-140.91795432,0.04732708375684543,2.438058942163417e-05
-140.88133323,0.04766363024089879,2.438058942163417e-05
-140.84471214,0.04732708375684527,2.438058942163417e-05
-140.80809105,0.04732708375684527,2.438058942163417e-05
-140.77146996,0.04732708375684527,2.438058942163417e-05
-140.73484887,0.04732708375684527,2.438058942163417e-05
-140.69822778,0.04732708375684527,2.438058942163417e-05
-140.66160669,0.04766363024089879,2.438058942163417e-05
-140.6249856,0.04766363024089879,2.438058942163417e-05
-140.58836451,0.04732708375684527,2.438058942163417e-05
-140.55174342,0.04732708375684527,2.438058942163417e-05
-140.51512233,0.04732708375684527,2.438058942163417e-05
-140.47850124,0.04732708375684527,2.438058942163417e-05
-140.44188015,0.04766363024089863,2.438058942163417e-05
-140.40525906,0.04766363024089879,2.438058942163417e-05
-140.36863797,0.04732708375684527,2.438058942163417e-05
-140.33201688,0.04732708375684527,2.438058942163417e-05
-140.29539579,0.04732708375684527,2.438058942163417e-05
-140.2587747,0.04766363024089863,2.438058942163417e-05
-140.22215361,0.04766363024089879,2.438058942163417e-05
-140.18553252,0.04766363024089863,2.438058942163417e-05
-140.14891143,0.04732708375684527,2.438058942163417e-05
-140.11229034,0.04732708375684527,2.438058942163417e-05
-140.07566925,0.04732708375684527,2.438058942163417e-05
-140.03904816,0.04732708375684527,2.438058942163417e-05
-140.00242707,0.04766363024089863,2.438058942163417e-05
-139.96580598,0.04732708375684527,2.438058942163417e-05
-139.92918489,0.04732708375684527,2.438058942163417e-05
-139.8925638,0.04732708375684527,2.438058942163417e-05
-139.85594271,0.04732708375684527,2.438058942163417e-05
-139.81932162,0.04732708375684543,2.438058942163417e-05
-139.78270053,0.04766363024089879,2.438058942163417e-05
-139.74607944,0.04732708375684527,2.438058942163417e-05
-139.70945835,0.04732708375684527,2.438058942163417e-05
-139.67283726,0.04732708375684527,2.438058942163417e-05
-139.63621617,0.04732708375684543,2.438058942163417e-05
-139.59959508,0.04766363024089879,2.438058942163417e-05
-139.56297399,0.04766363024089879,2.438058942163417e-05
-139.5263529,0.04732708375684543,2.438058942163417e-05
-139.48973181,0.04732708375684527,2.438058942163417e-05
-139.45311072,0.04732708375684527,2.438058942163417e-05
-139.41648963,0.04732708375684527,2.438058942163417e-05
-139.37986854,0.04732708375684527,2.438058942163417e-05
-139.34324745,0.04732708375684527,2.438058942163417e-05
-139.30662636,0.04732708375684527,2.438058942163417e-05
-139.27000527,0.04732708375684527,2.438058942163417e-05
-139.23338418,0.04732708375684527,2.438058942163417e-05
-139.19676309,0.04732708375684527,2.438058942163417e-05
-139.160142,0.0456443513365774,2.438058942163417e-05
-139.12352091,0.04497125836847068,2.438058942163417e-05
-139.08689982,0.04665399078873824,2.438058942163417e-05
-139.05027873,0.04463471188441808,2.438058942163417e-05
-139.01365764,0.0402596075917215,2.438058942163417e-05
-138.97703655,0.03924996813956081,2.438058942163417e-05
-138.94041546,0.03891342165550745,2.438058942163417e-05
-138.90379437,0.03891342165550745,2.438058942163417e-05
-138.86717328,0.03891342165550745,2.438058942163417e-05
-138.83055219,0.03891342165550745,2.438058942163417e-05
-138.7939311,0.03891342165550745,2.438058942163417e-05
-138.75731001,0.03891342165550745,2.438058942163417e-05
-138.72068892,0.03891342165550745,2.438058942163417e-05
-138.68406783,0.03891342165550745,2.438058942163417e-05
-138.64744674,0.03891342165550745,2.438058942163417e-05
-138.61082565,0.03891342165550745,2.438058942163417e-05
-138.57420456,0.03891342165550745,2.438058942163417e-05
-138.53758347,0.03891342165550745,2.438058942163417e-05
-138.50096238,0.03924996813956081,2.438058942163417e-05
-138.46434129,0.03891342165550745,2.438058942163417e-05
-138.4277202,0.03891342165550745,2.438058942163417e-05
-138.39109911,0.03891342165550745,2.438058942163417e-05
-138.35447802,0.03891342165550745,2.438058942163417e-05
-138.31785693,0.03891342165550745,2.438058942163417e-05
-138.28123584,0.03891342165550745,2.438058942163417e-05
-138.24461475,0.03891342165550745,2.438058942163417e-05
-138.20799366,0.03891342165550745,2.438058942163417e-05
-138.17137257,0.03891342165550745,2.438058942163417e-05
-138.13475148,0.03924996813956081,2.438058942163417e-05
-138.09813039,0.03924996813956096,2.438058942163417e-05
-138.0615093,0.03924996813956096,2.438058942163417e-05
-138.02488821,0.03924996813956096,2.438058942163417e-05
-137.98826712,0.03924996813956096,2.438058942163417e-05
-137.95164603,0.0389134216555076,2.438058942163417e-05
-137.91502494,0.03891342165550745,2.438058942163417e-05
-137.87840385,0.0389134216555076,2.438058942163417e-05
-137.84178276,0.03924996813956081,2.438058942163417e-05
-137.80516167,0.03924996813956096,2.438058942163417e-05
-137.76854058,0.03924996813956096,2.438058942163417e-05
-137.73191949,0.03924996813956096,2.438058942163417e-05
-137.6952984,0.03924996813956096,2.438058942163417e-05
-137.65867731,0.03924996813956096,2.438058942163417e-05
-137.62205622,0.03924996813956096,2.438058942163417e-05
-137.58543513,0.0389134216555076,2.438058942163417e-05
-137.54881404,0.03924996813956096,2.438058942163417e-05
-137.51219295,0.03924996813956096,2.438058942163417e-05
-137.47557186,0.03924996813956096,2.438058942163417e-05
-137.43895077,0.03924996813956096,2.438058942163417e-05
-137.40232968,0.03924996813956096,2.438058942163417e-05
-137.36570859,0.03924996813956096,2.438058942163417e-05
-137.3290875,0.03891342165550745,2.438058942163417e-05
-137.29246641,0.03924996813956081,2.438058942163417e-05
-137.25584532,0.03924996813956096,2.438058942163417e-05
-137.21922423,0.03924996813956081,2.438058942163417e-05
-137.18260314,0.03891342165550745,2.438058942163417e-05
-137.14598205,0.03891342165550745,2.438058942163417e-05
-137.10936096,0.03924996813956081,2.438058942163417e-05
-137.07273987,0.03924996813956096,2.438058942163417e-05
-137.03611878,0.03924996813956096,2.438058942163417e-05
-136.99949769,0.03924996813956096,2.438058942163417e-05
-136.9628766,0.03924996813956096,2.438058942163417e-05
-136.92625551,0.03924996813956096,2.438058942163417e-05
-136.88963442,0.03891342165550745,2.438058942163417e-05
-136.85301333,0.03924996813956096,2.438058942163417e-05
-136.81639224,0.03924996813956096,2.438058942163417e-05
-136.77977115,0.03924996813956096,2.438058942163417e-05
-136.74315006,0.03924996813956096,2.438058942163417e-05
-136.70652897,0.03924996813956096,2.438058942163417e-05
-136.66990788,0.03924996813956096,2.438058942163417e-05
-136.63328679,0.03924996813956096,2.438058942163417e-05
-136.5966657,0.03924996813956096,2.438058942163417e-05
-136.56004461,0.03924996813956096,2.438058942163417e-05
-136.52342352,0.03924996813956096,2.438058942163417e-05
-136.48680243,0.03924996813956096,2.438058942163417e-05
-136.45018134,0.03924996813956096,2.438058942163417e-05
-136.41356025,0.03924996813956096,2.438058942163417e-05
-136.37693916,0.03924996813956096,2.438058942163417e-05
-136.34031807,0.03924996813956096,2.438058942163417e-05
-136.30369698,0.03924996813956096,2.438058942163417e-05
-136.26707589,0.03924996813956096,2.438058942163417e-05
-136.2304548,0.03924996813956096,2.438058942163417e-05
-136.19383371,0.03924996813956096,2.438058942163417e-05
-136.15721262,0.03924996813956096,2.438058942163417e-05
-136.12059153,0.03924996813956096,2.438058942163417e-05
-136.08397044,0.03924996813956096,2.438058942163417e-05
-136.04734935,0.03924996813956096,2.438058942163417e-05
-136.01072826,0.03924996813956096,2.438058942163417e-05
-135.97410717,0.03924996813956096,2.438058942163417e-05
-135.93748608,0.03924996813956096,2.438058942163417e-05
-135.90086499,0.04598089782062816,2.438058942163417e-05
-135.8642439,0.04732708375684527,2.438058942163417e-05
-135.82762281,0.04766363024089879,2.438058942163417e-05
-135.79100172,0.04766363024089879,2.438058942163417e-05
-135.75438063,0.04766363024089879,2.438058942163417e-05
-135.71775954,0.04732708375684543,2.438058942163417e-05
-135.68113845,0.04766363024089879,2.438058942163417e-05
-135.64451736,0.04766363024089879,2.438058942163417e-05
-135.60789627,0.04766363024089879,2.438058942163417e-05
-135.57127518,0.04732708375684527,2.438058942163417e-05
-135.53465409,0.04732708375684527,2.438058942163417e-05
-135.498033,0.04732708375684527,2.438058942163417e-05
-135.46141191,0.04766363024089879,2.438058942163417e-05
-135.42479082,0.04766363024089879,2.438058942163417e-05
-135.38816973,0.04732708375684527,2.438058942163417e-05
-135.35154864,0.04732708375684527,2.438058942163417e-05
-135.31492755,0.04732708375684527,2.438058942163417e-05
-135.27830646,0.04732708375684527,2.438058942163417e-05
-135.24168537,0.04732708375684527,2.438058942163417e-05
-135.20506428,0.04732708375684527,2.438058942163417e-05
-135.16844319,0.04732708375684527,2.438058942163417e-05
-135.1318221,0.04732708375684527,2.438058942163417e-05
-135.09520101,0.04732708375684527,2.438058942163417e-05
-135.05857992,0.04732708375684527,2.438058942163417e-05
-135.02195883,0.04732708375684527,2.438058942163417e-05
-134.98533774,0.04732708375684527,2.438058942163417e-05
-134.94871665,0.04732708375684527,2.438058942163417e-05
-134.91209556,0.04732708375684527,2.438058942163417e-05
-134.87547447,0.04732708375684527,2.438058942163417e-05
-134.83885338,0.04732708375684527,2.438058942163417e-05
-134.80223229,0.04732708375684527,2.438058942163417e-05
-134.7656112,0.04732708375684527,2.438058942163417e-05
-134.72899011,0.04732708375684527,2.438058942163417e-05
-134.69236902,0.04732708375684527,2.438058942163417e-05
-134.65574793,0.04732708375684527,2.438058942163417e-05
-134.61912684,0.04732708375684527,2.438058942163417e-05
-134.58250575,0.04732708375684527,2.438058942163417e-05
-134.54588466,0.04732708375684527,2.438058942163417e-05
-134.50926357,0.04732708375684527,2.438058942163417e-05
-134.47264248,0.04732708375684527,2.438058942163417e-05
-134.43602139,0.04732708375684527,2.438058942163417e-05
-134.3994003,0.04732708375684527,2.438058942163417e-05
-134.36277921,0.04732708375684527,2.438058942163417e-05
-134.32615812,0.04732708375684527,2.438058942163417e-05
-134.28953703,0.04732708375684527,2.438058942163417e-05
-134.25291594,0.04732708375684512,2.438058942163417e-05
-134.21629485,0.04699053727279175,2.438058942163417e-05
-134.17967376,0.04732708375684527,2.438058942163417e-05
-134.14305267,0.04732708375684527,2.438058942163417e-05
-134.10643158,0.04732708375684527,2.438058942163417e-05
-134.06981049,0.04732708375684527,2.438058942163417e-05
-134.0331894,0.04732708375684527,2.438058942163417e-05
-133.99656831,0.04699053727279175,2.438058942163417e-05
-133.95994722,0.04732708375684512,2.438058942163417e-05
-133.92332613,0.04530780485252419,2.438058942163417e-05
-133.88670504,0.04463471188441793,2.438058942163417e-05
-133.85008395,0.04631744430468473,2.438058942163417e-05
-133.81346286,0.04429816540036365,2.438058942163417e-05
-133.77684177,0.04025960759172334,2.438058942163417e-05
-133.74022068,0.03924996813956096,2.438058942163417e-05
