Testing/Satellite beacon testing/Power_Checks/20Ohm Power checks.csv

#Digilent WaveForms Oscilloscope Acquisition
#Device Name: Discovery2
#Serial Number: SN:210321A95EED
#Date Time: 2019-09-16 12:41:13.386
#Sample rate: 27.3067Hz
#Samples: 6571
#Trigger: Source: Channel 1 Type: Edge Condition: Rising Level: 0 V Hyst.: Auto HoldOff: 0 s
#Channel 1: Range: 100 mV/div Offset: 0 V Attenuation: 1 X
#Channel 2: Range: 100 mV/div Offset: 0 V Attenuation: 1 X

Time (s),Channel 1 (V),Channel 2 (V)
-146.48436,-0.001808702914969296,-0.0006468828553463162
-146.44773891,-0.005510714239556254,-0.0009825145777300624
-146.41111782,-0.005510714239556254,-0.0009825145777300624
-146.37449673,-0.005510714239556254,-0.0009825145777300624
-146.33787564,-0.005510714239556254,-0.0009825145777300624
-146.30125455,-0.005510714239556254,-0.0009825145777300624
-146.26463346,-0.005510714239556254,-0.0009825145777300624
-146.22801237,-0.005510714239556254,-0.0009825145777300624
-146.19139128,-0.005510714239556254,-0.0009825145777300624
-146.15477019,-0.005510714239556254,-0.0009825145777300624
-146.1181491,-0.005510714239556254,-0.0009825145777300624
-146.08152801,-0.005510714239556254,-0.0009825145777300624
-146.04490692,-0.005510714239556254,-0.0009825145777300624
-146.00828583,-0.005510714239556254,-0.0009825145777300624
-145.97166474,-0.005510714239556254,-0.0006468828553461636
-145.93504365,-0.005510714239556254,-0.0009825145777300624
-145.89842256,-0.005510714239556254,-0.0009825145777300624
-145.86180147,-0.005510714239556254,-0.0009825145777300624
-145.82518038,-0.005510714239556254,-0.0009825145777300624
-145.78855929,-0.005510714239556254,-0.0009825145777300624
-145.7519382,-0.005510714239556254,-0.0009825145777300624
-145.71531711,-0.005510714239556254,-0.0009825145777300624
-145.67869602,-0.005510714239556254,-0.0009825145777300624
-145.64207493,-0.005510714239556254,-0.0009825145777300624
-145.60545384,-0.005510714239556254,-0.0009825145777300624
-145.56883275,-0.005510714239556254,-0.0009825145777300624
-145.53221166,-0.005510714239556254,-0.0009825145777300624
-145.49559057,-0.005510714239556254,-0.0009825145777300624
-145.45896948,-0.005510714239556254,-0.0009825145777300624
-145.42234839,-0.005510714239556254,-0.0009825145777300624
-145.3857273,-0.005510714239556254,-0.0009825145777300624
-145.34910621,-0.005510714239556254,-0.0009825145777300624
-145.31248512,-0.005510714239556254,-0.0009825145777300624
-145.27586403,-0.005510714239556254,-0.0009825145777300624
-145.23924294,-0.005510714239556254,-0.0009825145777300624
-145.20262185,-0.005510714239556254,-0.0009825145777300624
-145.16600076,-0.005510714239556254,-0.0009825145777300624
-145.12937967,-0.005510714239556254,-0.0009825145777300624
-145.09275858,-0.005510714239556254,-0.0009825145777300624
-145.05613749,-0.005510714239556254,-0.0009825145777300624
-145.0195164,-0.005510714239556254,-0.0009825145777300624
-144.98289531,-0.005847260723609614,-0.0009825145777300624
-144.94627422,-0.005510714239556254,-0.0009825145777300624
-144.90965313,-0.005510714239556254,-0.0009825145777300624
-144.87303204,-0.005510714239556254,-0.0009825145777300624
-144.83641095,-0.005510714239556254,-0.0009825145777300624
-144.79978986,-0.005510714239556254,-0.0009825145777300624
-144.76316877,-0.005510714239556254,-0.0009825145777300624
-144.72654768,-0.005510714239556254,-0.0009825145777300624
-144.68992659,-0.005510714239556254,-0.0009825145777300624
-144.6533055,-0.005847260723609767,-0.0009825145777300624
-144.61668441,-0.005847260723609767,-0.0009825145777300624
-144.58006332,-0.005847260723609767,-0.0009825145777300624
-144.54344223,-0.005510714239556254,-0.0009825145777300624
-144.50682114,-0.005510714239556254,-0.0009825145777300624
-144.47020005,-0.005510714239556254,-0.0009825145777300624
-144.43357896,-0.005510714239556254,-0.0009825145777300624
-144.39695787,-0.005510714239556254,-0.0009825145777300624
-144.36033678,-0.005510714239542939,-0.0009825145777196838
-144.32371569,0.02376882987309937,0.02184044254437506
-144.2870946,0.2465626023165249,0.8545427457788282
-144.25047351,0.2586782757424459,0.8310485252119659
-144.21385242,0.3286799444255821,0.828363471432884
-144.17723133,0.3286799444255736,0.8283634714328841
-144.14061024,0.3101698878026473,0.8286991031552678
-144.10398915,0.2822365296261973,0.8293703666000357
-144.06736806,0.2812268901740378,0.8293703666000357
-144.03074697,0.2835827155624113,0.8293703666000357
-143.99412588,0.2849289014986254,0.8290347348776519
-143.95750479,0.2849289014986254,0.8290347348776519
-143.9208837,0.2849289014986254,0.8290347348776519
-143.88426261,0.2845923550145719,0.8290347348776519
-143.84764152,0.2845923550145719,0.8290347348776519
-143.81102043,0.2842558085305184,0.8290347348776519
-143.77439934,0.2842558085305184,0.8290347348776519
-143.73777825,0.2798807042378227,0.8290347348776519
-143.70115716,0.279544157753769,0.8290347348776519
-143.66453607,0.2792076112697157,0.8290347348776519
-143.62791498,0.2785345183016086,0.8290347348776519
-143.59129389,0.2781979718175553,0.8286991031552681
-143.5546728,0.2781979718175551,0.828699103155268
-143.51805171,0.2788710647856621,0.828699103155268
-143.48143062,0.2788710647856621,0.828699103155268
-143.44480953,0.2788710647856621,0.828699103155268
-143.40818844,0.2781979718175555,0.828699103155268
-143.37156735,0.2775248788494481,0.828699103155268
-143.33494626,0.2778614253335019,0.828699103155268
-143.29832517,0.2785345183016086,0.828699103155268
-143.26170408,0.2785345183016086,0.828699103155268
-143.22508299,0.2781979718175553,0.828699103155268
-143.1884619,0.2771883323653946,0.828699103155268
-143.15184081,0.2771883323653948,0.828699103155268
-143.11521972,0.2775248788494481,0.828699103155268
-143.07859863,0.2775248788494481,0.828699103155268
-143.04197754,0.2775248788494481,0.828699103155268
-143.00535645,0.2775248788494481,0.828363471432884
-142.96873536,0.2765152393972874,0.8283634714328841
-142.93211427,0.276178692913234,0.828699103155268
-142.89549318,0.2768517858813411,0.828363471432884
-142.85887209,0.2771883323653944,0.8286991031552678
-142.822251,0.2771883323653946,0.828363471432884
-142.78562991,0.2771883323653943,0.828363471432884
-142.74900882,0.2765152393972876,0.828363471432884
-142.71238773,0.276178692913234,0.828363471432884
-142.67576664,0.2771883323653941,0.828363471432884
-142.63914555,0.2775248788494481,0.8495082699430697
-142.60252446,0.2916598311796955,0.8196370466509026
-142.56590337,0.2913232846956423,0.8196370466509026
-142.52928228,0.287957819855107,0.5799959968687989
-142.49266119,0.28055379720593,0.03694387005165051
-142.4560401,0.2812268901740367,0.03694387005165051
-142.41941901,0.2812268901740367,0.02788181354728524
-142.38279792,0.2812268901740367,0.001031275756585539
-142.34617683,0.2808903436899832,0.001031275756573331
-142.30955574,0.2798807042378229,0.001031275756573331
-142.27293465,0.2802172507218762,0.001031275756573331
-142.23631356,0.2808903436899832,0.001031275756573331
-142.19969247,0.2808903436899832,0.001031275756573331
-142.16307138,0.2805537972059297,0.001031275756573331
-142.12645029,0.280217250721876,0.001031275756573331
-142.0898292,0.2798807042378227,0.001031275756573331
-142.05320811,0.2802172507218762,0.001031275756573331
-142.01658702,0.2805537972059295,0.001031275756573331
-141.97996593,0.2805537972059297,0.001031275756573331
-141.94334484,0.2805537972059294,0.001031275756573331
-141.90672375,0.2798807042378227,0.001031275756573331
-141.87010266,0.2795441577537692,0.001031275756573331
-141.83348157,0.2802172507218759,0.001031275756573331
-141.79686048,0.2802172507218762,0.001031275756573331
-141.76023939,0.2798807042378227,0.001031275756573331
-141.7236183,0.2798807042378227,0.001031275756573331
-141.68699721,0.2795441577537692,0.001031275756573331
-141.65037612,0.2795441577537692,0.001031275756573331
-141.61375503,0.2802172507218762,0.001031275756573331
-141.57713394,0.2805537972059299,0.001031275756573331
-141.54051285,0.2808903436899832,0.001031275756573331
-141.50389176,0.2802172507218762,0.001031275756573331
-141.46727067,0.2798807042378229,0.001031275756573331
-141.43064958,0.2802172507218762,0.001031275756573331
-141.39402849,0.2808903436899832,0.001031275756573331
-141.3574074,0.2808903436899832,0.001031275756573331
-141.32078631,0.2805537972059297,0.001031275756573331
-141.28416522,0.2802172507218764,0.001031275756573331
-141.24754413,0.2788710647856621,0.001031275756573331
-141.21092304,0.2792076112697158,0.001031275756573331
-141.17430195,0.2795441577537692,0.001031275756573331
-141.13768086,0.2795441577537692,0.001031275756573331
-141.10105977,0.2795441577537692,0.001031275756573331
-141.06443868,0.2792076112697157,0.001031275756573331
-141.02781759,0.2788710647856621,0.001031275756573331
-140.9911965,0.2788710647856621,0.001031275756573331
-140.95457541,0.2792076112697157,0.001031275756573331
-140.91795432,0.2792076112697157,0.001031275756573331
-140.88133323,0.2792076112697157,0.001031275756573331
-140.84471214,0.2788710647856621,0.001031275756573331
-140.80809105,0.2788710647856621,0.001031275756573331
-140.77146996,0.2792076112697157,0.001031275756573331
-140.73484887,0.278871064785662,0.001031275756573331
-140.69822778,0.2785345183016086,0.001031275756573331
-140.66160669,0.2788710647856621,0.001031275756573331
-140.6249856,0.2785345183016088,0.001031275756573331
-140.58836451,0.2781979718175551,0.001031275756573331
-140.55174342,0.2788710647856621,0.001031275756573331
-140.51512233,0.2788710647856621,0.001031275756573331
-140.47850124,0.2788710647856621,0.001031275756573331
-140.44188015,0.2788710647856621,0.001031275756573331
-140.40525906,0.2785345183016086,0.001031275756573331
-140.36863797,0.2788710647856623,0.001031275756573331
-140.33201688,0.2792076112697157,0.001031275756573331
-140.29539579,0.2394951261514011,0.001031275756573331
-140.2587747,0.2189657906241462,0.001031275756573331
-140.22215361,0.2189657906241368,0.001031275756573331
-140.18553252,0.2189657906241368,0.001031275756573331
-140.14891143,0.2189657906241368,0.001031275756573331
-140.11229034,0.2189657906241368,0.001031275756573331
-140.07566925,0.2189657906241368,0.001031275756573331
-140.03904816,0.2189657906241368,0.001031275756573331
-140.00242707,0.2189657906241368,0.001031275756573331
-139.96580598,0.2189657906241368,0.001031275756573331
-139.92918489,0.2189657906241368,0.001031275756573331
-139.8925638,0.2189657906241368,0.001031275756573331
-139.85594271,0.2189657906241368,0.001031275756573331
-139.81932162,0.2189657906241368,0.001031275756573331
-139.78270053,0.2189657906241368,0.001031275756573331
-139.74607944,0.2189657906241368,0.001031275756573331
-139.70945835,0.2189657906241368,0.001031275756573331
-139.67283726,0.2189657906241368,0.001031275756573331
-139.63621617,0.2189657906241368,0.001031275756573331
-139.59959508,0.2189657906241368,0.001031275756573331
-139.56297399,0.2189657906241368,0.001031275756573331
-139.5263529,0.2189657906241368,0.001031275756573331
-139.48973181,0.2189657906241368,0.001031275756573331
-139.45311072,0.2189657906241368,0.001031275756573331
-139.41648963,0.2189657906241368,0.001031275756573331
-139.37986854,0.2189657906241368,0.001031275756573331
-139.34324745,0.2189657906241368,0.001031275756573331
-139.30662636,0.2189657906241368,0.001031275756573331
-139.27000527,0.2193023371081904,0.001031275756573331
-139.23338418,0.218965790624137,0.001031275756573331
-139.19676309,0.2189657906241368,0.001031275756573331
-139.160142,0.2189657906241368,0.001031275756573331
-139.12352091,0.2189657906241368,0.001031275756573331
-139.08689982,0.2189657906241368,0.001031275756573331
-139.05027873,0.2189657906241368,0.001031275756573331
-139.01365764,0.2189657906241368,0.001031275756573331
-138.97703655,0.2189657906241368,0.001031275756573331
-138.94041546,0.2189657906241368,0.001031275756573331
-138.90379437,0.2189657906241368,0.001031275756573331
-138.86717328,0.2189657906241368,0.001031275756573331
-138.83055219,0.2189657906241368,0.001031275756573331
-138.7939311,0.2189657906241368,0.001031275756573331
-138.75731001,0.2189657906241368,0.001031275756573331
-138.72068892,0.2189657906241368,0.0006956440341894319
-138.68406783,0.2189657906241368,0.001031275756573178
-138.64744674,0.2189657906241368,0.001031275756573331
-138.61082565,0.2189657906241368,0.001031275756573331
-138.57420456,0.2189657906241368,0.001031275756573331
-138.53758347,0.2189657906241368,0.001031275756573331
-138.50096238,0.2189657906241368,0.001031275756573331
-138.46434129,0.2189657906241368,0.001031275756573331
-138.4277202,0.2189657906241368,0.001031275756573331
-138.39109911,0.2189657906241368,0.001031275756573331
-138.35447802,0.2189657906241368,0.001031275756573331
-138.31785693,0.2189657906241368,0.001031275756573331
-138.28123584,0.2189657906241368,0.001031275756573331
-138.24461475,0.2193023371081902,0.001031275756573331
-138.20799366,0.2189657906241368,0.001031275756573331
-138.17137257,0.2189657906241368,0.001031275756573331
-138.13475148,0.2189657906241368,0.001031275756573331
-138.09813039,0.2189657906241368,0.001031275756573331
-138.0615093,0.2189657906241368,0.001031275756573331
-138.02488821,0.2189657906241368,0.001031275756573331
-137.98826712,0.2189657906241368,0.001031275756573331
-137.95164603,0.2189657906241368,0.001031275756573331
-137.91502494,0.2189657906241368,0.001031275756573331
-137.87840385,0.2189657906241368,0.001031275756573331
-137.84178276,0.2189657906241368,0.001031275756573331
-137.80516167,0.2189657906241368,0.001031275756573331
-137.76854058,0.2189657906241368,0.001031275756573331
-137.73191949,0.2189657906241368,0.001031275756573331
-137.6952984,0.2189657906241368,0.001031275756573331
-137.65867731,0.2189657906241368,0.001031275756573331
-137.62205622,0.2189657906241368,0.001031275756573331
-137.58543513,0.2189657906241368,0.001031275756573331
-137.54881404,0.2189657906241368,0.001031275756573331
-137.51219295,0.2189657906241368,0.001031275756573331
-137.47557186,0.2189657906241368,0.001031275756573331
-137.43895077,0.2189657906241368,0.001031275756573331
-137.40232968,0.2189657906241368,0.001031275756573331
-137.36570859,0.2189657906241368,0.001031275756573331
-137.3290875,0.2189657906241368,0.001031275756573331
-137.29246641,0.2189657906241368,0.001031275756573331
-137.25584532,0.2189657906241368,0.001031275756573331
-137.21922423,0.2256967203052311,0.001031275756573331
-137.18260314,0.2785345183016086,0.001031275756573331
-137.14598205,0.2785345183016086,0.001031275756573331
-137.10936096,0.2785345183016086,0.001031275756573331
-137.07273987,0.2785345183016086,0.001031275756573331
-137.03611878,0.2785345183016086,0.001031275756573331
-136.99949769,0.2785345183016086,0.001031275756573331
-136.9628766,0.2785345183016086,0.001031275756573331
-136.92625551,0.2785345183016086,0.001031275756573331
-136.88963442,0.2788710647856621,0.001031275756573331
-136.85301333,0.2785345183016086,0.001031275756573331
-136.81639224,0.2785345183016086,0.001031275756573331
-136.77977115,0.2788710647856621,0.001031275756573331
-136.74315006,0.2788710647856621,0.001031275756573331
-136.70652897,0.2788710647856621,0.001031275756573331
-136.66990788,0.2792076112697157,0.001031275756573331
-136.63328679,0.2792076112697157,0.001031275756573331
-136.5966657,0.2788710647856621,0.001031275756573331
-136.56004461,0.2785345183016088,0.001031275756573331
-136.52342352,0.2788710647856621,0.001031275756573331
-136.48680243,0.2788710647856621,0.001031275756573331
-136.45018134,0.2788710647856621,0.001031275756573331
-136.41356025,0.2788710647856621,0.001031275756573331
-136.37693916,0.2788710647856621,0.001031275756573331
-136.34031807,0.2788710647856621,0.001031275756573331
-136.30369698,0.2788710647856623,0.001031275756573331
-136.26707589,0.2792076112697155,0.001031275756573331
-136.2304548,0.2792076112697157,0.001031275756573331
-136.19383371,0.2788710647856623,0.001031275756573331
-136.15721262,0.2792076112697157,0.001031275756573331
-136.12059153,0.2792076112697157,0.001031275756573331
-136.08397044,0.279544157753769,0.001031275756573331
-136.04734935,0.2788710647856621,0.001031275756573331
-136.01072826,0.2788710647856621,0.001031275756573331
-135.97410717,0.2788710647856621,0.001031275756573331
-135.93748608,0.2785345183016086,0.001031275756573331
-135.90086499,0.2785345183016086,0.001031275756573331
-135.8642439,0.2785345183016086,0.001031275756573331
-135.82762281,0.2788710647856621,0.001031275756573331
-135.79100172,0.2788710647856621,0.001031275756573331
-135.75438063,0.2785345183016086,0.001031275756573331
-135.71775954,0.2785345183016086,0.001031275756573331
-135.68113845,0.2785345183016086,0.001031275756573331
-135.64451736,0.2781979718175553,0.001031275756573331
-135.60789627,0.2785345183016086,0.001031275756573331
-135.57127518,0.2788710647856621,0.001031275756573331
-135.53465409,0.2781979718175555,0.001031275756573331
-135.498033,0.2778614253335016,0.001031275756573331
-135.46141191,0.2781979718175553,0.001031275756573331
-135.42479082,0.2785345183016086,0.001031275756573331
-135.38816973,0.2785345183016086,0.001031275756573331
-135.35154864,0.278871064785662,0.001031275756573331
-135.31492755,0.2792076112697157,0.001031275756573331
-135.27830646,0.2792076112697155,0.001031275756573331
-135.24168537,0.2788710647856621,0.001031275756573331
-135.20506428,0.2785345183016086,0.001031275756573331
-135.16844319,0.2785345183016086,0.001031275756573331
-135.1318221,0.2781979718175551,0.001031275756573331
-135.09520101,0.2465626023165122,0.001031275756573331
-135.05857992,0.2186292441400833,0.001031275756573331
-135.02195883,0.2186292441400833,0.001031275756573331
-134.98533774,0.2186292441400833,0.001031275756573331
-134.94871665,0.2189657906241368,0.001031275756573331
-134.91209556,0.2186292441400835,0.001031275756573331
-134.87547447,0.2189657906241368,0.001031275756573331
-134.83885338,0.2189657906241368,0.001031275756573331
-134.80223229,0.2189657906241368,0.001031275756573331
-134.7656112,0.2186292441400833,0.001031275756573331
-134.72899011,0.2186292441400833,0.001031275756573331
-134.69236902,0.2186292441400833,0.001031275756573331
-134.65574793,0.2189657906241368,0.001031275756573331
-134.61912684,0.2186292441400833,0.001031275756573331
-134.58250575,0.2186292441400833,0.001031275756573331
-134.54588466,0.2226678019487255,0.07520588640341498
-134.50926357,0.2462260558324607,0.8256784176534716
-134.47264248,0.2431971374759898,0.815273834259912
-134.43602139,0.2431971374759898,0.815273834259912
-134.3994003,0.2431971374759898,0.815273834259912
-134.36277921,0.2431971374759898,0.8149382025375281
-134.32615812,0.2428605909919364,0.8149382025375281
-134.28953703,0.2428605909919362,0.8149382025375281
-134.25291594,0.2428605909919362,0.8149382025375281
-134.21629485,0.2428605909919362,0.8149382025375281
-134.17967376,0.2428605909919362,0.8149382025375281
-134.14305267,0.2428605909919362,0.8146025708151443
-134.10643158,0.2428605909919362,0.8146025708151442
-134.06981049,0.2431971374759896,0.8146025708151442
-134.0331894,0.2428605909919362,0.8146025708151442
-133.99656831,0.2428605909919362,0.8146025708151442
-133.95994722,0.2428605909919362,0.8146025708151442
-133.92332613,0.2428605909919362,0.8146025708151442
-133.88670504,0.2428605909919362,0.8146025708151442
-133.85008395,0.2428605909919362,0.8146025708151442
-133.81346286,0.2428605909919362,0.8146025708151442
-133.77684177,0.2428605909919362,0.8146025708151442
-133.74022068,0.2428605909919362,0.8142669390927603
-133.70359959,0.2428605909919362,0.8146025708151442
-133.6669785,0.2428605909919362,0.8146025708151442
-133.63035741,0.2428605909919362,0.8146025708151442
-133.59373632,0.2428605909919362,0.8142669390927604
-133.55711523,0.2428605909919362,0.8142669390927603
-133.52049414,0.2428605909919362,0.8142669390927603
-133.48387305,0.2428605909919362,0.8142669390927603
-133.44725196,0.2428605909919362,0.8142669390927603
-133.41063087,0.2428605909919362,0.8142669390927603
-133.37400978,0.2428605909919362,0.8142669390927603
-133.33738869,0.2428605909919362,0.8142669390927603
-133.3007676,0.2428605909919362,0.8142669390927603
