Testing/Satellite beacon testing/Radio_TX_Size_checks/10Ohm resistor - 15dBm power - TX size checks.csv

#Digilent WaveForms Oscilloscope Acquisition
#Device Name: Discovery2
#Serial Number: SN:210321A95EED
#Date Time: 2019-09-11 12:13:19.359
#Sample rate: 68.2667Hz
#Samples: 5136
#Trigger: Source: Channel 1 Type: Edge Condition: Rising Level: 0 V Hyst.: Auto HoldOff: 0 s
#Channel 1: Range: 500 mV/div Offset: 0 V Attenuation: 1 X
#Channel 2: Range: 200 mV/div Offset: 0 V Attenuation: 1 X

Time (s),Channel 1 (V),Channel 2 (V)
-58.59376,-0.3561921506233167,0.005394488147564016
-58.57911156,-1.273954412636829,0.0204979156548326
-58.56446312,-1.270925494280765,0.02083354737722336
-58.54981468,-1.265540750535909,0.02049791565483947
-58.53516624,-1.268906215376444,0.02016228393245557
-58.5205178,-1.272608226701032,0.02016228393245557
-58.50586936,-1.266886936472123,0.02083354737722336
-58.49122092,-1.265204204051855,0.02016228393245557
-58.47657247999999,-1.272944773185084,0.02049791565483947
-58.46192404,-1.269242761860497,0.02049791565483947
-58.4472756,-1.264867657567802,0.02083354737722336
-58.43262716,-1.262511832179427,0.02016228393245557
-58.41797872,-1.269242761860497,0.02049791565483947
-58.40333028,-1.266886936472123,0.02049791565483947
-58.38868184,-1.261165646243213,0.02083354737722336
-58.37403339999999,-1.263521471631587,0.02016228393245557
-58.35938496,-1.26856966889239,0.02049791565483947
-58.34473652,-1.262511832179427,0.02083354737722336
-58.33008808,-1.260156006791052,0.02049791565483947
-58.31543964,-1.26856966889239,0.02049791565483947
-58.3007912,-1.266213843504016,0.02049791565483947
-58.28614276,-1.259819460306999,0.02083354737722336
-58.27149432,-1.259819460306999,0.02016228393245557
-58.25684588,-1.266213843504016,0.02049791565483947
-58.24219744,-1.262511832179427,0.02049791565483947
-58.227549,-1.257800181402678,0.02083354737722336
-58.21290056,-1.259819460306998,0.02016228393245587
-58.19825212,-1.266550389988069,0.02049791565483947
-58.18360368,-1.261165646243213,0.02083354737722336
-58.16895524,-1.258473274370785,0.02083354737722336
-58.1543068,-1.264867657567802,0.02016228393245557
-58.13965836,-1.265204204051855,0.02049791565483947
-58.12500992,-1.258473274370785,0.02083354737722336
-58.11036147999999,-1.259482913822945,0.02049791565483947
-58.09571304,-1.259146367338892,0.02049791565483947
-58.0810646,-1.259819460306999,0.02049791565483947
-58.06641616,-1.257800181402678,0.02083354737722336
-58.05176772,-1.260492553275106,0.02016228393245557
-58.03711928,-1.262848378663481,0.02049791565483947
-58.02247084,-1.257800181402678,0.02049791565483947
-58.00782239999999,-1.25611744898241,0.02083354737722336
-57.99317396,-1.261165646243213,0.02016228393245557
-57.97852552,-1.263184925147534,0.02049791565483947
-57.96387708,-1.256453995466464,0.02083354737722336
-57.94922864,-1.258136727886731,0.02083354737722336
-57.9345802,-1.262848378663481,0.02016228393245557
-57.91993176,-1.259482913822945,0.02049791565483947
-57.90528332,-1.257463634918624,0.02083354737722336
-57.89063488,-1.260156006791052,0.02049791565483947
-57.87598644,-1.263858018115641,0.02049791565483947
-57.861338,-1.258136727886731,0.02049791565483947
-57.84668955999999,-1.257127088434574,0.02083354737722321
-57.83204112,-1.264531111083748,0.02049791565483947
-57.81739268,-1.266213843504016,0.02049791565483947
-57.80274424,-1.26183873921132,0.02049791565483947
-57.7880958,-1.26183873921132,0.02083354737722336
-57.77344736,-1.266886936472123,0.02016228393245557
-57.75879892,-1.264867657567802,0.02049791565483947
-57.74415047999999,-1.262848378663481,0.02083354737722336
-57.72950204,-1.26756002944023,0.02083354737722336
-57.7148536,-1.270588947796711,0.02016228393245557
-57.70020516,-1.264194564599695,0.02049791565483947
-57.68555672,-1.261502192727266,0.02083354737722336
-57.67090828,-1.263184925147534,0.02049791565483947
-57.65625984,-1.263184925147534,0.02049791565483947
-57.6416114,-1.259482913822945,0.02049791565483947
-57.62696296,-1.260156006791052,0.02083354737722336
-57.61231452,-1.267896575924283,0.02049791565483947
-57.59766608,-1.262511832179427,0.02049791565483947
-57.58301764,-1.25578090249836,0.02083354737722321
-57.5683692,-1.258809820854838,0.02083354737722336
-57.55372076,-1.266213843504016,0.02016228393245557
-57.53907232,-1.260829099759159,0.02049791565483947
-57.52442388,-1.258809820854838,0.02083354737722336
-57.50977544,-1.265204204051855,0.02083354737722336
-57.495127,-1.265877297019962,0.02016228393245557
-57.48047855999999,-1.261502192727266,0.02049791565483962
-57.46583012,-1.260492553275106,0.02083354737722336
-57.45118168,-1.26756002944023,0.02049791565483947
-57.43653324,-1.263184925147534,0.02049791565483947
-57.4218848,-1.259819460306999,0.02049791565483947
-57.40723636,-1.262511832179427,0.02083354737722336
-57.39258792,-1.265540750535909,0.02016228393245557
-57.37793947999999,-1.259482913822945,0.02049791565483947
-57.36329104,-1.257463634918624,0.02049791565483947
-57.3486426,-1.264867657567802,0.02083354737722336
-57.33399416,-1.265877297019962,0.02016228393245557
-57.31934572,-1.260492553275106,0.02049791565483947
-57.30469728,-1.260492553275106,0.02083354737722336
-57.29004884,-1.266213843504016,0.02049791565483947
-57.2754004,-1.263184925147534,0.02016228393245557
-57.26075196,-1.258809820854838,0.02049791565483947
-57.24610352,-1.261165646243213,0.02083354737722336
-57.23145508,-1.265540750535909,0.02049791565483947
-57.21680663999999,-1.259146367338891,0.02049791565483947
-57.2021582,-1.257800181402678,0.02049791565483947
-57.18750976,-1.263521471631587,0.02083354737722336
-57.17286132,-1.262511832179427,0.02016228393245557
-57.15821288,-1.257800181402678,0.02049791565483947
-57.14356444,-1.259819460306999,0.02049791565483947
-57.128916,-1.264531111083748,0.02083354737722336
-57.11426755999999,-1.261502192727266,0.02016228393245557
-57.09961912,-1.258473274370785,0.02049791565483947
-57.08497068,-1.260156006791052,0.02083354737722336
-57.07032224,-1.260829099759159,0.02083354737722336
-57.0556738,-1.256453995466464,0.02016228393245557
-57.04102536,-1.259146367338892,0.02049791565483947
-57.02637692,-1.263521471631587,0.02083354737722336
-57.01172848,-1.263858018115641,0.02049791565483947
-56.99708004,-1.258809820854838,0.02049791565483947
-56.9824316,-1.260156006791052,0.02049791565483947
-56.96778316,-1.265204204051855,0.02083354737722336
-56.95313472,-1.262848378663482,0.02016228393245587
-56.93848628,-1.258473274370785,0.02049791565483947
-56.92383784,-1.261502192727266,0.02083354737722336
-56.9091894,-1.263184925147534,0.02083354737722336
-56.89454096,-1.258136727886731,0.02016228393245557
-56.87989252,-1.258809820854838,0.02049791565483947
-56.86524408,-1.264867657567802,0.02083354737722336
-56.85059563999999,-1.263858018115638,0.02049791565483947
-56.8359472,-1.257800181402678,0.02049791565483947
-56.82129876,-1.258473274370785,0.02049791565483947
-56.80665032,-1.265877297019962,0.02083354737722336
-56.79200188,-1.263521471631587,0.02049791565483947
-56.77735344,-1.259819460306999,0.02049791565483947
-56.762705,-1.261502192727266,0.02049791565483947
-56.74805655999999,-1.266550389988069,0.02083354737722336
-56.73340812,-1.264194564599695,0.02016228393245557
-56.71875968,-1.26183873921132,0.02049791565483947
-56.70411124,-1.266550389988069,0.02083354737722336
-56.6894628,-1.261502192727266,0.02083354737722336
-56.67481436,-1.256790541950517,0.02016228393245557
-56.66016592,-1.25611744898241,0.02049791565483947
-56.64551748,-1.255780902498357,0.02083354737722336
-56.63086904,-1.257127088434571,0.02049791565483947
-56.6162206,-1.257800181402678,0.02049791565483947
-56.60157216,-1.260829099759159,0.02049791565483947
-56.58692371999999,-1.258136727886731,0.02083354737722306
-56.57227528,-1.257127088434571,0.02016228393245557
-56.55762684,-1.255444356014303,0.02049791565483947
-56.5429784,-1.254771263046196,0.02049791565483947
-56.52832996,-1.264867657567802,0.02083354737722336
-56.51368152,-1.267896575924283,0.02016228393245557
-56.49903308,-1.282031528254531,0.02083354737722336
-56.48438463999999,-1.287416271999387,0.02083354737722336
-56.4697362,-1.287079725515333,0.02083354737722336
-56.45508776,-1.286406632547226,0.02083354737722336
-56.44043932,-0.7738463373337262,-0.0184353641416928
-56.42579088,-0.7112486912997729,-0.02145604964314789
-56.41114244,-0.7068735870070771,-0.02145604964314789
-56.396494,-0.7055274010708631,-0.02145604964314789
-56.38184556,-0.7055274010708631,-0.02145604964314789
-56.36719712,-0.7099025053635588,-0.02145604964314789
-56.35254868,-0.7237009112097528,-0.0197778910312284
-56.33790024,-1.253425077109982,0.02049791565483947
-56.3232518,-1.256453995466462,0.02049791565483947
-56.30860336,-1.256790541950517,0.02083354737722336
-56.29395492,-1.25611744898241,0.02016228393245557
-56.27930648,-1.257800181402678,0.02049791565483947
-56.26465804,-1.257463634918624,0.02049791565483947
-56.2500096,-1.256790541950517,0.02049791565483947
-56.23536116,-1.256453995466464,0.02016228393245557
-56.22071271999999,-1.255780902498356,0.02016228393245587
-56.20606428,-1.255444356014303,0.02083354737722336
-56.19141584,-1.253761623594036,0.02016228393245557
-56.1767674,-1.256453995466464,0.02049791565483947
-56.16211896,-1.257463634918624,0.02016228393245557
-56.14747052,-1.256453995466464,0.02083354737722336
-56.13282208,-1.25611744898241,0.02016228393245557
-56.11817363999999,-1.25510780953025,0.02049791565483947
-56.1035252,-1.256790541950517,0.02049791565483947
-56.08887676,-1.256453995466464,0.02083354737722336
-56.07422832,-1.256453995466464,0.02016228393245557
-56.05957988,-1.258473274370785,0.02049791565483947
-56.04493144,-1.257127088434571,0.02049791565483947
-56.030283,-1.253425077109982,0.02049791565483947
-56.01563456,-1.257127088434571,0.02016228393245557
-56.00098612,-1.258473274370785,0.02016228393245557
-55.98633768,-1.258473274370785,0.02083354737722336
-55.97168924,-1.257127088434571,0.02016228393245557
-55.9570408,-1.257127088434571,0.02049791565483931
-55.94239236,-1.257463634918624,0.02016228393245557
-55.92774392,-1.257127088434571,0.02083354737722336
-55.91309548,-1.256453995466464,0.02016228393245557
-55.89844704,-1.256790541950517,0.02049791565483947
-55.8837986,-1.258473274370785,0.02049791565483947
-55.86915016,-1.256790541950517,0.02083354737722336
-55.85450171999999,-1.255444356014303,0.02016228393245557
-55.83985328,-1.260492553275106,0.02049791565483947
-55.82520484,-1.261165646243213,0.02049791565483947
-55.8105564,-1.260829099759159,0.02049791565483947
-55.79590796,-1.259146367338892,0.02016228393245557
-55.78125952,-1.258473274370785,0.02016228393245557
-55.76661108,-1.256790541950517,0.02083354737722336
-55.75196264,-1.257800181402678,0.02016228393245557
-55.7373142,-1.260156006791052,0.02049791565483947
-55.72266576,-1.261502192727266,0.02016228393245557
-55.70801732,-1.260829099759159,0.02083354737722336
-55.69336888,-1.259146367338893,0.02016228393245587
-55.67872044,-1.258136727886731,0.02049791565483947
-55.664072,-1.257800181402678,0.02049791565483947
-55.64942356,-1.258136727886731,0.02083354737722336
-55.63477512,-1.257800181402678,0.02016228393245557
-55.62012668,-1.258136727886731,0.02049791565483947
-55.60547824,-1.258473274370785,0.02049791565483947
-55.59082979999999,-1.259482913822944,0.02049791565483931
-55.57618136,-1.256790541950517,0.02016228393245557
-55.56153292,-1.258136727886731,0.02016228393245557
-55.54688448,-1.257800181402678,0.02083354737722336
-55.53223604,-1.256453995466464,0.02016228393245557
-55.5175876,-1.253425077109982,0.02049791565483947
-55.50293916,-1.25611744898241,0.02049791565483947
-55.48829071999999,-1.256790541950517,0.02083354737722336
-55.47364228,-1.257127088434571,0.02016228393245557
-55.45899384,-1.257127088434571,0.02049791565483947
-55.4443454,-1.257800181402678,0.02049791565483947
-55.42969696,-1.257127088434571,0.02083354737722336
-55.41504852,-1.256790541950517,0.02016228393245557
-55.40040008,-1.256453995466464,0.02049791565483947
-55.38575164,-1.257463634918624,0.02083354737722336
-55.3711032,-1.257127088434571,0.02049791565483947
-55.35645476,-1.257127088434571,0.02016228393245557
-55.34180632,-1.257463634918624,0.02016228393245557
-55.32715788,-1.257127088434571,0.02083354737722306
-55.31250944,-1.255444356014303,0.02016228393245557
-55.297861,-1.255780902498357,0.02049791565483947
-55.28321256,-1.258809820854838,0.02049791565483947
-55.26856412,-1.257463634918624,0.02083354737722336
-55.25391568,-1.256453995466464,0.02016228393245557
-55.23926724,-1.257127088434571,0.02049791565483947
-55.22461879999999,-1.258136727886731,0.02049791565483947
-55.20997036,-1.258136727886731,0.02083354737722336
-55.19532192,-1.257800181402678,0.02016228393245557
-55.18067348,-1.259146367338892,0.02049791565483947
-55.16602504,-1.258473274370785,0.02049791565483947
-55.1513766,-1.259482913822945,0.02049791565483947
-55.13672816,-1.258473274370785,0.02049791565483947
-55.12207972,-1.258809820854838,0.02016228393245557
-55.10743128,-1.259482913822945,0.02083354737722336
-55.09278284,-1.258809820854838,0.02016228393245557
-55.0781344,-1.258809820854838,0.02049791565483947
-55.06348596,-1.258809820854838,0.02049791565483947
-55.04883752,-1.259146367338892,0.07386335951387939
-55.03418908,-1.258473274370785,0.01848412532053607
-55.01954064,-1.258473274370785,0.01881975704291997
-55.0048922,-1.256790541950517,0.01915538876530387
-54.99024376,-1.257127088434571,0.01915538876530387
-54.97559532,-1.260492553275106,0.01848412532053607
-54.96094687999999,-1.258473274370786,0.01881975704292135
-54.94629844,-1.262511832179427,0.02184044254437506
-54.93165,-0.9145227676680946,0.04667719000078357
-54.91700156,-0.338691733452534,-0.02380547169983518
-54.90235312,-0.3349897221279454,-0.02380547169983518
-54.88770468,-0.3343166291598383,-0.02380547169983518
-54.87305624,-0.3346531756438919,-0.02380547169983518
-54.85840779999999,-0.3359993615801059,-0.02380547169983518
-54.84375936,-0.3336435361917313,-0.02380547169983518
-54.82911092,-0.3366724545482129,-0.02380547169983518
-54.81446248,-0.3430668377452297,-0.02380547169983518
-54.79981404,-0.3383551869684805,-0.02380547169983518
-54.7851656,-0.3400379193887481,-0.02380547169983518
-54.77051716,-0.3397013729046945,-0.02380547169983518
-54.75586872,-0.3383551869684805,-0.02380547169983518
-54.74122028,-0.3370090010322664,-0.02380547169983518
-54.72657184,-0.33734554751632,-0.02380547169983518
-54.7119234,-0.3376820940003735,-0.02380547169983518
-54.69727496,-0.3393648264206403,-0.02380547169983518
-54.68262652,-0.338691733452534,-0.02380547169983518
-54.66797808,-0.3370090010322664,-0.02380547169983518
-54.65332964,-0.3376820940003735,-0.02380547169983518
-54.6386812,-0.3390282799365875,-0.02380547169983518
-54.62403276,-0.33734554751632,-0.02380547169983518
-54.60938432,-0.3370090010322664,-0.02380547169983518
-54.59473587999999,-0.3366724545482143,-0.02380547169983518
-54.58008744,-0.3397013729046945,-0.02380547169983518
-54.565439,-0.33734554751632,-0.02380547169983518
-54.55079056,-0.33734554751632,-0.02380547169983518
-54.53614212,-0.338018640484427,-0.02380547169983518
-54.52149368,-0.338691733452534,-0.02380547169983518
-54.50684524,-0.3366724545482129,-0.02380547169983518
-54.49219679999999,-0.3376820940003735,-0.02380547169983518
-54.47754836,-0.33734554751632,-0.02380547169983518
-54.46289992,-0.3383551869684805,-0.02380547169983518
-54.44825148,-0.3376820940003735,-0.02380547169983518
-54.43360304,-0.3370090010322664,-0.02380547169983518
-54.4189546,-0.338018640484427,-0.02380547169983518
-54.40430616,-0.3376820940003735,-0.02380547169983518
-54.38965772,-0.3370090010322664,-0.02380547169983518
-54.37500928,-0.33734554751632,-0.02380547169983518
-54.36036084,-0.339364826420641,-0.02380547169983518
-54.3457124,-0.3376820940003735,-0.02380547169983518
-54.33106395999999,-0.3366724545482137,-0.02380547169983518
-54.31641552,-0.3383551869684805,-0.02380547169983518
-54.30176708,-0.3383551869684805,-0.02380547169983518
-54.28711864,-0.3363359080641594,-0.02380547169983518
-54.2724702,-0.3363359080641594,-0.02380547169983518
-54.25782176,-0.3390282799365875,-0.02380547169983518
-54.24317332,-0.338018640484427,-0.02380547169983518
-54.22852487999999,-0.33734554751632,-0.02380547169983518
-54.21387644,-0.338018640484427,-0.02380547169983518
-54.199228,-0.338691733452534,-0.02380547169983518
-54.18457956,-0.3370090010322664,-0.02380547169983518
-54.16993112,-0.3370090010322664,-0.02380547169983518
-54.15528268,-0.338018640484427,-0.02380547169983518
-54.14063424,-0.338691733452534,-0.02380547169983518
-54.1259858,-0.33734554751632,-0.02380547169983518
-54.11133736,-0.33734554751632,-0.02380547169983518
-54.09668892,-0.3383551869684805,-0.02380547169983518
-54.08204048,-0.3383551869684805,-0.02380547169983518
-54.06739204,-0.3376820940003738,-0.02380547169983518
-54.0527436,-0.3366724545482129,-0.02380547169983518
-54.03809516,-0.338018640484427,-0.02380547169983518
-54.02344672,-0.338018640484427,-0.02380547169983518
-54.00879828,-0.33734554751632,-0.02380547169983518
-53.99414984,-0.3376820940003735,-0.02380547169983518
-53.9795014,-0.3403744658728016,-0.02380547169983518
-53.96485295999999,-0.3366724545482129,-0.02380547169983518
-53.95020452,-0.3366724545482129,-0.02380547169983518
-53.93555608,-0.3383551869684805,-0.02380547169983518
-53.92090764,-0.338691733452534,-0.02380547169983518
-53.9062592,-0.3370090010322664,-0.02380547169983518
-53.89161076,-0.3363359080641594,-0.02380547169983518
-53.87696232,-0.338691733452534,-0.02380547169983518
-53.86231387999999,-0.3390282799365875,-0.02380547169983518
-53.84766544,-0.3363359080641594,-0.02380547169983518
-53.833017,-0.3370090010322664,-0.02380547169983518
-53.81836856,-0.338018640484427,-0.02380547169983518
-53.80372012,-0.338018640484427,-0.02380547169983518
-53.78907168,-0.3383551869684805,-0.02380547169983518
-53.77442324,-0.3376820940003735,-0.02380547169983518
-53.7597748,-0.3383551869684805,-0.02380547169983518
-53.74512636,-0.3376820940003735,-0.02380547169983518
-53.73047792,-0.3370090010322664,-0.02380547169983518
-53.71582948,-0.3370090010322664,-0.02380547169983518
-53.70118103999999,-0.3393648264206404,-0.02380547169983518
-53.6865326,-0.338018640484427,-0.02380547169983518
-53.67188416,-0.33734554751632,-0.02380547169983518
-53.65723572,-0.3376820940003735,-0.02380547169983518
-53.64258728,-0.3376820940003735,-0.02380547169983518
-53.62793884,-0.33734554751632,-0.02380547169983518
-53.6132904,-0.338018640484427,-0.02380547169983518
-53.59864195999999,-0.338691733452534,-0.02380547169983518
-53.58399352,-0.3359993615801059,-0.02380547169983518
-53.56934508,-0.3383551869684805,-0.02380547169983518
-53.55469664,-0.33734554751632,-0.02380547169983518
-53.5400482,-0.3397013729046945,-0.02380547169983518
-53.52539976,-0.3370090010322664,-0.02380547169983518
-53.51075132,-0.3370090010322664,-0.02380547169983518
-53.49610288,-0.3383551869684805,-0.02380547169983518
-53.48145444,-0.3383551869684805,-0.02380547169983518
-53.466806,-0.3376820940003735,-0.02380547169983518
-53.45215756,-0.33734554751632,-0.02380547169983518
-53.43750912,-0.3370090010322666,-0.02380547169983518
-53.42286068,-0.338691733452534,-0.02380547169983518
-53.40821224,-0.3376820940003735,-0.02380547169983518
-53.3935638,-0.3366724545482129,-0.02380547169983518
-53.37891536,-0.339364826420641,-0.02380547169983518
-53.36426692,-0.338018640484427,-0.02380547169983518
-53.34961848,-0.3376820940003735,-0.02380547169983518
-53.33497003999999,-0.3370090010322675,-0.02380547169983518
-53.3203216,-0.339364826420641,-0.02380547169983518
-53.30567316,-0.33734554751632,-0.02380547169983518
-53.29102472,-0.3370090010322664,-0.02380547169983518
-53.27637628,-0.338018640484427,-0.02380547169983518
-53.26172784,-0.338691733452534,-0.02380547169983518
-53.2470794,-0.3376820940003735,-0.02380547169983518
-53.23243095999999,-0.3370090010322664,-0.02380547169983518
-53.21778252,-0.3383551869684805,-0.02380547169983518
-53.20313408,-0.338018640484427,-0.02380547169983518
-53.18848564,-0.3353262686119989,-0.02380547169983518
