Testing/Satellite beacon testing/Radio_TX_Size_checks/10Ohm resistor - 5dBm power - TX size checks.csv

#Digilent WaveForms Oscilloscope Acquisition
#Device Name: Discovery2
#Serial Number: SN:210321A95EED
#Date Time: 2019-09-11 12:11:38.207
#Sample rate: 68.2667Hz
#Samples: 5410
#Trigger: Source: Channel 1 Type: Edge Condition: Rising Level: 0 V Hyst.: Auto HoldOff: 0 s
#Channel 1: Range: 500 mV/div Offset: 0 V Attenuation: 1 X
#Channel 2: Range: 50 mV/div Offset: 0 V Attenuation: 1 X

Time (s),Channel 1 (V),Channel 2 (V)
-58.59376,-1.087844206955654,0.01747723015338437
-58.57911156,-1.285060446610923,0.02083354737722184
-58.56446312,-1.285396993095066,0.02083354737722336
-58.54981468,-1.285396993095066,0.02083354737722336
-58.53516624,-1.284387353642905,0.02116917909960726
-58.5205178,-1.284723900126959,0.02083354737722336
-58.50586936,-1.284050807158852,0.02083354737722336
-58.49122092,-1.284050807158852,0.02083354737722336
-58.47657247999999,-1.286406632547226,0.02116917909960726
-58.46192404,-1.285060446611012,0.02116917909960726
-58.4472756,-1.285733539579119,0.02083354737722336
-58.43262716,-1.285060446611012,0.02083354737722336
-58.41797872,-1.285733539579119,0.02116917909960726
-58.40333028,-1.285060446611012,0.02083354737722336
-58.38868184,-1.286070086063173,0.02083354737722336
-58.37403339999999,-1.287079725515333,0.02083354737722336
-58.35938496,-1.282368074738584,0.02116917909960726
-58.34473652,-1.285060446611012,0.02083354737722336
-58.33008808,-1.284723900126959,0.02083354737722336
-58.31543964,-1.287416271999387,0.02116917909960726
-58.3007912,-1.285733539579119,0.02116917909960726
-58.28614276,-1.284387353642905,0.02083354737722336
-58.27149432,-1.285733539579119,0.02083354737722336
-58.25684588,-1.286406632547226,0.02116917909960726
-58.24219744,-1.286070086063173,0.02116917909960726
-58.227549,-1.285733539579119,0.02049791565483947
-58.21290056,-1.286743179031279,0.02083354737722321
-58.19825212,-1.287416271999387,0.02116917909960726
-58.18360368,-1.285060446611012,0.02083354737722336
-58.16895524,-1.286406632547226,0.02083354737722336
-58.1543068,-1.286070086063173,0.02083354737722336
-58.13965836,-1.283714260674798,0.02116917909960726
-58.12500992,-1.285733539579119,0.02083354737722336
-58.11036147999999,-1.289099004419654,0.02083354737722336
-58.09571304,-1.286070086063173,0.02116917909960726
-58.0810646,-1.284723900126959,0.02116917909960726
-58.06641616,-1.285396993095066,0.02083354737722336
-58.05176772,-1.286070086063173,0.02083354737722336
-58.03711928,-1.284723900126959,0.02116917909960726
-58.02247084,-1.285733539579119,0.02116917909960726
-58.00782239999999,-1.285396993095066,0.02083354737722336
-57.99317396,-1.284387353642905,0.02083354737722336
-57.97852552,-1.284723900126959,0.02116917909960726
-57.96387708,-1.283377714190745,0.02083354737722336
-57.94922864,-1.284387353642905,0.02083354737722336
-57.9345802,-1.284387353642905,0.02116917909960726
-57.91993176,-1.287416271999387,0.02116917909960726
-57.90528332,-1.285733539579119,0.02083354737722336
-57.89063488,-1.285060446611012,0.02083354737722336
-57.87598644,-1.286406632547226,0.02116917909960726
-57.861338,-1.285733539579119,0.02116917909960726
-57.84668955999999,-1.283714260674798,0.02083354737722336
-57.83204112,-1.283377714190745,0.02083354737722336
-57.81739268,-1.286070086063173,0.02083354737722336
-57.80274424,-1.285396993095066,0.02083354737722336
-57.7880958,-1.284723900126959,0.02083354737722336
-57.77344736,-1.288089364967494,0.02083354737722336
-57.75879892,-1.287416271999387,0.02083354737722336
-57.74415047999999,-1.288425911451548,0.02083354737722336
-57.72950204,-1.295829934100725,0.02083354737722336
-57.7148536,-1.297849213005046,0.02083354737722336
-57.70020516,-1.30020503839342,0.02083354737722336
-57.68555672,-1.290781736839922,0.02083354737722336
-57.67090828,-1.290108643871815,0.02083354737722336
-57.65625984,-1.288089364967494,0.02116917909960726
-57.6416114,-1.288425911451548,0.02116917909960726
-57.62696296,-1.289772097387762,0.02083354737722336
-57.61231452,-1.296839573552885,0.02083354737722336
-57.59766608,-1.29919539894126,0.02083354737722336
-57.58301764,-1.298522305973153,0.02083354737722336
-57.5683692,-1.289772097387762,0.02083354737722336
-57.55372076,-1.289772097387762,0.02083354737722336
-57.53907232,-1.285733539579119,0.02083354737722336
-57.52442388,-1.283714260674798,0.02083354737722336
-57.50977544,-1.285060446611012,0.02083354737722336
-57.495127,-1.286406632547226,0.02083354737722336
-57.48047855999999,-1.284387353642906,0.02083354737722336
-57.46583012,-1.285060446611012,0.02083354737722336
-57.45118168,-1.28674317903128,0.02083354737722336
-57.43653324,-1.286406632547226,0.02116917909960726
-57.4218848,-1.283714260674798,0.02116917909960726
-57.40723636,-1.286406632547226,0.02083354737722336
-57.39258792,-1.284050807158852,0.02083354737722336
-57.37793947999999,-1.284387353642905,0.02083354737722336
-57.36329104,-1.284723900126959,0.02083354737722336
-57.3486426,-1.285060446611012,0.02083354737722336
-57.33399416,-1.285060446611012,0.02083354737722336
-57.31934572,-1.284387353642905,0.02083354737722336
-57.30469728,-1.287416271999387,0.02083354737722336
-57.29004884,-1.284723900126959,0.02083354737722336
-57.2754004,-1.285396993095066,0.02116917909960726
-57.26075196,-1.284387353642905,0.02116917909960726
-57.24610352,-1.282368074738584,0.02083354737722336
-57.23145508,-1.282704621222638,0.02083354737722336
-57.21680663999999,-1.285060446611013,0.02083354737722336
-57.2021582,-1.286406632547226,0.02083354737722336
-57.18750976,-1.285060446611012,0.02083354737722336
-57.17286132,-1.283714260674798,0.02083354737722336
-57.15821288,-1.284387353642905,0.02116917909960726
-57.14356444,-1.283041167706691,0.02116917909960726
-57.128916,-1.284050807158852,0.02083354737722336
-57.11426755999999,-1.286406632547226,0.02116917909960726
-57.09961912,-1.28775281848344,0.02083354737722336
-57.08497068,-1.284387353642905,0.02083354737722336
-57.07032224,-1.284050807158852,0.02083354737722336
-57.0556738,-1.283041167706691,0.02116917909960726
-57.04102536,-1.282368074738584,0.02116917909960726
-57.02637692,-1.284387353642905,0.02083354737722336
-57.01172848,-1.284723900126959,0.02083354737722336
-56.99708004,-1.285396993095066,0.02116917909960726
-56.9824316,-1.285396993095066,0.02083354737722336
-56.96778316,-1.284050807158852,0.02083354737722336
-56.95313472,-1.284723900126959,0.02083354737722336
-56.93848628,-1.282704621222638,0.02083354737722336
-56.92383784,-1.286406632547226,0.02083354737722336
-56.9091894,-1.286406632547226,0.02083354737722336
-56.89454096,-1.287416271999387,0.02116917909960726
-56.87989252,-1.28674317903128,0.02116917909960726
-56.86524408,-1.28674317903128,0.02083354737722336
-56.85059563999999,-1.286070086063174,0.02083354737722352
-56.8359472,-1.288762457935601,0.02116917909960726
-56.82129876,-1.291118283323976,0.02083354737722336
-56.80665032,-1.289099004419654,0.02083354737722336
-56.79200188,-1.291791376292083,0.02083354737722336
-56.77735344,-1.291454829808029,0.02116917909960726
-56.762705,-1.290108643871815,0.02083354737722336
-56.74805655999999,-1.293137562228297,0.02083354737722336
-56.73340812,-1.297849213005046,0.02083354737722336
-56.71875968,-1.297176120036939,0.02083354737722336
-56.70411124,-1.298858852457206,0.02083354737722336
-56.6894628,-1.29347410871235,0.02083354737722336
-56.67481436,-1.293137562228297,0.02116917909960726
-56.66016592,-1.292801015744243,0.02116917909960726
-56.64551748,-1.285396993095066,0.02083354737722336
-56.63086904,-1.286070086063173,0.02083354737722336
-56.6162206,-1.291791376292083,0.02116917909960726
-56.60157216,-1.292801015744243,0.02083354737722336
-56.58692371999999,-1.289772097387761,0.02083354737722336
-56.57227528,-1.28775281848344,0.02083354737722336
-56.55762684,-1.283377714190745,0.02116917909960726
-56.5429784,-1.283714260674798,0.02083354737722336
-56.52832996,-1.284723900126959,0.02083354737722336
-56.51368152,-1.287416271999387,0.02116917909960726
-56.49903308,-1.283041167706691,0.02083354737722336
-56.48438463999999,-1.282368074738584,0.02083354737722336
-56.4697362,-1.286406632547226,0.02083354737722336
-56.45508776,-1.286406632547226,0.02116917909960726
-56.44043932,-1.284387353642905,0.02083354737722336
-56.42579088,-1.284723900126959,0.02049791565483947
-56.41114244,-1.285396993095066,0.02083354737722336
-56.396494,-1.283714260674798,0.02083354737722336
-56.38184556,-1.283041167706691,0.02083354737722336
-56.36719712,-1.285396993095066,0.02083354737722336
-56.35254868,-1.285060446611012,0.02083354737722336
-56.33790024,-1.284387353642905,0.02083354737722336
-56.3232518,-1.286070086063172,0.02083354737722336
-56.30860336,-1.286406632547226,0.02083354737722336
-56.29395492,-1.284723900126959,0.02116917909960726
-56.27930648,-1.284387353642905,0.02083354737722336
-56.26465804,-1.283714260674798,0.02083354737722336
-56.2500096,-1.282704621222638,0.02083354737722336
-56.23536116,-1.283041167706691,0.02116917909960726
-56.22071271999999,-1.285733539579119,0.02083354737722336
-56.20606428,-1.284387353642905,0.02083354737722336
-56.19141584,-1.284387353642905,0.02083354737722336
-56.1767674,-1.284723900126959,0.02083354737722336
-56.16211896,-1.284723900126959,0.02083354737722336
-56.14747052,-1.286406632547226,0.02083354737722336
-56.13282208,-1.287416271999387,0.02083354737722336
-56.11817363999999,-1.287079725515333,0.02083354737722336
-56.1035252,-1.291118283323976,0.02083354737722336
-56.08887676,-1.288089364967494,0.02083354737722336
-56.07422832,-1.28674317903128,0.02116917909960726
-56.05957988,-1.286406632547226,0.02016228393245557
-56.04493144,-0.8398094482082148,-0.01239399313878262
-56.030283,-0.7058639475549167,-0.02145604964314789
-56.01563456,-0.7031715756824886,-0.02145604964314789
-56.00098612,-0.702161936230328,-0.02145604964314789
-55.98633768,-0.7038446686505956,-0.02145604964314789
-55.97168924,-0.702161936230328,-0.02145604964314789
-55.9570408,-0.7051908545868083,-0.02145604964314789
-55.94239236,-1.200250732629527,0.01579907154146488
-55.92774392,-1.262848378663481,0.02016228393245557
-55.91309548,-1.264194564599695,0.01982665221007167
-55.89844704,-1.263521471631587,0.02016228393245557
-55.8837986,-1.260829099759159,0.01982665221007167
-55.86915016,-1.264867657567802,0.02016228393245557
-55.85450171999999,-1.266550389988069,0.01982665221007167
-55.83985328,-1.264194564599695,0.02016228393245557
-55.82520484,-1.264194564599695,0.01982665221007167
-55.8105564,-1.264194564599695,0.02016228393245557
-55.79590796,-1.265204204051855,0.02016228393245557
-55.78125952,-1.26183873921132,0.01982665221007167
-55.76661108,-1.264194564599695,0.02016228393245557
-55.75196264,-1.265540750535909,0.01982665221007167
-55.7373142,-1.26856966889239,0.02016228393245557
-55.72266576,-1.272608226701032,0.01982665221007167
-55.70801732,-1.2742909591213,0.02016228393245557
-55.69336888,-1.269242761860499,0.01982665221007182
-55.67872044,-1.263858018115641,0.02016228393245557
-55.664072,-1.265877297019962,0.01982665221007167
-55.64942356,-1.264531111083748,0.02016228393245557
-55.63477512,-1.264531111083748,0.01982665221007167
-55.62012668,-1.269915854828604,0.01982665221007167
-55.60547824,-1.273617866153193,0.01982665221007167
-55.59082979999999,-1.271262040764816,0.01982665221007182
-55.57618136,-1.265540750535909,0.02016228393245557
-55.56153292,-1.262511832179427,0.01982665221007167
-55.54688448,-1.263521471631587,0.02016228393245557
-55.53223604,-1.262848378663481,0.01982665221007167
-55.5175876,-1.265204204051855,0.02016228393245557
-55.50293916,-1.263521471631587,0.01982665221007167
-55.48829071999999,-1.262848378663481,0.02016228393245557
-55.47364228,-1.264531111083748,0.01982665221007167
-55.45899384,-1.262511832179427,0.02016228393245557
-55.4443454,-1.262511832179427,0.01982665221007167
-55.42969696,-1.26183873921132,0.02016228393245557
-55.41504852,-1.263184925147534,0.02016228393245557
-55.40040008,-1.264531111083748,0.01982665221007167
-55.38575164,-1.263184925147534,0.02016228393245557
-55.3711032,-1.262511832179427,0.01982665221007167
-55.35645476,-1.261502192727266,0.02016228393245557
-55.34180632,-1.263858018115641,0.01982665221007167
-55.32715788,-1.262848378663481,0.02016228393245541
-55.31250944,-1.264194564599695,0.01982665221007167
-55.297861,-1.264531111083748,0.02016228393245557
-55.28321256,-1.262848378663481,0.01982665221007167
-55.26856412,-1.262848378663481,0.02016228393245557
-55.25391568,-1.262511832179427,0.01982665221007167
-55.23926724,-1.261165646243213,0.02016228393245557
-55.22461879999999,-1.263858018115641,0.01982665221007167
-55.20997036,-1.264867657567802,0.02016228393245557
-55.19532192,-1.263521471631587,0.02016228393245557
-55.18067348,-1.263858018115641,0.01982665221007167
-55.16602504,-1.262511832179427,0.02016228393245557
-55.1513766,-1.264531111083748,0.01982665221007167
-55.13672816,-1.264531111083748,0.02016228393245557
-55.12207972,-1.263521471631587,0.01982665221007167
-55.10743128,-1.264531111083748,0.02016228393245557
-55.09278284,-1.265204204051855,0.01982665221007167
-55.0781344,-1.263858018115641,0.02016228393245557
-55.06348596,-1.260492553275106,0.01982665221007167
-55.04883752,-1.260829099759159,0.02016228393245557
-55.03418908,-1.264194564599695,0.02016228393245557
-55.01954064,-1.265204204051855,0.02016228393245557
-55.0048922,-1.264531111083748,0.02016228393245557
-54.99024376,-1.264531111083748,0.02016228393245557
-54.97559532,-1.270588947796711,0.02016228393245557
-54.96094687999999,-1.272608226701031,0.01982665221007182
-54.94629844,-1.269242761860497,0.02016228393245557
-54.93165,-1.272608226701032,0.01982665221007167
-54.91700156,-1.270588947796711,0.02016228393245557
-54.90235312,-1.274964052089407,0.01982665221007167
-54.88770468,-1.272944773185086,0.02016228393245557
-54.87305624,-1.277656423961835,0.01982665221007167
-54.85840779999999,-1.275973691541567,0.02016228393245557
-54.84375936,-1.269915854828604,0.01982665221007167
-54.82911092,-1.269915854828604,0.02016228393245557
-54.81446248,-1.269915854828604,0.02016228393245557
-54.79981404,-1.269579308344551,0.01982665221007167
-54.7851656,-1.271935133732925,0.02016228393245557
-54.77051716,-1.273281319669139,0.01982665221007167
-54.75586872,-1.272944773185086,0.02016228393245557
-54.74122028,-1.273281319669139,0.01982665221007167
-54.72657184,-1.28001224935021,0.02016228393245557
-54.7119234,-1.277319877477781,0.01982665221007167
-54.69727496,-1.276310238025621,0.02016228393245541
-54.68262652,-1.268233122408337,0.01982665221007167
-54.66797808,-1.269579308344551,0.02016228393245557
-54.65332964,-1.266550389988069,0.07319209606911159
-54.6386812,-1.26756002944023,0.01848412532053607
-54.62403276,-1.270588947796711,0.01848412532053607
-54.60938432,-1.275973691541567,0.01848412532053607
-54.59473587999999,-1.275973691541566,0.01848412532053592
-54.58008744,-1.273281319669139,0.01814849359815217
-54.565439,-1.267896575924283,0.01848412532053607
-54.55079056,-1.270252401312658,0.01210712259524199
-54.53614212,-1.041737338640323,0.06110935406329123
-54.52149368,-0.3383551869684805,-0.02380547169983518
-54.50684524,-0.3376820940003735,-0.02380547169983518
-54.49219679999999,-0.3349897221279454,-0.02380547169983518
-54.47754836,-0.3403744658728016,-0.02380547169983518
-54.46289992,-0.3343166291598383,-0.02380547169983518
-54.44825148,-0.3356628150960524,-0.02380547169983518
-54.43360304,-0.3366724545482129,-0.02380547169983518
-54.4189546,-0.3447495701654972,-0.02380547169983518
-54.40430616,-0.3390282799365875,-0.02380547169983518
-54.38965772,-0.338691733452534,-0.02380547169983518
-54.37500928,-0.3423937447771226,-0.02380547169983518
-54.36036084,-0.3397013729046945,-0.02380547169983518
-54.3457124,-0.3420571982930691,-0.02380547169983518
-54.33106395999999,-0.3386917334525334,-0.02380547169983518
-54.31641552,-0.33734554751632,-0.02380547169983518
-54.30176708,-0.3427302912611762,-0.02380547169983518
-54.28711864,-0.3413841053249621,-0.02380547169983518
-54.2724702,-0.338691733452534,-0.02380547169983518
-54.25782176,-0.33734554751632,-0.02380547169983518
-54.24317332,-0.3397013729046945,-0.02380547169983518
-54.22852487999999,-0.338691733452534,-0.02380547169983518
-54.21387644,-0.338691733452534,-0.02380547169983518
-54.199228,-0.338018640484427,-0.02380547169983518
-54.18457956,-0.3383551869684805,-0.02380547169983518
-54.16993112,-0.338691733452534,-0.02380547169983518
-54.15528268,-0.3370090010322664,-0.02380547169983518
-54.14063424,-0.3383551869684805,-0.02380547169983518
-54.1259858,-0.3410475588409086,-0.02380547169983518
-54.11133736,-0.339364826420641,-0.02380547169983518
-54.09668892,-0.3376820940003735,-0.02380547169983518
-54.08204048,-0.3376820940003735,-0.02380547169983518
-54.06739204,-0.3407110123568537,-0.02380547169983518
-54.0527436,-0.33734554751632,-0.02380547169983518
-54.03809516,-0.338018640484427,-0.02380547169983518
-54.02344672,-0.3407110123568551,-0.02380547169983518
-54.00879828,-0.3390282799365875,-0.02380547169983518
-53.99414984,-0.33734554751632,-0.02380547169983518
-53.9795014,-0.3383551869684805,-0.02380547169983518
-53.96485295999999,-0.3397013729046944,-0.02380547169983518
-53.95020452,-0.339364826420641,-0.02380547169983518
-53.93555608,-0.338018640484427,-0.02380547169983518
-53.92090764,-0.338018640484427,-0.02380547169983518
-53.9062592,-0.3403744658728016,-0.02380547169983518
-53.89161076,-0.338691733452534,-0.02380547169983518
-53.87696232,-0.3366724545482129,-0.02380547169983518
-53.86231387999999,-0.3390282799365875,-0.02380547169983518
-53.84766544,-0.3397013729046945,-0.02380547169983518
-53.833017,-0.338018640484427,-0.02380547169983518
-53.81836856,-0.3366724545482129,-0.02380547169983518
-53.80372012,-0.339364826420641,-0.02380547169983518
-53.78907168,-0.3403744658728016,-0.02380547169983518
-53.77442324,-0.3366724545482129,-0.02380547169983518
-53.7597748,-0.339364826420641,-0.02380547169983518
-53.74512636,-0.3407110123568551,-0.02380547169983518
-53.73047792,-0.3366724545482129,-0.02414110342221908
-53.71582948,-0.3390282799365875,-0.02414110342221908
-53.70118103999999,-0.3430668377452291,-0.02380547169983518
-53.6865326,-0.3417206518090156,-0.02380547169983518
-53.67188416,-0.3370090010322664,-0.02380547169983518
-53.65723572,-0.3370090010322664,-0.02380547169983518
-53.64258728,-0.338691733452534,-0.02380547169983518
-53.62793884,-0.3376820940003735,-0.02380547169983518
-53.6132904,-0.3383551869684805,-0.02414110342221908
-53.59864195999999,-0.3400379193887481,-0.02414110342221908
-53.58399352,-0.3413841053249621,-0.02380547169983518
-53.56934508,-0.3390282799365875,-0.02380547169983518
-53.55469664,-0.339364826420641,-0.02380547169983518
-53.5400482,-0.3390282799365875,-0.02380547169983518
-53.52539976,-0.3376820940003735,-0.02380547169983518
-53.51075132,-0.339364826420641,-0.02380547169983518
-53.49610288,-0.3397013729046945,-0.02380547169983518
-53.48145444,-0.3370090010322664,-0.02380547169983518
-53.466806,-0.3390282799365875,-0.02380547169983518
-53.45215756,-0.338691733452534,-0.02380547169983518
-53.43750912,-0.3410475588409075,-0.02380547169983518
-53.42286068,-0.3366724545482129,-0.02380547169983518
-53.40821224,-0.338018640484427,-0.02380547169983518
-53.3935638,-0.3403744658728016,-0.02380547169983518
-53.37891536,-0.338691733452534,-0.02380547169983518
-53.36426692,-0.338018640484427,-0.02380547169983518
-53.34961848,-0.338691733452534,-0.02380547169983518
-53.33497003999999,-0.3376820940003738,-0.02380547169983518
-53.3203216,-0.3383551869684805,-0.02380547169983518
-53.30567316,-0.3407110123568551,-0.02380547169983518
-53.29102472,-0.339364826420641,-0.02380547169983518
-53.27637628,-0.3359993615801059,-0.02380547169983518
-53.26172784,-0.3390282799365875,-0.02380547169983518
-53.2470794,-0.3407110123568551,-0.02380547169983518
-53.23243095999999,-0.3376820940003735,-0.02380547169983518
-53.21778252,-0.3370090010322664,-0.02380547169983518
-53.20313408,-0.3400379193887481,-0.02380547169983518
-53.18848564,-0.3407110123568551,-0.02380547169983518
-53.1738372,-0.3370090010322664,-0.02380547169983518
