Testing/Satellite beacon testing/Radio_TX_Size_checks/1Ohm resistor - 15dBm power - TX size checks.csv

#Digilent WaveForms Oscilloscope Acquisition
#Device Name: Discovery2
#Serial Number: SN:210321A95EED
#Date Time: 2019-09-11 12:02:35.990
#Sample rate: 68.2667Hz
#Samples: 5241
#Trigger: Source: Channel 1 Type: Edge Condition: Rising Level: 0 V Hyst.: Auto HoldOff: 0 s
#Channel 1: Range: 500 mV/div Offset: 0 V Attenuation: 1 X
#Channel 2: Range: 20 mV/div Offset: 0 V Attenuation: 1 X

Time (s),Channel 1 (V),Channel 2 (V)
-58.59376,-0.3817696834113837,0.000360012311805533
-58.57911156,-1.286070086062762,0.002709434368491756
-58.56446312,-1.288089364967494,0.002709434368492825
-58.54981468,-1.287079725515333,0.002709434368492825
-58.53516624,-1.285733539579119,0.002709434368492825
-58.5205178,-1.288425911451548,0.002709434368492825
-58.50586936,-1.288762457935601,0.002709434368492825
-58.49122092,-1.288762457935601,0.002709434368492825
-58.47657247999999,-1.289099004419655,0.002709434368492825
-58.46192404,-1.290108643871815,0.002709434368492825
-58.4472756,-1.288762457935601,0.002709434368492825
-58.43262716,-1.289099004419654,0.002709434368492825
-58.41797872,-1.291118283323976,0.002709434368492825
-58.40333028,-1.289435550903708,0.002709434368492825
-58.38868184,-1.286070086063173,0.002709434368492825
-58.37403339999999,-1.28775281848344,0.002709434368492825
-58.35938496,-1.289099004419654,0.002709434368492825
-58.34473652,-1.289772097387762,0.002709434368492825
-58.33008808,-1.288762457935601,0.002709434368492825
-58.31543964,-1.288089364967494,0.002709434368492825
-58.3007912,-1.289435550903708,0.002709434368492825
-58.28614276,-1.288762457935601,0.002709434368492825
-58.27149432,-1.289772097387762,0.002709434368492825
-58.25684588,-1.295829934100725,0.002709434368492825
-58.24219744,-1.295493387616671,0.002709434368492825
-58.227549,-1.292127922776136,0.002709434368492825
-58.21290056,-1.286406632547229,0.002709434368492825
-58.19825212,-1.285733539579119,0.002709434368492825
-58.18360368,-1.287416271999387,0.002709434368492825
-58.16895524,-1.288425911451548,0.002709434368492825
-58.1543068,-1.293810655196404,0.002709434368492825
-58.13965836,-1.294147201680457,0.002709434368492825
-58.12500992,-1.29347410871235,0.002709434368492825
-58.11036147999999,-1.287416271999387,0.002709434368492825
-58.09571304,-1.285733539579119,0.002709434368492825
-58.0810646,-1.286070086063173,0.002709434368492825
-58.06641616,-1.284723900126959,0.002709434368492825
-58.05176772,-1.284387353642905,0.002709434368492825
-58.03711928,-1.286070086063173,0.002709434368492825
-58.02247084,-1.285396993095066,0.003045066090876724
-58.00782239999999,-1.285396993095066,0.002709434368492825
-57.99317396,-1.283377714190745,0.002709434368492825
-57.97852552,-1.284050807158852,0.003045066090876724
-57.96387708,-1.283714260674798,0.003045066090876724
-57.94922864,-1.283377714190745,0.003045066090876724
-57.9345802,-1.285060446611012,0.003045066090876724
-57.91993176,-1.287416271999387,0.003045066090876724
-57.90528332,-1.285733539579119,0.003045066090876724
-57.89063488,-1.283041167706691,0.002709434368492825
-57.87598644,-1.28674317903128,0.003045066090876724
-57.861338,-1.284387353642905,0.002709434368492825
-57.84668955999999,-1.285060446611012,0.002709434368492825
-57.83204112,-1.285060446611012,0.002709434368492825
-57.81739268,-1.287079725515333,0.002709434368492825
-57.80274424,-1.28674317903128,0.002709434368492825
-57.7880958,-1.285060446611012,0.002709434368492825
-57.77344736,-1.284050807158852,0.002709434368492825
-57.75879892,-1.282704621222638,0.003045066090876724
-57.74415047999999,-1.285060446611012,0.002709434368492825
-57.72950204,-1.286406632547226,0.002709434368492825
-57.7148536,-1.284723900126959,0.002709434368492825
-57.70020516,-1.285733539579119,0.002709434368492825
-57.68555672,-1.285060446611012,0.002709434368492825
-57.67090828,-1.285396993095066,0.002709434368492825
-57.65625984,-1.28674317903128,0.002709434368492825
-57.6416114,-1.284050807158852,0.002709434368492825
-57.62696296,-1.284050807158852,0.002709434368492825
-57.61231452,-1.284050807158852,0.002709434368492825
-57.59766608,-1.286070086063173,0.002709434368492825
-57.58301764,-1.285396993095066,0.003045066090876571
-57.5683692,-1.286406632547226,0.002709434368492825
-57.55372076,-1.28674317903128,0.002709434368492825
-57.53907232,-1.284723900126959,0.002709434368492825
-57.52442388,-1.284387353642905,0.002709434368492825
-57.50977544,-1.282704621222638,0.002709434368492825
-57.495127,-1.286070086063173,0.002709434368492825
-57.48047855999999,-1.285060446611012,0.002709434368492825
-57.46583012,-1.285060446611012,0.002709434368492825
-57.45118168,-1.286070086063173,0.002709434368492825
-57.43653324,-1.285733539579119,0.002709434368492825
-57.4218848,-1.287079725515333,0.002709434368492825
-57.40723636,-1.285396993095066,0.002709434368492825
-57.39258792,-1.285060446611012,0.002709434368492825
-57.37793947999999,-1.28775281848344,0.002709434368492825
-57.36329104,-1.284723900126959,0.002709434368492825
-57.3486426,-1.284050807158852,0.002709434368492825
-57.33399416,-1.283041167706691,0.002709434368492825
-57.31934572,-1.284387353642905,0.002709434368492825
-57.30469728,-1.284387353642905,0.002709434368492825
-57.29004884,-1.285060446611012,0.002709434368492825
-57.2754004,-1.287079725515333,0.002709434368492825
-57.26075196,-1.291454829808029,0.002709434368492825
-57.24610352,-1.292801015744243,0.002709434368492825
-57.23145508,-1.293810655196404,0.002709434368492825
-57.21680663999999,-1.288089364967494,0.003045066090876724
-57.2021582,-1.28775281848344,0.003045066090876724
-57.18750976,-1.284387353642905,0.002709434368492825
-57.17286132,-1.286406632547226,0.002709434368492825
-57.15821288,-1.290781736839922,0.002709434368492825
-57.14356444,-1.292801015744243,0.002709434368492825
-57.128916,-1.291791376292083,0.002709434368492825
-57.11426755999999,-1.296503027068832,0.002709434368492825
-57.09961912,-1.295829934100725,0.002709434368492825
-57.08497068,-1.293137562228297,0.002709434368492825
-57.07032224,-1.292127922776136,0.002709434368492825
-57.0556738,-1.29246446926019,0.002709434368492825
-57.04102536,-1.296166480584778,0.002709434368492825
-57.02637692,-1.296839573552885,0.002709434368492825
-57.01172848,-1.294147201680457,0.002709434368492825
-56.99708004,-1.294483748164511,0.002709434368492825
-56.9824316,-1.294147201680457,0.002709434368492825
-56.96778316,-1.294147201680457,0.002709434368492825
-56.95313472,-1.269579308344562,0.002709434368492825
-56.93848628,-0.6934117276449366,-0.001318146300113961
-56.92383784,-0.6782671358625285,-0.001318146300113961
-56.9091894,-0.6749016710219934,-0.001318146300113961
-56.89454096,-0.6779305893784751,-0.001318146300113961
-56.87989252,-0.6786036823465821,-0.001318146300113961
-56.86524408,-0.6762478569582074,-0.001318146300113961
-56.85059563999999,-0.7603844779718119,-0.0006468828553446373
-56.8359472,-1.257800181402678,0.002709434368492825
-56.82129876,-1.262511832179427,0.002709434368492825
-56.80665032,-1.26183873921132,0.002709434368492825
-56.79200188,-1.266213843504016,0.002709434368492825
-56.77735344,-1.265540750535909,0.002709434368492825
-56.762705,-1.264531111083748,0.002709434368492825
-56.74805655999999,-1.264531111083748,0.002709434368492825
-56.73340812,-1.264867657567802,0.002709434368492825
-56.71875968,-1.262511832179427,0.002709434368492825
-56.70411124,-1.260492553275106,0.002709434368492825
-56.6894628,-1.265877297019962,0.002709434368492825
-56.67481436,-1.265877297019962,0.002709434368492825
-56.66016592,-1.264194564599695,0.002709434368492825
-56.64551748,-1.263521471631587,0.002709434368492825
-56.63086904,-1.264867657567802,0.002709434368492825
-56.6162206,-1.263521471631587,0.002709434368492825
-56.60157216,-1.263858018115641,0.003045066090876724
-56.58692371999999,-1.263858018115642,0.002709434368492825
-56.57227528,-1.266550389988069,0.002709434368492825
-56.55762684,-1.264867657567802,0.002709434368492825
-56.5429784,-1.263184925147534,0.002709434368492825
-56.52832996,-1.263858018115641,0.002709434368492825
-56.51368152,-1.262511832179427,0.002709434368492825
-56.49903308,-1.263521471631587,0.002709434368492825
-56.48438463999999,-1.263521471631587,0.002709434368492825
-56.4697362,-1.264531111083748,0.002709434368492825
-56.45508776,-1.265204204051855,0.002709434368492825
-56.44043932,-1.263858018115641,0.002709434368492825
-56.42579088,-1.265204204051855,0.002709434368492825
-56.41114244,-1.262848378663481,0.002709434368492825
-56.396494,-1.264531111083748,0.002709434368492825
-56.38184556,-1.264194564599695,0.002709434368492825
-56.36719712,-1.263184925147534,0.002709434368492825
-56.35254868,-1.26183873921132,0.002709434368492825
-56.33790024,-1.263184925147534,0.002709434368492825
-56.3232518,-1.265540750535908,0.002709434368492825
-56.30860336,-1.263858018115641,0.002709434368492825
-56.29395492,-1.264194564599695,0.002709434368492825
-56.27930648,-1.265540750535909,0.002709434368492825
-56.26465804,-1.269915854828604,0.002709434368492825
-56.2500096,-1.2742909591213,0.002709434368492825
-56.23536116,-1.273954412637246,0.002709434368492825
-56.22071271999999,-1.269242761860495,0.002709434368492825
-56.20606428,-1.264194564599695,0.002709434368492825
-56.19141584,-1.262848378663481,0.002709434368492825
-56.1767674,-1.263858018115641,0.002709434368492825
-56.16211896,-1.26756002944023,0.002709434368492825
-56.14747052,-1.270588947796711,0.002709434368492825
-56.13282208,-1.271935133732925,0.002709434368492825
-56.11817363999999,-1.2742909591213,0.002709434368492825
-56.1035252,-1.265540750535909,0.002709434368492825
-56.08887676,-1.263521471631587,0.002709434368492825
-56.07422832,-1.263184925147534,0.002709434368492825
-56.05957988,-1.26183873921132,0.002709434368492825
-56.04493144,-1.263184925147534,0.002709434368492825
-56.030283,-1.262175285695373,0.002709434368492825
-56.01563456,-1.264531111083748,0.002709434368492825
-56.00098612,-1.264194564599695,0.002709434368492825
-55.98633768,-1.263184925147534,0.002709434368492825
-55.97168924,-1.263184925147534,0.002709434368492825
-55.9570408,-1.258473274370787,0.002709434368492825
-55.94239236,-1.264531111083748,0.002709434368492825
-55.92774392,-1.263858018115641,0.002709434368492825
-55.91309548,-1.263521471631587,0.002709434368492825
-55.89844704,-1.264531111083748,0.002709434368492825
-55.8837986,-1.264194564599695,0.002709434368492825
-55.86915016,-1.263858018115641,0.002709434368492825
-55.85450171999999,-1.263184925147534,0.002709434368492825
-55.83985328,-1.262848378663481,0.002709434368492825
-55.82520484,-1.265540750535909,0.002709434368492825
-55.8105564,-1.263521471631587,0.002709434368492825
-55.79590796,-1.263184925147534,0.002709434368492825
-55.78125952,-1.263521471631587,0.002709434368492825
-55.76661108,-1.263521471631587,0.002709434368492825
-55.75196264,-1.264531111083748,0.002709434368492825
-55.7373142,-1.264531111083748,0.002709434368492825
-55.72266576,-1.261502192727266,0.002709434368492825
-55.70801732,-1.263521471631587,0.002709434368492825
-55.69336888,-1.264194564599694,0.002709434368492825
-55.67872044,-1.262848378663481,0.002709434368492825
-55.664072,-1.262511832179427,0.002709434368492825
-55.64942356,-1.263521471631587,0.002709434368492825
-55.63477512,-1.263521471631587,0.002709434368492825
-55.62012668,-1.263184925147534,0.002709434368492825
-55.60547824,-1.264194564599695,0.002709434368492825
-55.59082979999999,-1.262175285695374,0.002709434368492825
-55.57618136,-1.263184925147534,0.002709434368492825
-55.56153292,-1.263858018115641,0.002709434368492825
-55.54688448,-1.263184925147534,0.008079541926635207
-55.53223604,-1.263184925147534,0.002709434368492825
-55.5175876,-1.264867657567802,0.002709434368492825
-55.50293916,-1.265204204051855,0.002709434368492825
-55.48829071999999,-1.262511832179427,0.002709434368492825
-55.47364228,-1.263858018115641,0.002709434368492825
-55.45899384,-1.265877297019962,0.002709434368492825
-55.4443454,-1.268906215376444,0.00438759298041232
-55.42969696,-0.8105299040955591,0.003380697813260623
-55.41504852,-0.3151334795687881,-0.001318146300113961
-55.40040008,-0.31244110769636,-0.001318146300113961
-55.38575164,-0.3141238401166276,-0.001318146300113961
-55.3711032,-0.3137872936325741,-0.001318146300113961
-55.35645476,-0.3121045612123065,-0.001318146300113961
-55.34180632,-0.3134507471485206,-0.001318146300113961
-55.32715788,-0.3161431190209474,-0.001318146300113961
-55.31250944,-0.3218644092498584,-0.001318146300113961
-55.297861,-0.3151334795687881,-0.001318146300113961
-55.28321256,-0.3178258514412162,-0.001318146300113961
-55.26856412,-0.3164796655050022,-0.001318146300113961
-55.25391568,-0.3174893049571627,-0.001318146300113961
-55.23926724,-0.3151334795687881,-0.001318146300113961
-55.22461879999999,-0.3158065725368951,-0.001318146300113961
-55.20997036,-0.3171527584731092,-0.001318146300113961
-55.19532192,-0.3161431190209487,-0.001318146300113961
-55.18067348,-0.3151334795687881,-0.001318146300113961
-55.16602504,-0.3147969330847346,-0.001318146300113961
-55.1513766,-0.3184989444093232,-0.001318146300113961
-55.13672816,-0.3164796655050022,-0.001318146300113961
-55.12207972,-0.3161431190209487,-0.001318146300113961
-55.10743128,-0.3141238401166276,-0.001318146300113961
-55.09278284,-0.3188354908933768,-0.001318146300113961
-55.0781344,-0.3178258514412162,-0.001318146300113961
-55.06348596,-0.3158065725368951,-0.001318146300113961
-55.04883752,-0.3181623979252697,-0.001318146300113961
-55.03418908,-0.3174893049571627,-0.001318146300113961
-55.01954064,-0.3151334795687881,-0.001318146300113961
-55.0048922,-0.3164796655050022,-0.001318146300113961
-54.99024376,-0.3168162119890557,-0.001318146300113961
-54.97559532,-0.3195085838614838,-0.001318146300113961
-54.96094687999999,-0.316479665505001,-0.001318146300113961
-54.94629844,-0.3137872936325741,-0.001318146300113961
-54.93165,-0.3181623979252697,-0.001318146300113961
-54.91700156,-0.3171527584731092,-0.001318146300113961
-54.90235312,-0.3151334795687881,-0.001318146300113961
-54.88770468,-0.3178258514412162,-0.001318146300113961
-54.87305624,-0.3164796655050022,-0.001318146300113961
-54.85840779999999,-0.3171527584731092,-0.001318146300113961
-54.84375936,-0.3158065725368951,-0.001318146300113961
-54.82911092,-0.3144603866006811,-0.001318146300113961
-54.81446248,-0.3181623979252697,-0.001318146300113961
-54.79981404,-0.3164796655050022,-0.001318146300113961
-54.7851656,-0.3151334795687881,-0.001318146300113961
-54.77051716,-0.3164796655050022,-0.001318146300113961
-54.75586872,-0.3184989444093232,-0.001318146300113961
-54.74122028,-0.3141238401166276,-0.001318146300113961
-54.72657184,-0.3147969330847346,-0.001318146300113961
-54.7119234,-0.3174893049571627,-0.001318146300113961
-54.69727496,-0.3161431190209493,-0.001318146300113961
-54.68262652,-0.3144603866006811,-0.001318146300113961
-54.66797808,-0.3161431190209487,-0.001318146300113961
-54.65332964,-0.3168162119890557,-0.001318146300113961
-54.6386812,-0.3134507471485206,-0.001318146300113961
-54.62403276,-0.3168162119890557,-0.001318146300113961
-54.60938432,-0.3151334795687881,-0.001318146300113961
-54.59473587999999,-0.3184989444093214,-0.001318146300113961
-54.58008744,-0.3144603866006811,-0.001318146300113961
-54.565439,-0.3144603866006811,-0.001318146300113961
-54.55079056,-0.3161431190209487,-0.001318146300113961
-54.53614212,-0.3171527584731092,-0.001318146300113961
-54.52149368,-0.3154700260528416,-0.001318146300113961
-54.50684524,-0.3141238401166276,-0.001318146300113961
-54.49219679999999,-0.3161431190209487,-0.001318146300113961
-54.47754836,-0.3151334795687881,-0.001318146300113961
-54.46289992,-0.3171527584731092,-0.001318146300113961
-54.44825148,-0.3151334795687881,-0.001318146300113961
-54.43360304,-0.3161431190209487,-0.001318146300113961
-54.4189546,-0.3171527584731092,-0.001318146300113961
-54.40430616,-0.3141238401166276,-0.001318146300113961
-54.38965772,-0.3171527584731092,-0.001318146300113961
-54.37500928,-0.3141238401166276,-0.001318146300113961
-54.36036084,-0.3158065725368951,-0.001318146300113961
-54.3457124,-0.3158065725368951,-0.001318146300113961
-54.33106395999999,-0.3161431190209493,-0.001318146300113961
-54.31641552,-0.3174893049571627,-0.001318146300113961
-54.30176708,-0.3154700260528416,-0.001318146300113961
-54.28711864,-0.3137872936325741,-0.001318146300113961
-54.2724702,-0.3154700260528416,-0.001318146300113961
-54.25782176,-0.3161431190209487,-0.001318146300113961
-54.24317332,-0.3164796655050022,-0.001318146300113961
-54.22852487999999,-0.3161431190209487,-0.001318146300113961
-54.21387644,-0.3191720373774303,-0.001318146300113961
-54.199228,-0.3164796655050022,-0.001318146300113961
-54.18457956,-0.3151334795687881,-0.001318146300113961
-54.16993112,-0.3161431190209487,-0.001318146300113961
-54.15528268,-0.3147969330847346,-0.001318146300113961
-54.14063424,-0.3158065725368951,-0.001318146300113961
-54.1259858,-0.3154700260528416,-0.001318146300113961
-54.11133736,-0.3205182233136443,-0.001318146300113961
-54.09668892,-0.3174893049571627,-0.001318146300113961
-54.08204048,-0.3154700260528416,-0.001318146300113961
-54.06739204,-0.3154700260528416,-0.001318146300113961
-54.0527436,-0.3154700260528416,-0.001318146300113961
-54.03809516,-0.3171527584731092,-0.001318146300113961
-54.02344672,-0.3154700260528416,-0.001318146300113961
-54.00879828,-0.3137872936325741,-0.001318146300113961
-53.99414984,-0.3171527584731092,-0.001318146300113961
-53.9795014,-0.3154700260528416,-0.001318146300113961
-53.96485295999999,-0.3178258514412147,-0.001318146300113961
-53.95020452,-0.3144603866006811,-0.001318146300113961
-53.93555608,-0.3171527584731092,-0.001318146300113961
-53.92090764,-0.3168162119890557,-0.001318146300113961
-53.9062592,-0.3137872936325741,-0.001318146300113961
-53.89161076,-0.3164796655050022,-0.001318146300113961
-53.87696232,-0.3174893049571627,-0.001318146300113961
-53.86231387999999,-0.3144603866006811,-0.001318146300113961
-53.84766544,-0.3141238401166276,-0.001318146300113961
-53.833017,-0.3174893049571627,-0.001318146300113961
-53.81836856,-0.3174893049571627,-0.001318146300113961
-53.80372012,-0.3158065725368951,-0.001318146300113961
-53.78907168,-0.3137872936325741,-0.001318146300113961
-53.77442324,-0.3174893049571627,-0.001318146300113961
-53.7597748,-0.3178258514412162,-0.001318146300113961
-53.74512636,-0.3151334795687881,-0.001318146300113961
-53.73047792,-0.3147969330847346,-0.001318146300113961
-53.71582948,-0.3181623979252697,-0.001318146300113961
-53.70118103999999,-0.3144603866006811,-0.001318146300113961
-53.6865326,-0.3144603866006811,-0.001318146300113961
-53.67188416,-0.3161431190209487,-0.001318146300113961
-53.65723572,-0.3181623979252697,-0.001318146300113961
-53.64258728,-0.3154700260528416,-0.001318146300113961
-53.62793884,-0.3137872936325741,-0.001318146300113961
-53.6132904,-0.3168162119890557,-0.001318146300113961
-53.59864195999999,-0.3168162119890557,-0.001318146300113961
-53.58399352,-0.3151334795687881,-0.001318146300113961
-53.56934508,-0.3168162119890557,-0.001318146300113961
-53.55469664,-0.3161431190209487,-0.001318146300113961
-53.5400482,-0.3161431190209487,-0.001318146300113961
-53.52539976,-0.3137872936325741,-0.001318146300113961
-53.51075132,-0.3161431190209487,-0.001318146300113961
-53.49610288,-0.3174893049571627,-0.001318146300113961
-53.48145444,-0.3154700260528416,-0.001318146300113961
-53.466806,-0.3141238401166276,-0.001318146300113961
-53.45215756,-0.3161431190209487,-0.001318146300113961
-53.43750912,-0.3178258514412154,-0.001318146300113961
-53.42286068,-0.3161431190209487,-0.001318146300113961
-53.40821224,-0.3137872936325741,-0.001318146300113961
-53.3935638,-0.3174893049571627,-0.001318146300113961
-53.37891536,-0.3168162119890557,-0.001318146300113961
-53.36426692,-0.3158065725368951,-0.001318146300113961
-53.34961848,-0.3147969330847346,-0.001318146300113961
-53.33497003999999,-0.3171527584731092,-0.001318146300113961
-53.3203216,-0.3171527584731092,-0.001318146300113961
-53.30567316,-0.3141238401166276,-0.001318146300113961
