Testing/Satellite beacon testing/Radio_Mode_Checks/1Ohm radio mode Power checks.csv

#Digilent WaveForms Oscilloscope Acquisition
#Device Name: Discovery2
#Serial Number: SN:210321A95EED
#Date Time: 2019-09-10 12:42:15.608
#Sample rate: 40Hz
#Samples: 7722
#Trigger: Source: Channel 1 Type: Edge Condition: Rising Level: 0 V Hyst.: Auto HoldOff: 0 s
#Channel 1: Range: 2 mV/div Offset: 0 V Attenuation: 1 X
#Channel 2: Range: 5 mV/div Offset: 0 V Attenuation: 1 X

Time (s),Channel 1 (V),Channel 2 (V)
-117.6,0.001556761925567517,0.000360012311805533
-117.575,0.00189330840962103,0.0006956440341894319
-117.55,0.00189330840962103,0.0006956440341894319
-117.525,0.00155676192556767,0.0006956440341894319
-117.5,0.00189330840962103,0.0006956440341894319
-117.475,0.00189330840962103,0.0006956440341894319
-117.45,0.00189330840962103,0.0006956440341894319
-117.425,0.00189330840962103,0.0006956440341894319
-117.4,0.00155676192556767,0.0006956440341894319
-117.375,0.00189330840962103,0.0006956440341894319
-117.35,0.00189330840962103,0.0006956440341894319
-117.325,0.001556761925567517,0.0006956440341894319
-117.3,0.001556761925567517,0.0006956440341894319
-117.275,0.001893308409620877,0.0006956440341894319
-117.25,0.00189330840962103,0.0006956440341894319
-117.225,0.00189330840962103,0.0006956440341894319
-117.2,0.00189330840962103,0.0006956440341894319
-117.175,0.00189330840962103,0.0006956440341894319
-117.15,0.00189330840962103,0.0006956440341894319
-117.125,0.001556761925567517,0.0006956440341894319
-117.1,0.00189330840962103,0.0006956440341894319
-117.075,0.00189330840962103,0.0006956440341894319
-117.05,0.00189330840962103,0.0006956440341894319
-117.025,0.00155676192556767,0.0006956440341894319
-117,0.00189330840962103,0.0006956440341894319
-116.975,0.00189330840962103,0.0006956440341894319
-116.95,0.00189330840962103,0.0006956440341894319
-116.925,0.00189330840962103,0.0006956440341894319
-116.9,0.00189330840962103,0.0006956440341894319
-116.875,0.00189330840962103,0.0006956440341894319
-116.85,0.00189330840962103,0.0006956440341894319
-116.825,0.00189330840962103,0.0006956440341894319
-116.8,0.00189330840962103,0.0006956440341894319
-116.775,0.00189330840962103,0.0006956440341894319
-116.75,0.00189330840962103,0.0006956440341894319
-116.725,0.001556761925567517,0.0006956440341894319
-116.7,0.001556761925567517,0.0006956440341894319
-116.675,0.001893308409620723,0.0006956440341894319
-116.65,0.00155676192556767,0.0006956440341894319
-116.625,0.001556761925567517,0.0006956440341894319
-116.6,0.001556761925567517,0.0006956440341894319
-116.575,0.00189330840962103,0.0006956440341894319
-116.55,0.00189330840962103,0.0006956440341894319
-116.525,0.00155676192556767,0.0006956440341894319
-116.5,0.001556761925567517,0.0006956440341894319
-116.475,0.00189330840962103,0.0006956440341894319
-116.45,0.00189330840962103,0.0006956440341894319
-116.425,0.001556761925567823,0.0006956440341894319
-116.4,0.001556761925567517,0.0006956440341894319
-116.375,0.00189330840962103,0.0006956440341894319
-116.35,0.00189330840962103,0.0006956440341894319
-116.325,0.001556761925567517,0.0006956440341894319
-116.3,0.001556761925567517,0.0006956440341894319
-116.275,0.001893308409620877,0.0006956440341894319
-116.25,0.00189330840962103,0.0006956440341894319
-116.225,0.001556761925567517,0.0006956440341894319
-116.2,0.001556761925567517,0.0006956440341894319
-116.175,0.001893308409620723,0.0006956440341894319
-116.15,0.00189330840962103,0.0006956440341894319
-116.125,0.001556761925567517,0.0006956440341894319
-116.1,0.001556761925567517,0.0006956440341894319
-116.075,0.00189330840962103,0.0006956440341894319
-116.05,0.00189330840962103,0.0006956440341894319
-116.025,0.00155676192556767,0.0006956440341894319
-116,0.001556761925567517,0.0006956440341894319
-115.975,0.00189330840962103,0.0006956440341894319
-115.95,0.00189330840962103,0.0006956440341894319
-115.925,0.001556761925567823,0.0006956440341894319
-115.9,0.001556761925567517,0.0006956440341894319
-115.875,0.00189330840962103,0.0006956440341894319
-115.85,0.00189330840962103,0.0006956440341894319
-115.825,0.001556761925567517,0.0006956440341894319
-115.8,0.001556761925567517,0.0006956440341894319
-115.775,0.001893308409620877,0.0006956440341894319
-115.75,0.00189330840962103,0.0006956440341894319
-115.725,0.001556761925567517,0.0006956440341894319
-115.7,0.001556761925567517,0.0006956440341894319
-115.675,0.001556761925567517,0.0006956440341894319
-115.65,0.001556761925567517,0.0006956440341894319
-115.625,0.001556761925567517,0.0006956440341894319
-115.6,0.001556761925567517,0.0006956440341894319
-115.575,0.00189330840962103,0.0006956440341894319
-115.55,0.001556761925567823,0.0006956440341894319
-115.525,0.001556761925567517,0.0006956440341894319
-115.5,0.001556761925567517,0.0006956440341894319
-115.475,0.001556761925567517,0.0006956440341894319
-115.45,0.001556761925567517,0.0006956440341894319
-115.425,0.001556761925567517,0.0006956440341894319
-115.4,0.001556761925567517,0.0006956440341894319
-115.375,0.00189330840962103,0.0006956440341894319
-115.35,0.001556761925567517,0.0006956440341894319
-115.325,0.001556761925567517,0.0006956440341894319
-115.3,0.001556761925567517,0.0006956440341894319
-115.275,0.001556761925567517,0.0006956440341894319
-115.25,0.001556761925567517,0.0006956440341894319
-115.225,0.001556761925567517,0.0006956440341894319
-115.2,0.00189330840962103,0.0006956440341894319
-115.175,0.00189330840962103,0.0006956440341894319
-115.15,0.00155676192556767,0.0006956440341894319
-115.125,0.001556761925567517,0.0006956440341894319
-115.1,0.001556761925567517,0.0006956440341894319
-115.075,0.001556761925567517,0.0006956440341894319
-115.05,0.001556761925567517,0.0006956440341894319
-115.025,0.001556761925567517,0.0006956440341894319
-115,0.001556761925567517,0.0006956440341894319
-114.975,0.00189330840962103,0.0006956440341894319
-114.95,0.001556761925567517,0.0006956440341894319
-114.925,0.00122021544151431,0.0006956440341894319
-114.9,0.002902947861780803,0.0006956440341894319
-114.875,0.007614598638530748,0.0006956440341894319
-114.85,0.007614598638530748,0.0006956440341894319
-114.825,0.007614598638530748,0.0006956440341894319
-114.8,0.006604959186371128,0.0006956440341894319
-114.775,0.004249133797996691,0.0006956440341894319
-114.75,0.003912587313942107,0.0006956440341894319
-114.725,0.003912587313942107,0.0006956440341894319
-114.7,0.003912587313942107,0.0006956440341894319
-114.675,0.004249133797995313,0.0006956440341894319
-114.65,0.00458568028204898,0.0006956440341894319
-114.625,0.00424913379799562,0.0006956440341894319
-114.6,0.00424913379799562,0.0006956440341894319
-114.575,0.004585680282049132,0.0006956440341894319
-114.55,0.004585680282049132,0.0006956440341894319
-114.525,0.004249133797995772,0.0006956440341894319
-114.5,0.00424913379799562,0.0006956440341894319
-114.475,0.004585680282049132,0.0006956440341894319
-114.45,0.004585680282049132,0.0006956440341894319
-114.425,0.004249133797995926,0.0006956440341894319
-114.4,0.00424913379799562,0.0006956440341894319
-114.375,0.004585680282049132,0.0006956440341894319
-114.35,0.004585680282049132,0.0006956440341894319
-114.325,0.00424913379799562,0.0006956440341894319
-114.3,0.00424913379799562,0.0006956440341894319
-114.275,0.00458568028204898,0.0006956440341894319
-114.25,0.004585680282049132,0.0006956440341894319
-114.225,0.00424913379799562,0.0006956440341894319
-114.2,0.00424913379799562,0.0006956440341894319
-114.175,0.004585680282048826,0.0006956440341894319
-114.15,0.004585680282049132,0.0006956440341894319
-114.125,0.00424913379799562,0.0006956440341894319
-114.1,0.00424913379799562,0.0006956440341894319
-114.075,0.004585680282049132,0.0006956440341894319
-114.05,0.004585680282049132,0.0006956440341894319
-114.025,0.004249133797995772,0.0006956440341894319
-114,0.00424913379799562,0.0006956440341894319
-113.975,0.004585680282049132,0.0006956440341894319
-113.95,0.004585680282049132,0.0006956440341894319
-113.925,0.004249133797995926,0.0006956440341894319
-113.9,0.00424913379799562,0.0006956440341894319
-113.875,0.004585680282049132,0.0006956440341894319
-113.85,0.004585680282049132,0.0006956440341894319
-113.825,0.00424913379799562,0.0006956440341894319
-113.8,0.00424913379799562,0.0006956440341894319
-113.775,0.00458568028204898,0.0006956440341894319
-113.75,0.004585680282049132,0.0006956440341894319
-113.725,0.00424913379799562,0.0006956440341894319
-113.7,0.00424913379799562,0.0006956440341894319
-113.675,0.004585680282048826,0.0006956440341894319
-113.65,0.004585680282049132,0.0006956440341894319
-113.625,0.00424913379799562,0.0006956440341894319
-113.6,0.00424913379799562,0.0006956440341894319
-113.575,0.004585680282049132,0.0006956440341894319
-113.55,0.004585680282049132,0.0006956440341894319
-113.525,0.004249133797995772,0.0006956440341894319
-113.5,0.00424913379799562,0.0006956440341894319
-113.475,0.004585680282049132,0.0006956440341894319
-113.45,0.004585680282049132,0.0006956440341894319
-113.425,0.004249133797995926,0.0006956440341894319
-113.4,0.00424913379799562,0.0006956440341894319
-113.375,0.004585680282049132,0.0006956440341894319
-113.35,0.004585680282049132,0.0006956440341894319
-113.325,0.00424913379799562,0.0006956440341894319
-113.3,0.00424913379799562,0.001366907478956619
-113.275,0.00458568028204898,0.005058856425178439
-113.25,0.004585680282049132,0.002373802646108926
-113.225,0.00424913379799562,0.002373802646108926
-113.2,0.00424913379799562,0.002373802646108926
-113.175,0.004585680282048826,0.002373802646108926
-113.15,0.004585680282049132,0.002373802646108926
-113.125,0.00424913379799562,0.002373802646108926
-113.1,0.00424913379799562,0.002373802646108926
-113.075,0.004585680282049132,0.002038170923725028
-113.05,0.004585680282049132,0.0006956440341906529
-113.025,0.004249133797995772,0.0006956440341894319
-113,0.00424913379799562,0.0006956440341894319
-112.975,0.004585680282049132,0.0006956440341894319
-112.95,0.004585680282049132,0.000360012311805533
-112.925,0.004249133797995926,0.000360012311805533
-112.9,0.00424913379799562,0.000360012311805533
-112.875,0.004585680282049132,0.0006956440341894319
-112.85,0.004585680282049132,0.0006956440341894319
-112.825,0.00424913379799562,0.0006956440341894319
-112.8,0.00424913379799562,0.0006956440341894319
-112.775,0.00458568028204898,0.0003600123118056856
-112.75,0.004585680282049132,0.0006956440341894319
-112.725,0.004585680282049132,0.0006956440341894319
-112.7,0.00424913379799562,0.0006956440341894319
-112.675,0.004585680282048826,0.0006956440341894319
-112.65,0.004585680282049132,0.0006956440341894319
-112.625,0.00424913379799562,0.0006956440341894319
-112.6,0.00424913379799562,0.0006956440341894319
-112.575,0.004585680282049132,0.0006956440341894319
-112.55,0.004585680282049132,0.0006956440341894319
-112.525,0.004249133797995772,0.0006956440341894319
-112.5,0.00424913379799562,0.0006956440341894319
-112.475,0.004585680282049132,0.0006956440341894319
-112.45,0.004585680282049132,0.0006956440341894319
-112.425,0.004249133797995926,0.0006956440341894319
-112.4,0.00424913379799562,0.0006956440341894319
-112.375,0.004585680282049132,0.0006956440341894319
-112.35,0.004585680282049132,0.0006956440341894319
-112.325,0.00424913379799562,0.0006956440341894319
-112.3,0.00424913379799562,0.0006956440341894319
-112.275,0.00458568028204898,0.0006956440341894319
-112.25,0.004585680282049132,0.0006956440341894319
-112.225,0.004585680282049132,0.0006956440341894319
-112.2,0.00424913379799562,0.0006956440341894319
-112.175,0.004585680282048826,0.0006956440341894319
-112.15,0.004585680282049132,0.0006956440341894319
-112.125,0.00424913379799562,0.0006956440341894319
-112.1,0.00424913379799562,0.0006956440341894319
-112.075,0.004585680282049132,0.0006956440341894319
-112.05,0.004585680282049132,0.0006956440341894319
-112.025,0.004249133797995772,0.0006956440341894319
-112,0.00424913379799562,0.0006956440341894319
-111.975,0.004585680282049132,0.0006956440341894319
-111.95,0.004585680282049132,0.0006956440341894319
-111.925,0.004249133797995926,0.0006956440341894319
-111.9,0.00424913379799562,0.0006956440341894319
-111.875,0.004585680282049132,0.0006956440341894319
-111.85,0.004585680282049132,0.0006956440341894319
-111.825,0.00424913379799562,0.0006956440341894319
-111.8,0.00424913379799562,0.0006956440341894319
-111.775,0.00458568028204898,0.0006956440341894319
-111.75,0.004585680282049132,0.000360012311805533
-111.725,0.00424913379799562,0.000360012311805533
-111.7,0.00424913379799562,0.000360012311805533
-111.675,0.004585680282048826,0.000360012311805533
-111.65,0.004585680282049132,0.0006956440341892793
-111.625,0.00424913379799562,0.0006956440341894319
-111.6,0.00424913379799562,0.0006956440341894319
-111.575,0.004585680282049132,0.0006956440341894319
-111.55,0.004585680282049132,0.0006956440341894319
-111.525,0.004249133797995772,0.0006956440341894319
-111.5,0.004585680282049132,0.0006956440341894319
-111.475,0.004585680282049132,0.0006956440341894319
-111.45,0.004585680282049132,0.0006956440341894319
-111.425,0.004249133797995926,0.0006956440341894319
-111.4,0.00458568028204898,0.0006956440341894319
-111.375,0.004585680282049132,0.0006956440341894319
-111.35,0.004585680282049132,0.0006956440341894319
-111.325,0.00424913379799562,0.0006956440341894319
-111.3,0.00424913379799562,0.0003600123118058383
-111.275,0.00458568028204898,0.000360012311805533
-111.25,0.004585680282049132,0.000360012311805533
-111.225,0.00424913379799562,0.000360012311805533
-111.2,0.00424913379799562,0.000360012311805533
-111.175,0.004585680282048826,0.000360012311805533
-111.15,0.004249133797995772,0.000360012311805533
-111.125,0.00424913379799562,0.000360012311805533
-111.1,0.00424913379799562,0.000360012311805533
-111.075,0.004585680282049132,0.0006956440341894319
-111.05,0.004249133797995926,0.0003600123118058383
-111.025,0.00424913379799562,0.0006956440341892793
-111,0.00424913379799562,0.000360012311805533
-110.975,0.004585680282049132,0.0006956440341894319
-110.95,0.00424913379799562,0.000360012311805533
-110.925,0.00424913379799562,0.0006956440341891266
-110.9,0.00424913379799562,0.0006956440341894319
-110.875,0.00424913379799562,0.0006956440341894319
-110.85,0.00424913379799562,0.0006956440341894319
-110.825,0.00424913379799562,0.0006956440341894319
-110.8,0.00424913379799562,0.0006956440341894319
-110.775,0.00458568028204898,0.0006956440341894319
-110.75,0.00424913379799562,0.0006956440341894319
-110.725,0.00424913379799562,0.0006956440341894319
-110.7,0.00424913379799562,0.0006956440341894319
-110.675,0.004585680282048826,0.0006956440341894319
-110.65,0.004585680282049132,0.0003600123118056856
-110.625,0.00424913379799562,0.0006956440341894319
-110.6,0.004585680282049132,0.0006956440341894319
-110.575,0.004585680282049132,0.0006956440341894319
-110.55,0.004585680282049132,0.0006956440341894319
-110.525,0.004249133797995772,0.0006956440341894319
-110.5,0.004585680282049132,0.0006956440341894319
-110.475,0.004585680282049132,0.0006956440341894319
-110.45,0.004585680282049132,0.0006956440341894319
-110.425,0.004249133797995926,0.0003600123118058383
-110.4,0.00424913379799562,0.0006956440341892793
-110.375,0.004585680282049132,0.0006956440341894319
-110.35,0.00424913379799562,0.0006956440341894319
-110.325,0.00424913379799562,0.0006956440341894319
-110.3,0.00424913379799562,0.0006956440341894319
-110.275,0.00424913379799562,0.0006956440341894319
-110.25,0.00424913379799562,0.0006956440341894319
-110.225,0.00424913379799562,0.000360012311805533
-110.2,0.00424913379799562,0.0006956440341894319
-110.175,0.004585680282048826,0.0003600123118058383
-110.15,0.004249133797995772,0.000360012311805533
-110.125,0.00424913379799562,0.000360012311805533
-110.1,0.00424913379799562,0.0006956440341894319
-110.075,0.004585680282049132,0.000360012311805533
-110.05,0.004249133797995926,0.000360012311805533
-110.025,0.00424913379799562,0.000360012311805533
-110,0.004585680282049132,0.000360012311805533
-109.975,0.004585680282049132,0.000360012311805533
-109.95,0.004585680282049132,0.000360012311805533
-109.925,0.004585680282049132,0.0006956440341891266
-109.9,0.004585680282049132,0.0006956440341894319
-109.875,0.004585680282049132,0.0006956440341894319
-109.85,0.004585680282049132,0.0006956440341894319
-109.825,0.004585680282049132,0.0006956440341894319
-109.8,0.004585680282049132,0.0006956440341894319
-109.775,0.004585680282049132,0.0006956440341894319
-109.75,0.004585680282049132,0.0006956440341894319
-109.725,0.004585680282049132,0.0006956440341894319
-109.7,0.004585680282049132,0.0006956440341894319
-109.675,0.004585680282049132,0.0006956440341894319
-109.65,0.004585680282049132,0.0006956440341894319
-109.625,0.004585680282049132,0.0006956440341894319
-109.6,0.004585680282049132,0.0006956440341894319
-109.575,0.004585680282049132,0.0006956440341894319
-109.55,0.004585680282049132,0.0006956440341894319
-109.525,0.004249133797995772,0.0006956440341894319
-109.5,0.00424913379799562,0.0006956440341894319
-109.475,0.004585680282049132,0.0006956440341894319
-109.45,0.00424913379799562,0.0006956440341894319
-109.425,0.00424913379799562,0.0006956440341894319
-109.4,0.00424913379799562,0.0006956440341894319
-109.375,0.004585680282049132,0.0006956440341894319
-109.35,0.00424913379799562,0.0006956440341894319
-109.325,0.00424913379799562,0.0006956440341894319
-109.3,0.00424913379799562,0.0006956440341894319
-109.275,0.00458568028204898,0.0006956440341894319
-109.25,0.004585680282049132,0.0006956440341894319
-109.225,0.004585680282049132,0.0006956440341894319
-109.2,0.004585680282049132,0.0006956440341894319
-109.175,0.004585680282049132,0.0006956440341894319
-109.15,0.004585680282049132,0.0003600123118056856
-109.125,0.00424913379799562,0.0006956440341894319
-109.1,0.004585680282049132,0.000360012311805533
-109.075,0.004585680282049132,0.0006956440341894319
-109.05,0.004585680282049132,0.0006956440341894319
-109.025,0.004249133797995772,0.0006956440341894319
-109,0.00424913379799562,0.0006956440341894319
-108.975,0.004585680282049132,0.0006956440341894319
-108.95,0.004585680282049132,0.0006956440341894319
-108.925,0.004249133797995926,0.0006956440341894319
-108.9,0.00458568028204898,0.0006956440341894319
-108.875,0.004585680282049132,0.0006956440341894319
-108.85,0.004585680282049132,0.0006956440341894319
-108.825,0.00424913379799562,0.0006956440341894319
-108.8,0.004585680282048826,0.0006956440341894319
-108.775,0.004585680282049132,0.0006956440341894319
-108.75,0.00424913379799562,0.000360012311805533
-108.725,0.00424913379799562,0.0006956440341894319
-108.7,0.004585680282049132,0.0006956440341894319
-108.675,0.004585680282049132,0.0006956440341894319
-108.65,0.004585680282049132,0.0006956440341894319
-108.625,0.00424913379799562,0.0006956440341894319
-108.6,0.004585680282049132,0.0006956440341894319
-108.575,0.004585680282049132,0.0006956440341894319
-108.55,0.004585680282049132,0.0006956440341894319
-108.525,0.004585680282049132,0.0006956440341894319
-108.5,0.004585680282049132,0.0006956440341894319
-108.475,0.004585680282049132,0.0006956440341894319
-108.45,0.004585680282049132,0.0006956440341894319
-108.425,0.004585680282049132,0.0006956440341894319
-108.4,0.004585680282049132,0.0006956440341894319
-108.375,0.004585680282049132,0.0006956440341894319
-108.35,0.004585680282049132,0.0006956440341894319
-108.325,0.004585680282049132,0.0006956440341894319
-108.3,0.004585680282049132,0.0006956440341894319
-108.275,0.004585680282049132,0.0006956440341894319
-108.25,0.004585680282049132,0.0006956440341894319
-108.225,0.00424913379799562,0.0006956440341894319
-108.2,0.004585680282049132,0.0006956440341894319
-108.175,0.004585680282049132,0.0006956440341894319
-108.15,0.004585680282049132,0.0006956440341894319
-108.125,0.004585680282049132,0.0006956440341894319
-108.1,0.004585680282049132,0.0006956440341894319
-108.075,0.004585680282049132,0.0006956440341894319
-108.05,0.004585680282049132,0.0006956440341894319
-108.025,0.004249133797995772,0.0006956440341894319
-108,0.004585680282049132,0.0006956440341894319
-107.975,0.004585680282049132,0.0006956440341894319
