Testing/Satellite beacon testing/Radio_TX_Power_checks/1Ohm TX Power checks.csv

#Digilent WaveForms Oscilloscope Acquisition
#Device Name: Discovery2
#Serial Number: SN:210321A95EED
#Date Time: 2019-09-10 13:49:25.640
#Sample rate: 27.3067Hz
#Samples: 7247
#Trigger: Source: Channel 1 Type: Edge Condition: Rising Level: 0 V Hyst.: Auto HoldOff: 0 s
#Channel 1: Range: 5 mV/div Offset: 0 V Attenuation: 1 X
#Channel 2: Range: 50 mV/div Offset: 0 V Attenuation: 1 X

Time (s),Channel 1 (V),Channel 2 (V)
-146.48436,-0.0001259704946991296,-0.0003112511329608911
-146.44773891,0.00189330840962103,0.002709434368492825
-146.41111782,0.00189330840962103,0.002709434368492825
-146.37449673,0.00189330840962103,0.002709434368492825
-146.33787564,0.00189330840962103,0.002709434368492825
-146.30125455,0.00189330840962103,0.002709434368492825
-146.26463346,0.00189330840962103,0.002709434368492825
-146.22801237,0.00189330840962103,0.002709434368492825
-146.19139128,0.00189330840962103,0.002709434368492825
-146.15477019,0.00189330840962103,0.002709434368492825
-146.1181491,0.00189330840962103,0.002709434368492825
-146.08152801,0.00189330840962103,0.002709434368492825
-146.04490692,0.00189330840962103,0.002709434368492825
-146.00828583,0.00189330840962103,0.002709434368492825
-145.97166474,0.00189330840962103,0.002709434368492825
-145.93504365,0.00189330840962103,0.002709434368492825
-145.89842256,0.00189330840962103,0.002709434368492825
-145.86180147,0.00189330840962103,0.002709434368492825
-145.82518038,0.00189330840962103,0.002709434368492825
-145.78855929,0.00189330840962103,0.002709434368492825
-145.7519382,0.00189330840962103,0.002709434368492825
-145.71531711,0.00189330840962103,0.002709434368492825
-145.67869602,0.00189330840962103,0.002709434368492825
-145.64207493,0.00189330840962103,0.002709434368492825
-145.60545384,0.00189330840962103,0.002709434368492825
-145.56883275,0.00189330840962103,0.002709434368492825
-145.53221166,0.00189330840962103,0.002709434368492825
-145.49559057,0.00189330840962103,0.002709434368492825
-145.45896948,0.00189330840962103,0.002709434368492825
-145.42234839,0.00189330840962103,0.002709434368492825
-145.3857273,0.00189330840962103,0.002709434368492825
-145.34910621,0.00189330840962103,0.002709434368492825
-145.31248512,0.00189330840962103,0.002709434368492825
-145.27586403,0.00189330840962103,0.002709434368492825
-145.23924294,0.00189330840962103,0.002709434368492825
-145.20262185,0.00189330840962103,0.002709434368492825
-145.16600076,0.00189330840962103,0.002709434368492825
-145.12937967,0.00189330840962103,0.002709434368492825
-145.09275858,0.00189330840962103,0.002709434368492825
-145.05613749,0.00189330840962103,0.002709434368492825
-145.0195164,0.00189330840962103,0.002709434368492825
-144.98289531,0.00189330840962103,0.002709434368492825
-144.94627422,0.00189330840962103,0.002709434368492825
-144.90965313,0.00189330840962103,0.002709434368492825
-144.87303204,0.00189330840962103,0.002709434368492825
-144.83641095,0.00189330840962103,0.002709434368492825
-144.79978986,0.00189330840962103,0.002709434368492825
-144.76316877,0.00189330840962103,0.002709434368492825
-144.72654768,0.00189330840962103,0.002709434368492825
-144.68992659,0.00189330840962103,0.002709434368492825
-144.6533055,0.00189330840962103,0.002709434368492825
-144.61668441,0.00189330840962103,0.002709434368492825
-144.58006332,0.00189330840962103,0.002709434368492825
-144.54344223,0.00189330840962103,0.002709434368492825
-144.50682114,0.00189330840962103,0.002709434368492825
-144.47020005,0.00189330840962103,0.002709434368492825
-144.43357896,0.00189330840962103,0.002709434368492825
-144.39695787,0.00189330840962103,0.002709434368492825
-144.36033678,0.00189330840962103,0.002709434368492825
-144.32371569,0.00189330840962103,0.002709434368492825
-144.2870946,0.00189330840962103,0.002709434368492825
-144.25047351,0.00189330840962103,0.002709434368492825
-144.21385242,0.00189330840962103,0.002709434368492825
-144.17723133,0.00189330840962103,0.002709434368492825
-144.14061024,0.00189330840962103,0.002709434368492825
-144.10398915,0.00189330840962103,0.002709434368492825
-144.06736806,0.00189330840962103,0.002709434368492825
-144.03074697,0.00189330840962103,0.002709434368492825
-143.99412588,0.00189330840962103,0.002709434368492825
-143.95750479,0.00189330840962103,0.002709434368492825
-143.9208837,0.00189330840962103,0.002709434368492825
-143.88426261,0.00189330840962103,0.002709434368492825
-143.84764152,0.00189330840962103,0.002709434368492825
-143.81102043,0.00189330840962103,0.002709434368492825
-143.77439934,0.00189330840962103,0.002709434368492825
-143.73777825,0.00189330840962103,0.002709434368492825
-143.70115716,0.00189330840962103,0.002709434368492825
-143.66453607,0.00189330840962103,0.002709434368492825
-143.62791498,0.00189330840962103,0.002709434368492825
-143.59129389,0.00189330840962103,0.002709434368492825
-143.5546728,0.00189330840962103,0.002709434368492825
-143.51805171,0.00189330840962103,0.002709434368492825
-143.48143062,0.00189330840962103,0.002709434368492825
-143.44480953,0.00189330840962103,0.002709434368492825
-143.40818844,0.00189330840962103,0.002709434368492825
-143.37156735,0.00189330840962103,0.002709434368492825
-143.33494626,0.00189330840962103,0.002709434368492825
-143.29832517,0.00189330840962103,0.002709434368492825
-143.26170408,0.00189330840962103,0.002709434368492825
-143.22508299,0.00189330840962103,0.002709434368492825
-143.1884619,0.00189330840962103,0.002709434368492825
-143.15184081,0.00189330840962103,0.002709434368492825
-143.11521972,0.00189330840962103,0.002709434368492825
-143.07859863,0.00189330840962103,0.002709434368492825
-143.04197754,0.00189330840962103,0.002709434368492825
-143.00535645,0.001556761925567517,0.002709434368492825
-142.96873536,0.001556761925569965,0.002709434368492825
-142.93211427,0.006941505670423723,0.002709434368492825
-142.89549318,0.007951145122584262,0.002709434368492825
-142.85887209,0.007614598638530901,0.002709434368492825
-142.822251,0.00424913379799562,0.002709434368492825
-142.78562991,0.00424913379799562,0.002709434368492825
-142.74900882,0.00424913379799562,0.002709434368492825
-142.71238773,0.004585680282049132,0.002709434368492825
-142.67576664,0.004585680282049132,0.002709434368492825
-142.63914555,0.004585680282049132,0.002709434368492825
-142.60252446,0.004585680282049132,0.002709434368492825
-142.56590337,0.004585680282049132,0.002709434368492825
-142.52928228,0.004585680282049132,0.002709434368492825
-142.49266119,0.004585680282049132,0.002709434368492825
-142.4560401,0.004585680282049132,0.002709434368492825
-142.41941901,0.004585680282049132,0.002709434368492825
-142.38279792,0.004585680282049132,0.002709434368492825
-142.34617683,0.004585680282049132,0.002709434368492825
-142.30955574,0.004585680282049132,0.002709434368492825
-142.27293465,0.004585680282049132,0.002709434368492825
-142.23631356,0.004585680282049132,0.002709434368492825
-142.19969247,0.004585680282049132,0.002709434368492825
-142.16307138,0.004585680282049132,0.002709434368492825
-142.12645029,0.004585680282049132,0.002709434368492825
-142.0898292,0.004585680282049132,0.002709434368492825
-142.05320811,0.004585680282049132,0.002709434368492825
-142.01658702,0.004585680282049132,0.002709434368492825
-141.97996593,0.004585680282049132,0.002709434368492825
-141.94334484,0.004585680282049132,0.002709434368492825
-141.90672375,0.004585680282049132,0.002709434368492825
-141.87010266,0.004585680282049132,0.002709434368492825
-141.83348157,0.004585680282049132,0.002709434368492825
-141.79686048,0.004585680282049132,0.002709434368492825
-141.76023939,0.004585680282049132,0.002709434368492825
-141.7236183,0.004585680282049132,0.002709434368492825
-141.68699721,0.004585680282049132,0.002709434368492825
-141.65037612,0.004585680282049132,0.002709434368492825
-141.61375503,0.004585680282049132,0.002709434368492825
-141.57713394,0.004585680282049132,0.002709434368493741
-141.54051285,0.004585680282049132,0.004723224702796219
-141.50389176,0.004585680282049132,0.002709434368492825
-141.46727067,0.004585680282049132,0.002709434368492825
-141.43064958,0.004585680282049132,0.00438759298041232
-141.39402849,0.004585680282049132,0.002709434368492825
-141.3574074,0.004585680282049132,0.002709434368492825
-141.32078631,0.004585680282049132,0.002709434368492825
-141.28416522,0.004585680282049132,0.002709434368492825
-141.24754413,0.004585680282049132,0.002709434368492825
-141.21092304,0.004585680282049132,0.002709434368492825
-141.17430195,0.004585680282049132,0.002709434368492825
-141.13768086,0.004585680282049132,0.002709434368492825
-141.10105977,0.004585680282049132,0.002709434368492825
-141.06443868,0.004585680282049132,0.002709434368492825
-141.02781759,0.004585680282049132,0.002709434368492825
-140.9911965,0.004585680282049132,0.002709434368492825
-140.95457541,0.004585680282049132,0.002709434368492825
-140.91795432,0.004585680282049132,0.002709434368492825
-140.88133323,0.004585680282049132,0.002709434368492825
-140.84471214,0.004585680282049132,0.002709434368492825
-140.80809105,0.004585680282049132,0.002709434368492825
-140.77146996,0.004585680282049132,0.002709434368492825
-140.73484887,0.004585680282049132,0.002709434368492825
-140.69822778,0.004585680282049132,0.002709434368492825
-140.66160669,0.004585680282049132,0.002709434368492825
-140.6249856,0.004585680282049132,0.002709434368492825
-140.58836451,0.004585680282049132,0.002709434368492825
-140.55174342,0.004585680282049132,0.002709434368492825
-140.51512233,0.004585680282049132,0.002709434368492825
-140.47850124,0.004585680282049132,0.002709434368492825
-140.44188015,0.004585680282049132,0.002709434368492825
-140.40525906,0.004585680282049132,0.002709434368492825
-140.36863797,0.004585680282049132,0.002709434368492825
-140.33201688,0.004585680282049132,0.002709434368492825
-140.29539579,0.004585680282049132,0.002709434368492825
-140.2587747,0.004585680282049132,0.002709434368492825
-140.22215361,0.004585680282049132,0.002709434368492825
-140.18553252,0.004585680282049132,0.002709434368492825
-140.14891143,0.004585680282049132,0.002709434368492825
-140.11229034,0.004585680282049132,0.002709434368492825
-140.07566925,0.004585680282049132,0.002709434368492825
-140.03904816,0.004585680282049132,0.002709434368492825
-140.00242707,0.004585680282049132,0.002709434368492825
-139.96580598,0.004585680282049132,0.002709434368492825
-139.92918489,0.004585680282049132,0.002709434368492825
-139.8925638,0.004585680282049132,0.002709434368492825
-139.85594271,0.004585680282049132,0.002709434368492825
-139.81932162,0.004585680282049132,0.002709434368492825
-139.78270053,0.004585680282049132,0.002709434368492825
-139.74607944,0.004585680282049132,0.002709434368492825
-139.70945835,0.004585680282049132,0.002709434368492825
-139.67283726,0.004585680282049132,0.002709434368492825
-139.63621617,0.004585680282049132,0.002709434368492825
-139.59959508,0.004585680282049132,0.002709434368492825
-139.56297399,0.004585680282049132,0.002709434368492825
-139.5263529,0.004585680282049132,0.002709434368492825
-139.48973181,0.004585680282049132,0.002709434368492825
-139.45311072,0.004585680282049132,0.002709434368492825
-139.41648963,0.004585680282049132,0.002709434368492825
-139.37986854,0.004585680282049132,0.002709434368492825
-139.34324745,0.004585680282049132,0.002709434368492825
-139.30662636,0.004585680282049132,0.002709434368492825
-139.27000527,0.004585680282049132,0.002709434368492825
-139.23338418,0.004585680282049132,0.002709434368492825
-139.19676309,0.004585680282049132,0.002709434368492825
-139.160142,0.004585680282049132,0.002709434368492825
-139.12352091,0.004585680282049132,0.002709434368492825
-139.08689982,0.004585680282049132,0.002709434368492825
-139.05027873,0.004585680282049132,0.002709434368492825
-139.01365764,0.004585680282049132,0.002709434368492825
-138.97703655,0.004585680282049132,0.002709434368492825
-138.94041546,0.004585680282049132,0.002709434368492825
-138.90379437,0.004585680282049132,0.002709434368492825
-138.86717328,0.004585680282049132,0.002709434368492825
-138.83055219,0.004585680282049132,0.002709434368492825
-138.7939311,0.004585680282049132,0.002709434368492825
-138.75731001,0.004585680282049132,0.002709434368492825
-138.72068892,0.004585680282049132,0.002709434368492825
-138.68406783,0.004585680282049132,0.002709434368492825
-138.64744674,0.004585680282049132,0.002709434368492825
-138.61082565,0.004585680282049132,0.002709434368492825
-138.57420456,0.004585680282049132,0.002709434368492825
-138.53758347,0.004585680282049132,0.002709434368492825
-138.50096238,0.004585680282049132,0.002709434368492825
-138.46434129,0.004585680282049132,0.002709434368492825
-138.4277202,0.004585680282049132,0.002709434368492825
-138.39109911,0.004585680282049132,0.002709434368492825
-138.35447802,0.004585680282049132,0.002709434368492825
-138.31785693,0.004585680282049132,0.002709434368492825
-138.28123584,0.004585680282049132,0.002709434368492825
-138.24461475,0.00458568028204898,0.002709434368492825
-138.20799366,0.00424913379799562,0.002709434368492825
-138.17137257,0.004585680282049132,0.002709434368492825
-138.13475148,0.004585680282049132,0.002709434368492825
-138.09813039,0.004585680282049132,0.002709434368492825
-138.0615093,0.004585680282049132,0.002709434368492825
-138.02488821,0.004585680282049132,0.002709434368492825
-137.98826712,0.004585680282049132,0.002709434368492825
-137.95164603,0.004585680282049132,0.002709434368492825
-137.91502494,0.004585680282049132,0.002709434368492825
-137.87840385,0.004585680282049132,0.002709434368492825
-137.84178276,0.004585680282049132,0.002709434368492825
-137.80516167,0.004585680282049132,0.002709434368492825
-137.76854058,0.004585680282049132,0.002709434368492825
-137.73191949,0.004585680282049132,0.002709434368492825
-137.6952984,0.004585680282049132,0.002709434368492825
-137.65867731,0.004585680282049132,0.002709434368492825
-137.62205622,0.004585680282049132,0.002709434368492825
-137.58543513,0.004585680282049132,0.002709434368492825
-137.54881404,0.004585680282049132,0.002709434368492825
-137.51219295,0.004585680282049132,0.002709434368492825
-137.47557186,0.004585680282049132,0.002709434368492825
-137.43895077,0.004585680282049132,0.002709434368492825
-137.40232968,0.004585680282049132,0.002709434368492825
-137.36570859,0.004585680282049132,0.002709434368492825
-137.3290875,0.004585680282049132,0.002709434368492825
-137.29246641,0.004585680282049132,0.02318296943390134
-137.25584532,0.004585680282049132,0.05506798306038105
-137.21922423,0.004585680282049132,0.0178128618757614
-137.18260314,0.004585680282049132,0.002709434368492825
-137.14598205,0.004585680282049132,0.002709434368492825
-137.10936096,0.004585680282049132,0.002709434368492825
-137.07273987,0.004585680282049132,0.002709434368492825
-137.03611878,0.004585680282049132,0.002709434368492825
-136.99949769,0.004585680282049132,0.002709434368492825
-136.9628766,0.004585680282049132,0.002709434368492825
-136.92625551,0.004585680282049132,0.002709434368492825
-136.88963442,0.004585680282049132,0.002709434368492825
-136.85301333,0.004585680282049132,0.002709434368492825
-136.81639224,0.004585680282049132,0.002709434368492825
-136.77977115,0.004585680282049132,0.002709434368492825
-136.74315006,0.004585680282049132,0.002709434368492825
-136.70652897,0.004585680282049132,0.002709434368492825
-136.66990788,0.004585680282049132,0.002709434368492825
-136.63328679,0.004585680282049132,0.002709434368492825
-136.5966657,0.004585680282049132,0.002709434368492825
-136.56004461,0.004585680282049132,0.002709434368492825
-136.52342352,0.004585680282049132,0.002709434368492825
-136.48680243,0.004585680282049132,0.002709434368492825
-136.45018134,0.004585680282049132,0.002709434368492825
-136.41356025,0.004585680282049132,0.002709434368492825
-136.37693916,0.004585680282049132,0.002709434368492825
-136.34031807,0.004585680282049132,0.002709434368492825
-136.30369698,0.00458568028204898,0.002709434368492825
-136.26707589,0.004249133797995772,0.002709434368492825
-136.2304548,0.004585680282049132,0.002709434368492825
-136.19383371,0.004585680282049132,0.002709434368492825
-136.15721262,0.004585680282049132,0.002709434368492825
-136.12059153,0.004585680282049132,0.002709434368492825
-136.08397044,0.004585680282049132,0.002709434368492825
-136.04734935,0.004585680282049132,0.002709434368492825
-136.01072826,0.004585680282049132,0.002709434368492825
-135.97410717,0.004585680282049132,0.002709434368492825
-135.93748608,0.004585680282049132,0.002709434368492825
-135.90086499,0.004585680282049132,0.002709434368492825
-135.8642439,0.004585680282049132,0.002709434368492825
-135.82762281,0.004585680282049132,0.002709434368492825
-135.79100172,0.004585680282049132,0.002709434368492825
-135.75438063,0.004585680282049132,0.002709434368492825
-135.71775954,0.004585680282049132,0.002709434368492825
-135.68113845,0.004585680282049132,0.002709434368492825
-135.64451736,0.004585680282049132,0.002709434368492825
-135.60789627,0.004585680282049132,0.002709434368492825
-135.57127518,0.004585680282049132,0.002709434368492825
-135.53465409,0.004585680282049132,0.002709434368492825
-135.498033,0.004585680282049132,0.002709434368492825
-135.46141191,0.004585680282049132,0.002709434368492825
-135.42479082,0.004585680282049132,0.002709434368492825
-135.38816973,0.004585680282049132,0.002709434368492825
-135.35154864,0.004585680282049132,0.002709434368492825
-135.31492755,0.004585680282049132,0.002709434368492825
-135.27830646,0.004585680282049132,0.002709434368492825
-135.24168537,0.004585680282049132,0.002709434368492825
-135.20506428,0.004585680282049132,0.03392318455019542
-135.16844319,0.004585680282049132,0.05808866856182515
-135.1318221,0.004585680282049132,0.009757700538554702
-135.09520101,0.004585680282049132,0.002709434368492825
-135.05857992,0.004585680282049132,0.002709434368492825
-135.02195883,0.004585680282049132,0.002709434368492825
-134.98533774,0.004585680282049132,0.002709434368492825
-134.94871665,0.00424913379799562,0.002709434368492825
-134.91209556,0.004585680282049132,0.002709434368492825
-134.87547447,0.004585680282049132,0.002709434368492825
-134.83885338,0.004585680282049132,0.002709434368492825
-134.80223229,0.004585680282049132,0.002709434368492825
-134.7656112,0.004585680282049132,0.002709434368492825
-134.72899011,0.004249133797995772,0.002709434368492825
-134.69236902,0.00458568028204898,0.002709434368492825
-134.65574793,0.004585680282049132,0.002709434368492825
-134.61912684,0.004585680282049132,0.002709434368492825
-134.58250575,0.004585680282049132,0.002709434368492825
-134.54588466,0.00424913379799562,0.002709434368492825
-134.50926357,0.00424913379799562,0.002709434368492825
-134.47264248,0.004585680282049132,0.002709434368492825
-134.43602139,0.004585680282049132,0.002709434368492825
-134.3994003,0.004585680282049132,0.002709434368492825
-134.36277921,0.004585680282049132,0.002709434368492825
-134.32615812,0.004585680282049132,0.002709434368492825
-134.28953703,0.004585680282049132,0.002709434368492825
-134.25291594,0.004585680282049132,0.002709434368492825
-134.21629485,0.004585680282049132,0.002709434368492825
-134.17967376,0.004585680282049132,0.002709434368492825
-134.14305267,0.004585680282049132,0.002709434368492825
-134.10643158,0.004585680282049132,0.002709434368492825
-134.06981049,0.004585680282049132,0.002709434368492825
-134.0331894,0.004585680282049132,0.002709434368492825
-133.99656831,0.004585680282049132,0.002709434368492825
-133.95994722,0.004585680282049132,0.002709434368492825
-133.92332613,0.004585680282049132,0.002709434368492825
-133.88670504,0.004585680282049132,0.002709434368492825
-133.85008395,0.004585680282049132,0.002709434368492825
-133.81346286,0.004585680282049132,0.002709434368492825
-133.77684177,0.004585680282049132,0.002709434368492825
-133.74022068,0.004585680282049132,0.002709434368492825
-133.70359959,0.004585680282049132,0.002709434368492825
-133.6669785,0.004585680282049132,0.002709434368492825
-133.63035741,0.004585680282049132,0.002709434368492825
