Testing/Satellite beacon testing/Radio_TX_Power_checks/20Ohm TX Power checks-1.csv

#Digilent WaveForms Oscilloscope Acquisition
#Device Name: Discovery2
#Serial Number: SN:210321A95EED
#Date Time: 2019-09-10 14:14:43.285
#Sample rate: 59.3623Hz
#Samples: 2135
#Trigger: Source: Channel 1 Type: Edge Condition: Rising Level: 0 V Hyst.: Auto HoldOff: 0 s
#Channel 1: Range: 200 mV/div Offset: 0 V Attenuation: 1 X
#Channel 2: Range: 500 mV/div Offset: 0 V Attenuation: 1 X

Time (s),Channel 1 (V),Channel 2 (V)
10.61279099999999,0.03487486384685948,0.02855307699204815
10.62963669999999,0.04766363024089879,0.0392932921083378
10.6464824,0.0480001767249523,0.0396289238307217
10.66332809999999,0.0480001767249523,0.03895766038595421
10.68017379999999,0.0480001767249523,0.0392932921083378
10.6970195,0.0480001767249523,0.0396289238307217
10.7138652,0.04833672320900581,0.0392932921083378
10.73071089999999,0.04833672320900581,0.0392932921083378
10.7475566,0.04867326969305932,0.0396289238307217
10.7644023,0.0480001767249523,0.03895766038595406
10.78124799999999,0.0480001767249523,0.0392932921083378
10.7980937,0.04833672320900581,0.0396289238307217
10.8149394,0.04800017672495245,0.0392932921083378
10.83178509999999,0.04833672320900581,0.0392932921083378
10.8486308,0.04833672320900581,0.0396289238307217
10.8654765,0.04833672320900566,0.0392932921083378
10.88232219999999,0.0480001767249523,0.0392932921083378
10.89916789999999,0.04833672320900581,0.0392932921083378
10.9160136,0.0480001767249523,0.0392932921083378
10.93285929999999,0.0480001767249523,0.0392932921083378
10.94970499999999,0.0480001767249523,0.0396289238307217
10.9665507,0.04800017672494464,0.03929329210833765
10.98339639999999,0.03117285252228431,0.03895766038595406
11.00024209999999,0.02511501580931342,0.0392932921083378
11.0170878,0.02713429471363648,0.0392932921083378
11.03393349999999,0.03150939900632817,0.0392932921083378
11.05077919999999,0.03285558494254422,0.0392932921083378
11.0676249,0.03857687517145408,0.0396289238307214
11.08447059999999,0.0389134216555073,0.03895766038595421
11.10131629999999,0.04160579352793555,0.03895766038595391
11.118162,0.0453078048525245,0.03962892383072155
11.13500769999999,0.04598089782063091,0.03929329210833796
11.15185339999999,0.04631744430468473,0.0392932921083378
11.1686991,0.04665399078873839,0.03962892383072155
11.18554479999999,0.0469905372727916,0.03929329210833796
11.20239049999999,0.04699053727279175,0.0392932921083378
11.2192362,0.04699053727279175,0.0392932921083378
11.23608189999999,0.04665399078873839,0.03962892383072155
11.25292759999999,0.04665399078873824,0.0392932921083378
11.2697733,0.04732708375684527,0.0392932921083378
11.28661899999999,0.04833672320900535,0.0392932921083378
11.30346469999999,0.0480001767249523,0.0392932921083378
11.3203104,0.04732708375684527,0.0392932921083378
11.33715609999999,0.04699053727279191,0.03962892383072155
11.35400179999999,0.04631744430468473,0.0392932921083378
11.3708475,0.04530780485252419,0.0392932921083378
11.38769319999999,0.04665399078873763,0.03962892383072155
11.40453889999999,0.04699053727279175,0.03895766038595391
11.4213846,0.04699053727279175,0.0392932921083378
11.4382303,0.04766363024089879,0.0396289238307217
11.45507599999999,0.04766363024089879,0.0396289238307217
11.4719217,0.04766363024089879,0.0392932921083378
11.4887674,0.0480001767249523,0.0396289238307214
11.50561309999999,0.0480001767249523,0.03895766038595391
11.5224588,0.0480001767249523,0.0392932921083378
11.5393045,0.04833672320900581,0.03962892383072155
11.55615019999999,0.04833672320900581,0.0392932921083378
11.5729959,0.0480001767249523,0.0392932921083378
11.5898416,0.04833672320900581,0.0396289238307214
11.60668729999999,0.04833672320900581,0.03895766038595391
11.62353299999999,0.0480001767249523,0.0392932921083378
11.6403787,0.04800017672495215,0.0392932921083378
11.65722439999999,0.04766363024089894,0.0392932921083378
11.67407009999999,0.04766363024089879,0.0392932921083378
11.6909158,0.04766363024089894,0.0396289238307217
11.70776149999999,0.04800017672495215,0.0396289238307217
11.72460719999999,0.04766363024089879,0.03895766038595391
11.7414529,0.04732708375684497,0.03929329210833796
11.75829859999999,0.04665399078873855,0.03962892383072155
11.77514429999999,0.0325190384584907,0.0392932921083378
11.79199,0.009970424026906104,0.03929329210833796
11.80883569999999,0.01165315644717214,0.03962892383072155
11.82568139999999,0.03622104978307934,0.03895766038595391
11.8425271,0.03554795681497706,0.03929329210833796
11.85937279999999,0.04598089782062647,0.03962892383072155
11.87621849999999,0.04598089782063122,0.0392932921083378
11.8930642,0.04194234001199136,0.03929329210833796
11.90990989999999,0.04699053727278946,0.03962892383072155
11.92675559999999,0.04732708375684527,0.03895766038595391
11.9436013,0.0480001767249523,0.0392932921083378
11.96044699999999,0.04833672320900566,0.0392932921083378
11.97729269999999,0.04833672320900581,0.0392932921083378
11.9941384,0.04833672320900581,0.0396289238307217
12.01098409999999,0.04867326969305917,0.0396289238307217
12.02782979999999,0.04833672320900581,0.0392932921083378
12.0446755,0.04867326969305932,0.0392932921083378
12.06152119999999,0.0480001767249526,0.0392932921083378
12.07836689999999,0.04833672320900581,0.0396289238307217
12.0952126,0.04833672320900581,0.0392932921083378
12.11205829999999,0.04833672320900581,0.0392932921083378
12.12890399999999,0.04867326969305932,0.0396289238307217
12.1457497,0.0480001767249523,0.03895766038595391
12.1625954,0.04833672320900581,0.03929329210833796
12.17944109999999,0.04833672320900581,0.0396289238307217
12.1962868,0.04833672320900581,0.0396289238307217
12.2131325,0.04833672320900596,0.0396289238307217
12.22997819999999,0.04867326969305932,0.0396289238307217
12.2468239,0.0480001767249523,0.03895766038595391
12.2636696,0.04766363024089879,0.03895766038595421
12.28051529999999,0.04766363024089879,0.0396289238307217
12.297361,0.04766363024089879,0.0396289238307217
12.3142067,0.04766363024089848,0.0396289238307217
12.33105239999999,0.04699053727279175,0.0396289238307217
12.34789809999999,0.04227888649604258,0.0392932921083378
12.3647438,0.04530780485252541,0.0392932921083378
12.38158949999999,0.04800017672495108,0.0392932921083378
12.39843519999999,0.04766363024089879,0.0396289238307217
12.4152809,0.04833672320900581,0.0396289238307217
12.43212659999999,0.04833672320900581,0.0396289238307217
12.44897229999999,0.04833672320900581,0.0396289238307217
12.465818,0.04833672320900566,0.03895766038595406
12.48266369999999,0.04800017672495245,0.03929329210833765
12.49950939999999,0.0480001767249523,0.0396289238307217
12.5163551,0.04800017672495245,0.03929329210833796
12.53320079999999,0.04833672320900566,0.03962892383072155
12.55004649999999,0.04833672320900581,0.0396289238307217
12.5668922,0.04800017672495215,0.03895766038595391
12.58373789999999,0.04766363024089894,0.03895766038595391
12.60058359999999,0.04833672320900581,0.0396289238307217
12.6174293,0.04800017672495245,0.03962892383072155
12.63427499999999,0.04833672320900566,0.03929329210833796
12.65112069999999,0.04833672320900581,0.0396289238307217
12.6679664,0.04732708375684527,0.03895766038595391
12.68481209999999,0.04800017672495199,0.0396289238307214
12.70165779999999,0.04867326969305932,0.0406358189978734
12.7185035,0.04867326969305932,0.0406358189978734
12.73534919999999,0.04934636266116604,0.04097145072025715
12.75219489999999,0.04934636266116635,0.0406358189978734
12.7690406,0.04934636266116635,0.0406358189978734
12.78588629999999,0.04900981617711299,0.0406358189978734
12.80273199999999,0.04900981617711284,0.0406358189978734
12.8195777,0.04900981617711284,0.0409714507202573
12.83642339999999,0.04900981617711284,0.0409714507202573
12.85326909999999,0.04900981617711284,0.0409714507202573
12.8701148,0.04934636266116635,0.0403001872754895
12.8869605,0.04900981617711284,0.0409714507202573
12.90380619999999,0.04900981617711284,0.0409714507202573
12.9206519,0.04900981617711284,0.0409714507202573
12.9374976,0.04900981617711268,0.0413070824426412
12.95434329999999,0.04867326969305932,0.0413070824426412
12.971189,0.04598089782063122,0.0403001872754895
12.9880347,0.04497125836847037,0.04130708244264104
13.00488039999999,0.04429816540036365,0.0409714507202573
13.0217261,0.04631744430468473,0.0413070824426412
13.0385718,0.04732708375684558,0.0413070824426412
13.05541749999999,0.0480001767249523,0.0413070824426412
13.07226319999999,0.0480001767249523,0.0406358189978734
13.0891089,0.04833672320900551,0.0409714507202573
13.10595459999999,0.04766363024089909,0.0409714507202573
13.12280029999999,0.0480001767249523,0.0409714507202573
13.139646,0.04833672320900581,0.0409714507202573
13.15649169999999,0.04833672320900581,0.0409714507202573
13.17333739999999,0.04867326969305932,0.0409714507202573
13.1901831,0.04867326969305948,0.04063581899787355
13.20702879999999,0.04900981617711268,0.04097145072025715
13.22387449999999,0.04833672320900581,0.0409714507202573
13.2407202,0.04900981617711284,0.0409714507202573
13.25756589999999,0.04900981617711284,0.0409714507202573
13.27441159999999,0.04867326969305932,0.0409714507202573
13.2912573,0.04867326969305917,0.04063581899787355
13.30810299999999,0.04833672320900596,0.04097145072025715
13.32494869999999,0.04867326969305932,0.0409714507202573
13.3417944,0.04900981617711268,0.0409714507202573
13.35864009999999,0.04867326969305948,0.0409714507202573
13.37548579999999,0.04900981617711284,0.0409714507202573
13.3923315,0.04867326969305932,0.0406358189978734
13.40917719999999,0.04833672320900596,0.04097145072025715
13.42602289999999,0.0480001767249523,0.0409714507202573
13.4428686,0.04833672320900581,0.0409714507202573
13.45971429999999,0.04833672320900581,0.0409714507202573
13.47655999999999,0.04867326969305932,0.0409714507202573
13.4934057,0.04867326969305932,0.0409714507202573
13.51025139999999,0.04867326969305932,0.04063581899787355
13.52709709999999,0.04833672320900581,0.0409714507202573
13.5439428,0.04833672320900581,0.0409714507202573
13.56078849999999,0.04833672320900581,0.0409714507202573
13.57763419999999,0.04867326969305932,0.0409714507202573
13.5944799,0.04900981617711284,0.0409714507202573
13.6113256,0.04900981617711284,0.0406358189978734
13.62817129999999,0.04900981617711284,0.0406358189978734
13.645017,0.04934636266116635,0.0406358189978734
13.6618627,0.04900981617711299,0.04063581899787355
13.67870839999999,0.04934636266116635,0.0409714507202573
13.6955541,0.04867326969305932,0.0409714507202573
13.7123998,0.04227888649604242,0.0406358189978734
13.72924549999999,0.04194234001198906,0.0406358189978734
13.7460912,0.0429519794641496,0.0416427141650251
13.7629369,0.05876966421470726,0.04164271416502448
13.77978259999999,0.1523295867815413,0.0403001872754895
13.79662829999999,0.1523295867815413,0.0403001872754895
13.813474,0.1506468543612743,0.03962892383072186
13.83031969999999,0.1519930402974878,0.0399645555531056
13.84716539999999,0.1499737613931667,0.0403001872754895
13.8640111,0.1432428317120735,0.04063581899787416
13.88085679999999,0.09276085910409246,0.04231397760979213
13.89770249999999,0.09208776613596248,0.04197834588740899
13.9145482,0.05372146695387518,0.0426496093321771
13.93139389999999,0.08266446458245097,0.04332087277694428
13.94823959999999,0.0927608591040695,0.04332087277694459
13.9650853,0.09410704504028142,0.04365650449932818
13.98193099999999,0.08939539426353652,0.042985241054561
13.99877669999999,0.01131660996311939,0.04264960933217679
14.01562239999999,0.09612632394460464,0.04264960933217679
14.0324681,0.09612632394460464,0.04365650449932849
14.04931379999999,0.09814560284892572,0.04231397760979289
14.06615949999999,0.09780905636487221,0.04197834588740899
14.0830052,0.09814560284892572,0.04197834588740899
14.09985089999999,0.09780905636487221,0.04197834588740899
14.11669659999999,0.09814560284892572,0.0416427141650251
14.13354229999999,0.09713596339676518,0.0413070824426412
14.15038799999999,0.09612632394460464,0.0416427141650251
14.1672337,0.09578977746055113,0.0416427141650251
14.18407939999999,0.09713596339676518,0.0416427141650251
14.20092509999999,0.09646287042865816,0.0416427141650251
14.2177708,0.09747250988081869,0.0416427141650251
14.23461649999999,0.09780905636487221,0.0409714507202573
14.25146219999999,0.09814560284892572,0.0416427141650251
14.2683079,0.09780905636487221,0.0416427141650251
14.28515359999999,0.09780905636487221,0.0416427141650251
14.30199929999999,0.09747250988081869,0.0416427141650251
14.318845,0.09780905636487221,0.0416427141650251
14.33569069999999,0.09780905636487221,0.0413070824426412
14.35253639999999,0.09814560284892572,0.0413070824426412
14.3693821,0.09814560284892572,0.0416427141650251
14.38622779999999,0.09814560284892572,0.0416427141650251
14.40307349999999,0.09747250988081869,0.0413070824426412
14.4199192,0.09814560284892572,0.0416427141650251
14.43676489999999,0.09780905636487221,0.0413070824426412
14.45361059999999,0.09780905636487221,0.0409714507202573
14.4704563,0.09814560284892572,0.0416427141650251
14.48730199999999,0.09780905636487221,0.0416427141650251
14.50414769999999,0.09780905636487221,0.0413070824426412
14.52099339999999,0.09780905636487221,0.0416427141650251
14.53783909999999,0.09814560284892572,0.0416427141650251
14.5546848,0.09814560284892572,0.0409714507202573
14.57153049999999,0.09814560284892572,0.0413070824426412
14.58837619999999,0.09780905636487221,0.0413070824426412
14.6052219,0.09780905636487221,0.0413070824426412
14.62206759999999,0.09747250988081869,0.0413070824426412
14.63891329999999,0.09780905636487221,0.0416427141650251
14.655759,0.09780905636487221,0.0409714507202573
14.67260469999999,0.09780905636487221,0.0409714507202573
14.68945039999999,0.09780905636487221,0.0413070824426412
14.7062961,0.09814560284892572,0.0413070824426412
14.72314179999999,0.09747250988081869,0.0413070824426412
14.73998749999999,0.09814560284892572,0.0416427141650251
14.7568332,0.09780905636487221,0.0413070824426412
14.77367889999999,0.09780905636487221,0.0406358189978734
14.79052459999999,0.09780905636487221,0.0413070824426412
14.8073703,0.09780905636487221,0.0413070824426412
14.82421599999999,0.09747250988081869,0.0413070824426412
14.84106169999999,0.09780905636487221,0.0413070824426412
14.85790739999999,0.09814560284892572,0.0413070824426412
14.87475309999999,0.09747250988081869,0.0406358189978734
14.8915988,0.09780905636487221,0.0413070824426412
14.90844449999999,0.09747250988081869,0.0413070824426412
14.92529019999999,0.09747250988081869,0.0413070824426412
14.9421359,0.09780905636487221,0.0413070824426412
14.95898159999999,0.09747250988081869,0.0416427141650251
14.97582729999999,0.09747250988081869,0.0409714507202573
14.992673,0.09713596339676518,0.0409714507202573
15.00951869999999,0.09780905636487221,0.0413070824426412
15.02636439999999,0.09747250988081869,0.0413070824426412
15.0432101,0.09747250988081869,0.0413070824426412
15.06005579999999,0.09747250988081869,0.0416427141650251
15.07690149999999,0.09747250988081869,0.0413070824426412
15.0937472,0.09780905636487221,0.0409714507202573
15.11059289999999,0.09747250988081869,0.0413070824426412
15.12743859999999,0.09780905636487221,0.0413070824426412
15.1442843,0.09747250988081869,0.0413070824426412
15.16112999999999,0.09814560284892572,0.134948332987749
15.17797569999999,0.09814560284892572,0.0392932921083378
15.1948214,0.09814560284892572,0.03895766038595391
15.21166709999999,0.09814560284892572,0.0392932921083378
15.22851279999999,0.09814560284892572,0.0392932921083378
15.24535849999999,0.09814560284892572,0.0392932921083378
15.26220419999999,0.09915524230108626,0.03325192110542762
15.2790499,0.09881869581703275,0.128235698540071
15.29589559999999,0.09679941691271167,0.03593697488449881
15.31274129999999,0.09679941691271167,0.03593697488449881
15.329587,0.09713596339676518,0.03593697488449881
15.34643269999999,0.09713596339676518,0.03593697488449881
15.36327839999999,0.09679941691271167,0.03593697488449881
15.3801241,0.09713596339676518,0.03627260660688271
15.39696979999999,0.09747250988081869,0.03795076521880221
15.41381549999999,0.09679941691271167,0.03795076521880221
15.4306612,0.09646287042865816,0.03795076521880221
15.44750689999999,0.09679941691271167,0.03795076521880221
15.46435259999999,0.09612632394460464,0.03795076521880221
15.4811983,0.09679941691271167,0.03795076521880221
15.49804399999999,0.09679941691271167,0.03795076521880221
15.51488969999999,0.09679941691271167,0.03795076521880221
15.5317354,0.09679941691271167,0.03795076521880221
15.54858109999999,0.09713596339676518,0.03795076521880221
15.56542679999999,0.09679941691271167,0.03795076521880221
15.58227249999999,0.09612632394460464,0.03795076521880221
15.59911819999999,0.09679941691271167,0.03795076521880221
15.6159639,0.09679941691271167,0.03795076521880221
15.63280959999999,0.09612632394460464,0.03795076521880221
15.64965529999999,0.09679941691271167,0.03795076521880221
15.666501,0.09679941691271167,0.03795076521880221
15.68334669999999,0.09578977746055113,0.03795076521880221
15.70019239999999,0.09511668449244411,0.03795076521880221
15.7170381,0.09578977746055113,0.03795076521880221
15.73388379999999,0.09646287042865816,0.03795076521880221
15.75072949999999,0.09679941691271167,0.03795076521880221
15.7675752,0.09713596339676518,0.03795076521880221
15.78442089999999,0.09646287042865816,0.03795076521880221
15.80126659999999,0.09679941691271167,0.03795076521880221
15.8181123,0.09679941691271167,0.03795076521880221
15.83495799999999,0.09679941691271167,0.03795076521880221
15.85180369999999,0.09713596339676518,0.03795076521880221
15.8686494,0.09747250988081869,0.03795076521880221
15.88549509999999,0.09679941691271167,0.03795076521880221
15.90234079999999,0.09713596339676518,0.03795076521880221
15.9191865,0.09713596339676518,0.03795076521880221
15.93603219999999,0.09747250988081869,0.03795076521880221
15.95287789999999,0.09747250988081869,0.03795076521880221
15.96972359999999,0.09713596339676518,0.03795076521880221
15.98656929999999,0.09747250988081869,0.03795076521880221
16.003415,0.09713596339676518,0.03795076521880221
16.02026069999999,0.09747250988081869,0.03795076521880221
16.03710639999999,0.09747250988081869,0.03795076521880221
16.0539521,0.09747250988081869,0.03795076521880221
16.07079779999999,0.09713596339676518,0.03795076521880221
16.08764349999999,0.09814560284892572,0.03795076521880221
16.1044892,0.09747250988081869,0.03795076521880221
16.12133489999999,0.09780905636487221,0.03795076521880221
16.13818059999999,0.09780905636487221,0.03795076521880221
16.1550263,0.09814560284892572,0.03795076521880221
16.17187199999999,0.09848214933297923,0.03795076521880221
16.18871769999999,0.09848214933297923,0.03795076521880221
16.2055634,0.09814560284892572,0.03795076521880221
16.22240909999999,0.09679941691271167,0.03795076521880221
16.23925479999999,0.09747250988081869,0.03795076521880221
16.2561005,0.09780905636487221,0.03795076521880221
16.27294619999999,0.09780905636487221,0.03795076521880221
16.28979189999999,0.09780905636487221,0.03795076521880221
16.30663759999999,0.09747250988081869,0.03795076521880221
16.32348329999999,0.09747250988081869,0.03795076521880221
16.340329,0.09780905636487221,0.03795076521880221
16.35717469999999,0.09814560284892572,0.03795076521880221
16.37402039999999,0.09814560284892572,0.03795076521880221
16.3908661,0.09848214933297923,0.03795076521880221
16.40771179999999,0.09814560284892572,0.03795076521880221
16.42455749999999,0.09780905636487221,0.03795076521880221
16.4414032,0.09814560284892572,0.03795076521880221
16.45824889999999,0.09848214933297923,0.03795076521880221
16.47509459999999,0.09881869581703275,0.03795076521880221
16.4919403,0.09881869581703275,0.03795076521880221
16.50878599999999,0.09814560284892572,0.03795076521880221
16.52563169999999,0.09814560284892572,0.03795076521880221
16.5424774,0.09814560284892572,0.03795076521880221
16.55932309999999,0.09814560284892572,0.03795076521880221
16.57616879999999,0.09848214933297923,0.03795076521880221
16.5930145,0.09881869581703275,0.03795076521880221
16.60986019999999,0.09814560284892572,0.03795076521880221
