Testing/Satellite beacon testing/Radio_TX_Power_checks/20Ohm TX Power checks-3.csv

#Digilent WaveForms Oscilloscope Acquisition
#Device Name: Discovery2
#Serial Number: SN:210321A95EED
#Date Time: 2019-09-10 14:19:36.345
#Sample rate: 136.533Hz
#Samples: 3337
#Trigger: Source: Channel 1 Type: Edge Condition: Rising Level: 0 V Hyst.: Auto HoldOff: 0 s
#Channel 1: Range: 200 mV/div Offset: 0 V Attenuation: 1 X
#Channel 2: Range: 500 mV/div Offset: 0 V Attenuation: 1 X

Time (s),Channel 1 (V),Channel 2 (V)
48.69873878,0.04867326969305963,0.03996455555310713
48.706063,0.0480001767249526,0.03660823832926813
48.71338722,0.04867326969305932,0.03761513349641831
48.72071144,0.04900981617711284,0.0392932921083378
48.72803566,0.04833672320900581,0.03660823832926661
48.73535988,0.04900981617711268,0.03895766038595345
48.74268410000001,0.04867326969305917,0.0379507652188016
48.75000832000001,0.04833672320900657,0.03660823832926829
48.75733254000001,0.05001945562927092,0.04030018727548614
48.76465676,0.04732708375684527,0.03660823832926661
48.77198098,0.04833672320900581,0.03694387005165051
48.7793052,0.04934636266116635,0.0403001872754895
48.78662942,0.04833672320900627,0.03660823832926829
48.79395364,0.04867326969305917,0.0379507652188016
48.80127786,0.04833672320900596,0.03895766038595345
48.80860208,0.04900981617711253,0.03694387005165142
48.8159263,0.04900981617711284,0.0392932921083378
48.82325052,0.04833672320900581,0.03761513349641831
48.83057474,0.04867326969305932,0.03660823832926661
48.83789896,0.04968290914521895,0.04063581899787157
48.84522318,0.04766363024089909,0.03660823832926676
48.85254740000001,0.04833672320900642,0.03694387005165188
48.85987162000001,0.0496829091452191,0.03996455555310408
48.86719584,0.0480001767249523,0.03660823832926661
48.87452006,0.04900981617711284,0.03828639694118611
48.88184428,0.04833672320900581,0.03862202866357001
48.8891685,0.04867326969305902,0.03660823832926844
48.89649272,0.04934636266116604,0.03962892383072033
48.90381694,0.04800017672495291,0.03727950177403548
48.91114116,0.04833672320900566,0.03660823832926691
48.91846538,0.04968290914521986,0.0406358189978734
48.9257896,0.04766363024089879,0.03660823832926661
48.93311382,0.04867326969305932,0.03727950177403441
48.94043804,0.04900981617711284,0.0396289238307217
48.94776226,0.04800017672495291,0.03660823832926752
48.95508648000001,0.04934636266116589,0.03862202866356985
48.96241070000001,0.04833672320900612,0.03828639694118535
48.96973492,0.04900981617711284,0.03660823832926661
48.97705914,0.05035600211332689,0.0399645555531056
48.98438336,0.04732708375684527,0.03694387005165051
48.99170758,0.04833672320900581,0.03660823832926661
48.9990318,0.04934636266116589,0.04030018727548782
49.00635602,0.04800017672495291,0.03660823832926829
49.01368024,0.04867326969305902,0.03761513349641785
49.02100446,0.04934636266116635,0.0392932921083378
49.02832868,0.04833672320900581,0.03660823832926661
49.0356529,0.04900981617711284,0.03895766038595391
49.04297712,0.04833672320900581,0.03795076521880221
49.05030134,0.04833672320900657,0.03660823832926829
49.05762556000001,0.05001945562927231,0.04030018727548782
49.06494978000001,0.04766363024089924,0.03660823832926661
49.07227400000001,0.04867326969306024,0.03660823832926997
49.07959822,0.04968290914521986,0.0403001872754895
49.08692244,0.04833672320900581,0.03660823832926661
49.09424666,0.04867326969305932,0.03795076521880221
49.10157088,0.04900981617711268,0.03895766038595345
49.1088951,0.04833672320900612,0.03660823832926768
49.11621932,0.04934636266116589,0.03929329210833658
49.12354354,0.04833672320900627,0.03761513349641907
49.13086776,0.04833672320900581,0.03660823832926661
49.13819198,0.05001945562927337,0.0403001872754895
49.1455162,0.04732708375684527,0.03660823832926661
49.15284042,0.04867326969305963,0.03694387005165188
49.16016464,0.04934636266116589,0.03996455555310408
49.16748886000001,0.04833672320900596,0.03660823832926737
49.17481308000001,0.04867326969305932,0.03828639694118626
49.1821373,0.04867326969305932,0.03862202866357001
49.18946152,0.04833672320900581,0.03660823832926661
49.19678574,0.04934636266116635,0.0396289238307217
49.20410996,0.04800017672495352,0.03727950177403655
49.21143418,0.04833672320900566,0.03660823832926691
49.2187584,0.04934636266116589,0.04030018727548782
49.22608262,0.04800017672495291,0.03660823832926829
49.23340684,0.04833672320900581,0.03727950177403441
49.24073106,0.04900981617711284,0.0396289238307217
49.24805528,0.0480001767249523,0.03660823832926661
49.2553795,0.04934636266116574,0.03862202866356985
49.26270372,0.0480001767249526,0.03828639694118535
49.27002794000001,0.04867326969305963,0.03660823832926813
49.27735216000001,0.04934636266116574,0.03996455555310408
49.28467638,0.0480001767249523,0.03660823832926661
49.2920006,0.04833672320900581,0.03660823832926661
49.29932482,0.04934636266116635,0.0403001872754895
49.30664904,0.0480001767249523,0.03660823832926661
49.31397326,0.04833672320900566,0.03727950177403411
49.32129748,0.04900981617711253,0.03929329210833689
49.3286217,0.04800017672495276,0.03660823832926783
49.33594592,0.04900981617711284,0.03895766038595391
49.34327014,0.04833672320900581,0.03795076521880221
49.35059436,0.04867326969305932,0.03660823832926661
49.35791858,0.04934636266116635,0.0403001872754895
49.3652428,0.04766363024089909,0.03660823832926661
49.37256702000001,0.04833672320900627,0.03660823832926829
49.37989124000001,0.04934636266116574,0.04030018727548782
49.38721546000001,0.04800017672495291,0.03660823832926783
49.39453968,0.04867326969305932,0.03795076521880221
49.4018639,0.04900981617711284,0.03895766038595391
49.40918812,0.04833672320900581,0.03660823832926661
49.41651234,0.04900981617711253,0.03929329210833658
49.42383656,0.0476636302408994,0.03761513349641907
49.43116078,0.04833672320900551,0.03660823832926707
49.438485,0.04968290914521925,0.04030018727548782
49.44580922,0.04766363024089879,0.03694387005165051
49.45313344,0.04833672320900581,0.03694387005165051
49.46045766,0.04968290914521986,0.0399645555531056
49.46778188,0.04833672320900596,0.03694387005165112
49.4751061,0.04867326969305932,0.03828639694118626
49.48243032000001,0.04867326969305948,0.03862202866356924
49.48975454000001,0.04900981617711284,0.03694387005165173
49.49707876,0.04900981617711284,0.0396289238307217
49.50440298,0.04833672320900581,0.03727950177403441
49.5117272,0.04833672320900581,0.03694387005165051
49.51905142,0.04968290914521864,0.04030018727548645
49.52637564,0.04800017672495306,0.03694387005165203
49.53369986,0.04867326969305902,0.03727950177403426
49.54102408,0.04934636266116604,0.03962892383072063
49.5483483,0.0480001767249523,0.03694387005165051
49.55567252,0.04900981617711284,0.03828639694118611
49.56299674,0.04833672320900581,0.03828639694118611
49.57032096,0.04867326969305963,0.03694387005165188
49.57764518,0.04934636266116559,0.03996455555310423
49.58496940000001,0.04766363024089924,0.03694387005165035
49.59229362000001,0.04867326969305963,0.03660823832926813
49.59961784,0.04934636266116635,0.0399645555531056
49.60694206,0.0480001767249523,0.03660823832926661
49.61426628,0.04833672320900581,0.03727950177403441
49.6215905,0.04934636266116635,0.0392932921083378
49.62891472,0.04800017672495291,0.03660823832926783
49.63623894,0.04900981617711238,0.03862202866356909
49.64356316,0.04800017672495276,0.03795076521880252
49.65088738,0.04900981617711284,0.03660823832926661
49.6582116,0.04934636266116635,0.0399645555531056
49.66553582,0.0480001767249523,0.03660823832926661
49.67286004,0.0480001767249523,0.03660823832926661
49.68018426,0.04934636266116574,0.03996455555310408
49.68750848000001,0.04800017672495245,0.03660823832926707
49.69483270000001,0.04833672320900596,0.03761513349641892
49.70215692000001,0.04867326969305902,0.03895766038595207
49.70948114,0.04833672320900581,0.03694387005165051
49.71680536,0.04934636266116635,0.03895766038595391
49.72412958,0.04766363024089879,0.03761513349641831
49.7314538,0.04833672320900551,0.03660823832926707
49.73877802,0.04934636266116589,0.04030018727548782
49.74610224,0.04766363024089955,0.03660823832926829
49.75342646,0.04833672320900551,0.03694387005165035
49.76075068,0.04934636266116635,0.0399645555531056
49.7680749,0.04833672320900581,0.03660823832926661
49.77539912,0.04833672320900581,0.03795076521880221
49.78272334,0.04867326969305932,0.03862202866356909
49.79004756,0.04867326969305948,0.03660823832926798
49.79737178000001,0.04900981617711223,0.03962892383072063
49.80469600000001,0.0476636302408994,0.0372795017740338
49.81202022,0.04833672320900581,0.03660823832926661
49.81934444,0.05001945562927337,0.0403001872754895
49.82666866,0.04732708375684527,0.03660823832926661
49.83399288,0.04833672320900489,0.0369438700516502
49.8413171,0.04934636266116589,0.03962892383072048
49.84864132,0.04800017672495291,0.03660823832926798
49.85596554,0.04900981617711238,0.03828639694118535
49.86328976,0.04833672320900581,0.03828639694118611
49.87061398,0.04867326969305932,0.03660823832926661
49.8779382,0.04900981617711284,0.0399645555531056
49.88526242,0.0480001767249523,0.03694387005165035
49.89258664,0.04800017672495306,0.03660823832926829
49.89991086000001,0.04968290914521895,0.04030018727548782
49.90723508000001,0.04766363024089894,0.03660823832926691
49.9145593,0.0480001767249523,0.03727950177403441
49.92188352,0.04900981617711284,0.0396289238307217
49.92920774,0.0480001767249523,0.03660823832926661
49.93653196,0.04900981617711284,0.03862202866357001
49.94385618,0.04833672320900612,0.03795076521880252
49.9511804,0.04800017672495245,0.03660823832926722
49.95850462,0.05001945562927246,0.04030018727548782
49.96582884,0.04732708375684527,0.03660823832926661
49.97315306,0.04833672320900581,0.03660823832926661
49.98047728,0.04934636266116635,0.0403001872754895
49.9878015,0.0480001767249523,0.03660823832926661
49.99512572,0.04800017672495306,0.03761513349641907
50.00244994000001,0.04968290914521925,0.03929329210833674
50.00977416000001,0.04833672320900627,0.03694387005165158
50.01709838,0.04934636266116589,0.03929329210833674
50.0244226,0.04766363024089879,0.03795076521880221
50.03174682,0.04833672320900581,0.03660823832926661
50.03907104,0.04968290914521986,0.0406358189978734
50.04639526,0.04732708375684634,0.03660823832926844
50.05371948,0.04800017672495199,0.03694387005165035
50.0610437,0.04934636266116574,0.04030018727548797
50.06836792,0.04800017672495291,0.03694387005165203
50.07569214,0.04833672320900581,0.03828639694118611
50.08301636,0.04867326969305932,0.03895766038595391
50.09034058,0.04867326969305932,0.03727950177403441
50.0976648,0.04934636266116589,0.03929329210833719
50.10498902,0.04833672320900336,0.03795076521880175
50.11231324000001,0.0429519794641496,0.03694387005165219
50.11963746000001,0.04295197946414746,0.04063581899787004
50.12696168,0.04059615407577501,0.03694387005165051
50.1342859,0.04093270055982853,0.03761513349641831
50.14161012,0.0429519794641496,0.0399645555531056
50.14893434,0.04059615407577716,0.03627260660688607
50.15625856,0.04160579352793509,0.03828639694118519
50.16358278,0.04194234001198891,0.0389576603859536
50.170907,0.04059615407577562,0.03660823832926768
50.17823122,0.1169922059559224,0.03828639694118611
50.18555544,0.1516564938134343,0.03795076521880221
50.19287966,0.1523295867815413,0.03761513349641831
50.20020388,0.1509834008453274,0.03761513349641785
50.2075281,0.1513199473293806,0.03660823832926661
50.21485232000001,0.1509834008453272,0.03660823832926691
50.22217654000001,0.1509834008453277,0.03727950177403411
50.22950076,0.1519930402974878,0.03660823832926661
50.23682498,0.1513199473293808,0.03727950177403441
50.2441492,0.1509834008453272,0.03727950177403441
50.25147342,0.1533392262337018,0.0392932921083378
50.25879764,0.151656493813435,0.03761513349641907
50.26612186,0.1519930402974876,0.03795076521880206
50.27344608,0.1526661332655945,0.0386220286635697
50.2807703,0.09881869581703275,0.0399645555531056
50.28809452,0.09309740558812302,0.0399645555531056
50.29541874,0.0927608591040695,0.0396289238307217
50.30274296,0.0927608591040695,0.0396289238307217
50.31006718,0.09343395207217607,0.04063581899787279
50.31739140000001,0.09242431262001599,0.03929329210833811
50.32471562000001,0.0924243126200166,0.03996455555310606
50.33203984,0.09377049855622943,0.04097145072025684
50.33936406,0.0927608591040695,0.0392932921083378
50.34668828,0.0927608591040695,0.0403001872754895
50.3540125,0.09343395207217653,0.0403001872754895
50.36133672,0.09208776613596309,0.03996455555310575
50.36866094,0.09343395207217592,0.04063581899787309
50.37598516,0.09343395207217653,0.03962892383072216
50.38330938,0.09747250988081686,0.0396289238307217
50.3906336,0.09915524230108626,0.0416427141650251
50.39795782,0.09780905636487221,0.0392932921083378
50.40528204,0.09814560284892572,0.0403001872754895
50.41260626,0.09915524230108565,0.04130708244264028
50.41993048,0.09780905636487251,0.03929329210833842
50.42725470000001,0.09848214933297939,0.0406358189978734
50.43457892000001,0.09881869581703213,0.04063581899787279
50.44190314,0.09814560284892572,0.0399645555531056
50.44922736,0.09848214933297923,0.0413070824426412
50.45655158,0.09915524230108626,0.0396289238307217
50.4638758,0.09747250988082022,0.0399645555531053
50.47120002,0.09982833526919221,0.04231397760979182
50.47852424,0.09780905636487312,0.03929329210833918
50.48584846,0.09848214933297893,0.04063581899787279
50.49317268,0.09982833526919328,0.0416427141650251
50.5004969,0.09780905636487221,0.0396289238307217
50.50782112,0.09881869581703275,0.0409714507202573
50.51514534,0.09915524230108595,0.04063581899787309
50.52246956,0.09848214933297969,0.03996455555310652
50.52979378000001,0.09949178878513931,0.04197834588740793
50.53711800000001,0.09848214933297893,0.03962892383072186
50.54444222,0.09780905636487221,0.0399645555531056
50.55176644,0.09949178878513977,0.04264960933217679
50.55909066,0.09848214933297923,0.0392932921083378
50.56641488,0.09780905636487221,0.0409714507202573
50.5737391,0.09949178878513901,0.04164271416502479
50.58106332,0.09780905636487297,0.03996455555310637
50.58838754,0.09915524230108565,0.04164271416502433
50.59571176,0.09881869581703275,0.0406358189978734
50.60303598,0.09780905636487221,0.0399645555531056
50.6103602,0.09949178878513977,0.04264960933217679
50.61768442,0.09814560284892572,0.0396289238307217
50.62500864,0.09814560284892648,0.04030018727549057
50.63233286000001,0.09982833526919252,0.04264960933217526
50.63965708000001,0.09814560284892603,0.03929329210833872
50.6469813,0.09881869581703244,0.04130708244264028
50.65430552,0.09949178878513977,0.0416427141650251
50.66162974,0.09780905636487221,0.0399645555531056
50.66895396,0.09915524230108626,0.04197834588740899
50.67627818,0.09915524230108626,0.04030018727549026
50.6836024,0.09780905636487282,0.03996455555310575
50.69092662,0.09982833526919237,0.04298524105455932
50.69825084,0.09814560284892648,0.03962892383072323
50.70557506,0.09814560284892572,0.0406358189978734
50.71289928,0.09881869581703275,0.04264960933217679
50.7202235,0.09814560284892572,0.0396289238307217
50.72754772,0.09848214933297923,0.0416427141650251
50.73487194,0.09848214933297908,0.04164271416502433
50.74219616000001,0.09814560284892603,0.03996455555310682
50.74952038000001,0.09881869581703275,0.04264960933217465
50.7568446,0.09881869581703275,0.0403001872754895
50.76416882,0.09780905636487221,0.0403001872754895
50.77149304,0.09949178878513977,0.04332087277694459
50.77881726,0.09780905636487373,0.03929329210834147
50.78614148,0.09881869581703229,0.04097145072025653
50.7934657,0.09949178878513947,0.04264960933217603
50.80078992,0.09814560284892633,0.03962892383072308
50.80811414,0.09881869581703275,0.04197834588740899
50.81543836,0.09915524230108626,0.0413070824426412
50.82276258,0.09814560284892572,0.0399645555531056
50.8300868,0.09915524230108611,0.04298524105455947
50.83741102,0.09881869581703244,0.0403001872754895
50.84473524000001,0.09814560284892633,0.04030018727549087
50.85205946000001,0.09949178878513931,0.04332087277694276
50.85938368,0.09848214933297923,0.0392932921083378
50.8667079,0.09814560284892572,0.0413070824426412
50.87403212,0.09949178878513977,0.04231397760979289
50.88135634,0.09780905636487221,0.0399645555531056
50.88868056,0.09881869581703229,0.04197834588740808
50.89600478,0.09881869581703275,0.04097145072025776
50.903329,0.09814560284892603,0.03996455555310606
50.91065322,0.09915524230108626,0.04332087277694459
50.91797744,0.09881869581703275,0.0399645555531056
50.92530166,0.09814560284892572,0.0406358189978734
50.93262588,0.09949178878513977,0.04332087277694459
50.9399501,0.09747250988081931,0.03929329210833887
50.94727432000001,0.09881869581703275,0.04164271416502433
50.95459854000001,0.09881869581703229,0.0399645555531056
50.96192276,0.09780905636487267,0.0399645555531056
50.96924698,0.09881869581703275,0.0413070824426412
50.9765712,0.09848214933297923,0.0396289238307217
50.98389542,0.09780905636487221,0.0399645555531056
50.99121964,0.09915524230108565,0.04130708244264059
50.99854386,0.09814560284892618,0.03929329210833872
51.00586808,0.097472509880819,0.04097145072025653
51.0131923,0.09949178878513885,0.04063581899787355
51.02051652,0.09780905636487221,0.0392932921083378
51.02784074,0.09848214933297923,0.0413070824426412
51.03516496,0.09915524230108626,0.0396289238307217
51.04248918,0.09780905636487267,0.03996455555310606
51.04981340000001,0.09881869581703244,0.04097145072025669
51.05713762000001,0.09814560284892541,0.03962892383072201
51.06446184000001,0.09747250988081992,0.04030018727549011
51.07178606,0.09881869581703275,0.0409714507202573
51.07911028,0.09814560284892572,0.0392932921083378
51.0864345,0.09814560284892572,0.0413070824426412
51.09375872,0.09881869581703213,0.03996455555310682
51.10108294,0.09780905636487267,0.03962892383072186
51.10840716,0.09848214933297893,0.04097145072025669
51.11573138,0.09915524230108595,0.03962892383072231
51.1230556,0.09713596339676518,0.0399645555531056
51.13037982,0.09915524230108626,0.0409714507202573
51.13770404,0.09848214933297923,0.0396289238307217
51.14502826,0.09747250988081946,0.04030018727548965
51.15235248,0.09915524230108549,0.04063581899787279
51.15967670000001,0.09747250988081915,0.03929329210833872
51.16700092000001,0.09848214933297939,0.04130708244264059
51.17432514,0.09881869581703275,0.0399645555531056
51.18164936,0.09747250988081869,0.0399645555531056
51.18897358,0.09881869581703275,0.0409714507202573
51.1962978,0.09915524230108626,0.0396289238307217
51.20362202,0.09780905636487282,0.03996455555310545
51.21094624,0.09848214933297893,0.04097145072025684
51.21827046,0.09881869581703259,0.03962892383072231
51.22559468,0.09780905636487221,0.0409714507202573
51.2329189,0.09982833526919328,0.0403001872754895
51.24024312,0.09679941691271167,0.0392932921083378
51.24756734,0.09881869581703275,0.0413070824426412
51.25489156,0.09881869581703244,0.0399645555531056
51.26221578000001,0.09814560284892603,0.03996455555310591
51.26954000000001,0.09881869581703275,0.04063581899787294
51.27686422,0.09881869581703275,0.03962892383072216
51.28418844,0.09780905636487221,0.0403001872754895
51.29151266,0.09915524230108626,0.0406358189978734
51.29883688,0.09848214933297923,0.0396289238307217
51.3061611,0.09780905636487251,0.04130708244264043
51.31348532,0.09982833526919237,0.03996455555310621
51.32080954,0.09747250988081976,0.03929329210833811
51.32813376,0.09848214933297877,0.04097145072025653
51.33545798,0.09881869581703275,0.0396289238307217
51.3427822,0.09780905636487221,0.0399645555531056
51.35010642,0.09881869581703275,0.0406358189978734
51.35743064,0.09881869581703229,0.03962892383072201
51.36475486000001,0.09780905636487267,0.0403001872754895
51.37207908000001,0.09881869581703229,0.04030018727548904
51.37940330000001,0.09780905636487282,0.03929329210833964
51.38672752,0.09848214933297923,0.0413070824426412
51.39405174,0.09949178878513977,0.0396289238307217
51.40137596,0.09780905636487221,0.0396289238307217
51.40870018,0.09848214933297862,0.04063581899787248
51.4160244,0.09915524230108595,0.03962892383072216
51.42334862,0.09780905636487282,0.03996455555310545
