Testing/433 Red PCB testing files/Full Satellite Cycle with telemtry/Current consumption checks/Power_consumption_1_Cycle_R1p3Ohm_15dBmTXpower_b.csv

#Digilent WaveForms Oscilloscope Acquisition
#Device Name: Discovery2
#Serial Number: SN:210321A95EED
#Date Time: 2020-02-14 08:49:30.814
#Sample rate: 136.533Hz
#Samples: 7583
#Trigger: Source: Channel 1 Type: Edge Condition: Rising Level: 0 V Hyst.: Auto HoldOff: 0 s
#Channel 1: Range: 20 mV/div Offset: 0 V Attenuation: 1 X

Time (s),Channel 1 (V)
-29.29688,-0.0004625169787535607
-29.28955578,-0.0004625169787535607
-29.28223156,-0.0004625169787535607
-29.27490734,-0.0004625169787535607
-29.26758312,-0.0004625169787535607
-29.2602589,-0.0004625169787535607
-29.25293468,-0.0004625169787535607
-29.24561046,-0.0004625169787535607
-29.23828624,-0.0004625169787535607
-29.23096202,-0.0004625169787535607
-29.2236378,-0.0004625169787535607
-29.21631358,-0.0004625169787535607
-29.20898936,-0.0004625169787535607
-29.20166514,-0.0004625169787535607
-29.19434092,-0.0004625169787535607
-29.1870167,-0.0004625169787535607
-29.17969248,-0.0004625169787535607
-29.17236826,-0.0001259704947000478
-29.16504404,-0.0001259704947000478
-29.15771982,-0.0004625169787535607
-29.1503956,-0.0004625169787535607
-29.14307138,-0.0004625169787535607
-29.13574716,-0.0004625169787535607
-29.12842294,-0.0004625169787535607
-29.12109872,-0.0004625169787535607
-29.1137745,-0.0004625169787535607
-29.10645028,-0.0004625169787535607
-29.09912606,-0.0004625169787535607
-29.09180184,-0.0004625169787535607
-29.08447762,-0.0004625169787535607
-29.0771534,-0.0004625169787535607
-29.06982918,-0.0004625169787535607
-29.06250496,-0.0004625169787535607
-29.05518074,-0.0004625169787535607
-29.04785652,-0.0004625169787535607
-29.0405323,-0.0004625169787535607
-29.03320808,-0.0004625169787535607
-29.02588386,-0.0004625169787535607
-29.01855964,-0.0004625169787535607
-29.01123542,-0.0004625169787535607
-29.0039112,-0.0004625169787535607
-28.99658698,-0.0004625169787535607
-28.98926276,-0.0004625169787535607
-28.98193854,-0.0004625169787535607
-28.97461432,-0.0004625169787535607
-28.9672901,-0.0004625169787535607
-28.95996588,-0.0004625169787535607
-28.95264166,-0.0004625169787535607
-28.94531744,-0.0004625169787535607
-28.93799322,-0.0004625169787535607
-28.930669,-0.0004625169787535607
-28.92334478,-0.0004625169787535607
-28.91602056,-0.0004625169787535607
-28.90869634,-0.0004625169787535607
-28.90137212,-0.0004625169787535607
-28.8940479,-0.0004625169787535607
-28.88672368,-0.0004625169787535607
-28.87939946,-0.0004625169787535607
-28.87207524,-0.0004625169787535607
-28.86475102,-0.0004625169787535607
-28.8574268,-0.0004625169787535607
-28.85010258,-0.0004625169787535607
-28.84277836,-0.0001259704947000478
-28.83545414,-0.0004625169787535607
-28.82812992,-0.0004625169787535607
-28.8208057,-0.0004625169787535607
-28.81348148,-0.0004625169787535607
-28.80615726,-0.0001259704947000478
-28.79883304,-0.0004625169787535607
-28.79150882,-0.0004625169787535607
-28.7841846,-0.0004625169787535607
-28.77686038,-0.0004625169787535607
-28.76953616,-0.0004625169787535607
-28.76221194,-0.0004625169787535607
-28.75488772,-0.0004625169787535607
-28.7475635,-0.0004625169787535607
-28.74023928,-0.0004625169787535607
-28.73291506,-0.0004625169787535607
-28.72559084,-0.0004625169787535607
-28.71826662,-0.0004625169787535607
-28.7109424,-0.0004625169787535607
-28.70361818,-0.0004625169787535607
-28.69629396,-0.0004625169787535607
-28.68896974,-0.0004625169787535607
-28.68164552,-0.0004625169787535607
-28.6743213,-0.0004625169787535607
-28.66699708,-0.0004625169787535607
-28.65967286,-0.0004625169787535607
-28.65234864,-0.0004625169787535607
-28.64502442,-0.0004625169787535607
-28.6377002,-0.0004625169787535607
-28.63037598,-0.0001259704947000478
-28.62305176,-0.0001259704947000478
-28.61572754,-0.0004625169787535607
-28.60840332,-0.0001259704947002009
-28.6010791,-0.0004625169787535607
-28.59375488,-0.0001259704947000478
-28.58643066,-0.0001259704947000478
-28.57910644,-0.0004625169787535607
-28.57178222,-0.0004625169787535607
-28.564458,-0.0004625169787535607
-28.55713378,-0.0004625169787535607
-28.54980956,-0.0004625169787535607
-28.54248534,-0.0004625169787535607
-28.53516112,-0.0004625169787535607
-28.5278369,-0.0004625169787535607
-28.52051268,-0.0004625169787535607
-28.51318846,-0.0004625169787535607
-28.50586424,-0.0004625169787535607
-28.49854002,-0.0004625169787535607
-28.4912158,-0.0001259704947000478
-28.48389158,-0.0004625169787535607
-28.47656736,-0.0004625169787535607
-28.46924314,-0.0004625169787535607
-28.46191892,-0.0004625169787535607
-28.4545947,-0.0004625169787535607
-28.44727048,-0.0004625169787535607
-28.43994626,-0.0004625169787535607
-28.43262204,-0.0004625169787535607
-28.42529782,-0.0004625169787535607
-28.4179736,-0.0004625169787535607
-28.41064938,-0.0004625169787535607
-28.40332516,-0.0004625169787535607
-28.39600094,-0.0004625169787535607
-28.38867672,-0.0004625169787535607
-28.3813525,-0.0004625169787535607
-28.37402828,-0.0004625169787535607
-28.36670406,-0.0004625169787535607
-28.35937984,-0.0004625169787535607
-28.35205562,-0.0001259704947000478
-28.3447314,-0.0004625169787535607
-28.33740718,-0.0004625169787535607
-28.33008296,-0.0004625169787535607
-28.32275874,-0.0004625169787535607
-28.31543452,-0.0004625169787535607
-28.3081103,-0.0004625169787535607
-28.30078608,-0.0004625169787535607
-28.29346186,-0.0004625169787535607
-28.28613764,-0.0004625169787535607
-28.27881342,-0.0004625169787535607
-28.2714892,-0.0004625169787535607
-28.26416498,-0.0004625169787535607
-28.25684076,-0.0004625169787535607
-28.24951654,-0.0001259704947000478
-28.24219232,-0.0001259704947000478
-28.2348681,-0.0004625169787535607
-28.22754388,-0.0004625169787535607
-28.22021966,-0.0004625169787535607
-28.21289544,-0.0001259704947000478
-28.20557122,-0.0001259704947000478
-28.198247,-0.0004625169787535607
-28.19092278,-0.0001259704947000478
-28.18359856,-0.0004625169787535607
-28.17627434,-0.0004625169787535607
-28.16895012,-0.0004625169787535607
-28.1616259,-0.0001259704947002009
-28.15430168,-0.0004625169787535607
-28.14697746,-0.0004625169787535607
-28.13965324,-0.0004625169787535607
-28.13232902,-0.0004625169787535607
-28.1250048,-0.0004625169787535607
-28.11768058,-0.0004625169787535607
-28.11035636,-0.0004625169787535607
-28.10303214,-0.0004625169787535607
-28.09570792,-0.0004625169787535607
-28.0883837,-0.0004625169787535607
-28.08105948,-0.0004625169787535607
-28.07373526,-0.0004625169787535607
-28.06641104,-0.0001259704947000478
-28.05908682,-0.0004625169787535607
-28.0517626,-0.0001259704947000478
-28.04443838,-0.0001259704947000478
-28.03711416,-0.0004625169787535607
-28.02978994,-0.0004625169787535607
-28.02246572,-0.0004625169787535607
-28.0151415,-0.0004625169787535607
-28.00781728,-0.0004625169787535607
-28.00049306,-0.0004625169787535607
-27.99316884,-0.0004625169787535607
-27.98584462,-0.0004625169787535607
-27.9785204,-0.0004625169787535607
-27.97119618,-0.0004625169787535607
-27.96387196,-0.0004625169787535607
-27.95654774,-0.0004625169787535607
-27.94922352,-0.0004625169787535607
-27.9418993,-0.0004625169787535607
-27.93457508,-0.0004625169787535607
-27.92725086,-0.0004625169787535607
-27.91992664,-0.0004625169787535607
-27.91260242,-0.0004625169787535607
-27.9052782,-0.0004625169787535607
-27.89795398,-0.0004625169787535607
-27.89062976,-0.0004625169787535607
-27.88330554,-0.0004625169787535607
-27.87598132,-0.0004625169787535607
-27.8686571,-0.0004625169787535607
-27.86133288,-0.0004625169787535607
-27.85400866,-0.0004625169787535607
-27.84668444,-0.0004625169787535607
-27.83936022,-0.0004625169787535607
-27.832036,-0.0004625169787535607
-27.82471178,0.02343228338904585
-27.81738756,0.009297331058798312
-27.81006334,0.0089607845747448
-27.80273912,0.008287691606637775
-27.7954149,0.008960784574744647
-27.78809068,0.008624238090691287
-27.78076646,0.007951145122584262
-27.77344224,0.008624238090691287
-27.76611802,0.008287691606637775
-27.7587938,0.01098006347906588
-27.75146958,0.01333588886744047
-27.74414536,0.01299934238338695
-27.73682114,0.01299934238338695
-27.72949692,0.01333588886744047
-27.7221727,0.01299934238338695
-27.71484848,0.01299934238338695
-27.70752426,0.01299934238338695
-27.70020004,0.01299934238338695
-27.69287582,0.01333588886744047
-27.6855516,0.01299934238338695
-27.67822738,0.01266279589933344
-27.67090316,0.01299934238338695
-27.66357894,0.01266279589933359
-27.65625472,0.01064351699501236
-27.6489305,0.009970424026905339
-27.64160628,0.009633877542851827
-27.63428206,0.009970424026905339
-27.62695784,0.009970424026905339
-27.61963362,0.009633877542851827
-27.6123094,0.009970424026905339
-27.60498518,0.009970424026905339
-27.59766096,0.009633877542851827
-27.59033674,0.009970424026905339
-27.58301252,0.009970424026905339
-27.5756883,0.009970424026905339
-27.56836408,0.009970424026905339
-27.56103986,0.009633877542851827
-27.55371564,0.01030697051095885
-27.54639142,0.01030697051095885
-27.5390672,0.009970424026905339
-27.53174298,0.01030697051095885
-27.52441876,0.009970424026905339
-27.51709454,0.01030697051095885
-27.50977032,0.01030697051095885
-27.5024461,0.009970424026905339
-27.49512188,0.01030697051095885
-27.48779766,0.01030697051095885
-27.48047344,0.009970424026905492
-27.47314922,0.01030697051095885
-27.465825,0.009970424026905339
-27.45850078,0.009970424026905339
-27.45117656,0.01030697051095885
-27.44385234,0.009970424026905339
-27.43652812,0.01030697051095885
-27.4292039,0.01030697051095885
-27.42187968,0.009970424026905339
-27.41455546,0.01030697051095885
-27.40723124,0.01030697051095885
-27.39990702,0.009970424026905339
-27.3925828,0.01030697051095885
-27.38525858,0.009970424026905339
-27.37793436,0.009970424026905339
-27.37061014,0.01030697051095885
-27.36328592,0.009970424026905339
-27.3559617,0.01030697051095885
-27.34863748,0.01030697051095885
-27.34131326,0.009970424026905339
-27.33398904,0.01030697051095885
-27.32666482,0.009970424026905339
-27.3193406,0.009970424026905339
-27.31201638,0.01030697051095885
-27.30469216,0.009970424026905339
-27.29736794,0.009970424026905492
-27.29004372,0.01030697051095885
-27.2827195,0.009970424026905339
-27.27539528,0.01030697051095885
-27.26807106,0.01030697051095885
-27.26074684,0.009633877542851827
-27.25342262,0.01030697051095885
-27.2460984,0.009970424026905339
-27.23877418,0.009970424026905339
-27.23144996,0.01030697051095885
-27.22412574,0.009970424026905339
-27.21680152,0.009970424026905339
-27.2094773,0.01030697051095885
-27.20215308,0.009970424026905339
-27.19482886,0.01030697051095885
-27.18750464,0.01030697051095885
-27.18018042,0.009970424026905339
-27.1728562,0.01064351699501236
-27.16553198,0.009970424026905339
-27.15820776,0.009970424026905339
-27.15088354,0.01064351699501236
-27.14355932,0.009970424026905339
-27.1362351,0.01030697051095885
-27.12891088,0.01030697051095885
-27.12158666,0.009970424026905339
-27.11426244,0.01030697051095885
-27.10693822,0.01030697051095885
-27.099614,0.009970424026905339
-27.09228978,0.01030697051095885
-27.08496556,0.009970424026905339
-27.07764134,0.009970424026905339
-27.07031712,0.01030697051095885
-27.0629929,0.009970424026905339
-27.05566868,0.01030697051095885
-27.04834446,0.01030697051095885
-27.04102024,0.009633877542851827
-27.03369602,0.01030697051095855
-27.0263718,0.009970424026905339
-27.01904758,0.009970424026905339
-27.01172336,0.01064351699501236
-27.00439914,0.009970424026905339
-26.99707492,0.009970424026905339
-26.9897507,0.01030697051095885
-26.98242648,0.009970424026905492
-26.97510226,0.01030697051095885
-26.96777804,0.01030697051095885
-26.96045382,0.009633877542851827
-26.9531296,0.01030697051095885
-26.94580538,0.009970424026905339
-26.93848116,0.009633877542851827
-26.93115694,0.01030697051095885
-26.92383272,0.009633877542851827
-26.9165085,0.009970424026905339
-26.90918428,0.01030697051095885
-26.90186006,0.009633877542851827
-26.89453584,0.01030697051095885
-26.88721162,0.009970424026905339
-26.8798874,0.009633877542851827
-26.87256318,0.01030697051095885
-26.86523896,0.009970424026905339
-26.85791474,0.009633877542851827
-26.85059052,0.01030697051095855
-26.8432663,0.009633877542851827
-26.83594208,0.009970424026905339
-26.82861786,0.01030697051095885
-26.82129364,0.009633877542851827
-26.81396942,0.01030697051095885
-26.8066452,0.009970424026905339
-26.79932098,0.009633877542851827
-26.79199676,0.01030697051095885
-26.78467254,0.009970424026905339
-26.77734832,0.009970424026905339
-26.7700241,0.01030697051095885
-26.76269988,0.009633877542851827
-26.75537566,0.009970424026905339
-26.74805144,0.009970424026905339
-26.74072722,0.009633877542851827
-26.733403,0.01030697051095885
-26.72607878,0.009970424026905339
-26.71875456,0.009633877542851979
-26.71143034,0.01030697051095885
-26.70410612,0.009970424026905339
-26.6967819,0.009970424026905339
-26.68945768,0.01030697051095885
-26.68213346,0.009633877542851827
-26.67480924,0.01030697051095885
-26.66748502,0.009970424026905187
-26.6601608,0.009633877542851827
-26.65283658,0.01030697051095885
-26.64551236,0.009970424026905339
-26.63818814,0.009633877542851827
-26.63086392,0.01030697051095885
-26.6235397,0.009633877542851827
-26.61621548,0.009970424026905339
-26.60889126,0.009970424026905339
-26.60156704,0.009633877542851827
-26.59424282,0.009970424026905339
-26.5869186,0.009970424026905339
-26.57959438,0.009633877542851827
-26.57227016,0.009970424026905339
-26.56494594,0.009633877542851827
-26.55762172,0.009633877542851827
-26.5502975,0.01030697051095885
-26.54297328,0.009633877542851827
-26.53564906,0.009970424026905187
-26.52832484,0.009970424026905339
-26.52100062,0.009633877542851827
-26.5136764,0.009970424026905339
-26.50635218,0.009970424026905339
-26.49902796,0.009633877542851827
-26.49170374,0.01030697051095885
-26.48437952,0.009970424026905339
-26.4770553,0.009970424026905339
-26.46973108,0.01030697051095885
-26.46240686,0.009633877542851827
-26.45508264,0.009970424026905339
-26.44775842,0.009970424026905339
-26.4404342,0.009633877542851827
-26.43310998,0.009970424026905339
-26.42578576,0.009633877542851827
-26.41846154,0.009633877542851827
-26.41113732,0.009970424026905339
-26.4038131,0.009633877542851979
-26.39648888,0.009633877542851827
-26.38916466,0.009970424026905339
-26.38184044,0.009633877542851827
-26.37451622,0.009970424026905339
-26.367192,0.009970424026905339
-26.35986778,0.008624238090691287
-26.35254356,0.0170379001920262
-26.34521934,0.01064351699501236
-26.33789512,0.009633877542851827
-26.3305709,0.009970424026905339
-26.32324668,0.009633877542851827
-26.31592246,0.009633877542851827
-26.30859824,0.009633877542851827
-26.30127402,0.009633877542851827
-26.2939498,0.009633877542851827
-26.28662558,0.009633877542851827
-26.27930136,0.009297331058798312
-26.27197714,0.009633877542851827
-26.26465292,0.009633877542851827
-26.2573287,0.009633877542851827
-26.25000448,0.009633877542851827
-26.24268026,0.009633877542851827
-26.23535604,0.009633877542851827
-26.22803182,0.009633877542851827
-26.2207076,0.009633877542851827
-26.21338338,0.009633877542851827
-26.20605916,0.008287691606637775
-26.19873494,0.008287691606637775
-26.19141072,0.008287691606637775
-26.1840865,0.008287691606637775
-26.17676228,0.008287691606637775
-26.16943806,0.008287691606637775
-26.16211384,0.008287691606637775
-26.15478962,0.008287691606637775
-26.1474654,0.008287691606637775
-26.14014118,0.008287691606637775
-26.13281696,0.008287691606637775
-26.12549274,0.008287691606637775
-26.11816852,0.008287691606637775
-26.1108443,0.008624238090691287
-26.10352008,0.008287691606637775
-26.09619586,0.008287691606637775
-26.08887164,0.008624238090691287
-26.08154742,0.008287691606637775
-26.0742232,0.008287691606637775
-26.06689898,0.008287691606637775
-26.05957476,0.008287691606637775
-26.05225054,0.008624238090691287
-26.04492632,0.008287691606637775
-26.0376021,0.005595319734209671
-26.03027788,0.005595319734209671
-26.02295366,0.005595319734209671
-26.01562944,0.005595319734209671
-26.00830522,0.005595319734209671
-26.000981,0.005595319734209671
-25.99365678,0.005595319734209671
-25.98633256,0.005595319734209671
-25.97900834,0.005595319734209671
-25.97168412,0.005595319734209671
-25.9643599,0.005595319734209671
-25.95703568,0.005595319734209671
-25.94971146,0.005595319734209671
-25.94238724,0.005595319734209671
-25.93506302,0.005595319734209671
-25.9277388,0.005595319734209671
-25.92041458,0.005595319734209671
-25.91309036,0.005595319734209671
-25.90576614,0.005595319734209671
-25.89844192,0.005595319734209671
-25.8911177,0.005595319734209671
-25.88379348,0.005595319734209671
-25.87646926,0.005595319734209671
-25.86914504,0.005595319734209671
-25.86182082,0.005595319734209671
-25.8544966,0.005595319734209671
-25.84717238,0.005595319734209671
-25.83984816,0.005595319734209671
-25.83252394,0.005595319734209671
-25.82519972,0.005595319734209671
-25.8178755,0.005595319734209671
-25.81055128,0.005595319734209671
-25.80322706,0.005595319734209671
-25.79590284,0.005595319734209671
-25.78857862,0.005595319734209671
-25.7812544,0.005595319734209671
-25.77393018,0.005595319734209671
-25.76660596,0.005595319734209671
-25.75928174,0.005595319734209671
-25.75195752,0.005595319734209671
-25.7446333,0.005595319734209671
-25.73730908,0.005595319734209671
-25.72998486,0.005595319734209671
-25.72266064,0.005595319734209671
-25.71533642,0.005595319734209671
-25.7080122,0.005595319734209671
-25.70068798,0.005595319734209671
-25.69336376,0.005595319734209671
-25.68603954,0.005595319734209671
-25.67871532,0.005595319734209671
-25.6713911,0.005595319734209671
-25.66406688,0.005595319734209671
-25.65674266,0.005595319734209671
-25.64941844,0.005595319734209671
-25.64209422,0.005595319734209671
-25.63477,0.005595319734209671
-25.62744578,0.005595319734209671
-25.62012156,0.005595319734209671
-25.61279734,0.005595319734209671
-25.60547312,0.005595319734209671
-25.5981489,0.005595319734209671
-25.59082468,0.005595319734209671
-25.58350046,0.005595319734209671
-25.57617624,0.005595319734209671
-25.56885202,0.005595319734209671
-25.5615278,0.005595319734209671
-25.55420358,0.005595319734209671
-25.54687936,0.005595319734209671
-25.53955514,0.005595319734209671
-25.53223092,0.005595319734209671
-25.5249067,0.005595319734209671
-25.51758248,0.005595319734209671
-25.51025826,0.005595319734209671
-25.50293404,0.005595319734209671
-25.49560982,0.005595319734209671
-25.4882856,0.005595319734209671
-25.48096138,0.005595319734209671
-25.47363716,0.005595319734209671
-25.46631294,0.005595319734209671
-25.45898872,0.005595319734209671
-25.4516645,0.005595319734209671
-25.44434028,0.005595319734209671
-25.43701606,0.005595319734209671
-25.42969184,0.005595319734209671
-25.42236762,0.005595319734209671
-25.4150434,0.005595319734209671
-25.40771918,0.005595319734209671
-25.40039496,0.005595319734209671
-25.39307074,0.005595319734209671
-25.38574652,0.005595319734209671
-25.3784223,0.005595319734209671
-25.37109808,0.005595319734209671
-25.36377386,0.005595319734209671
-25.35644964,0.005595319734209671
-25.34912542,0.005595319734209671
-25.3418012,0.005595319734209671
-25.33447698,0.005595319734209671
-25.32715276,0.005595319734209671
-25.31982854,0.005595319734209671
-25.31250432,0.005595319734209671
-25.3051801,0.005595319734209671
-25.29785588,0.005595319734209671
-25.29053166,0.005595319734209671
-25.28320744,0.005595319734209671
-25.27588322,0.005595319734209671
-25.268559,0.005595319734209671
-25.26123478,0.005595319734209671
-25.25391056,0.005595319734209671
-25.24658634,0.005595319734209671
-25.23926212,0.005595319734209671
-25.2319379,0.005595319734209671
-25.22461368,0.005595319734209671
-25.21728946,0.005595319734209671
-25.20996524,0.005595319734209671
-25.20264102,0.005595319734209671
-25.1953168,0.005595319734209671
-25.18799258,0.005595319734209671
-25.18066836,0.005595319734209671
-25.17334414,0.005595319734209671
-25.16601992,0.005595319734209671
-25.1586957,0.005595319734209671
-25.15137148,0.005595319734209671
-25.14404726,0.005595319734209671
-25.13672304,0.005595319734209671
-25.12939882,0.005595319734209671
-25.1220746,0.005595319734209671
-25.11475038,0.005595319734209671
