Testing/433 Red PCB testing files/Full Satellite Cycle with telemtry/Current consumption checks/Power_consumption_4_Cycle_R1p3Ohm_15dBmTXpower.csv

#Digilent WaveForms Oscilloscope Acquisition
#Device Name: Discovery2
#Serial Number: SN:210321A95EED
#Date Time: 2020-02-14 09:37:21.216
#Sample rate: 6.82667Hz
#Samples: 6322
#Trigger: Source: Channel 1 Type: Edge Condition: Rising Level: 0 V Hyst.: Auto HoldOff: 0 s
#Channel 1: Range: 20 mV/div Offset: 0 V Attenuation: 1 X

Time (s),Channel 1 (V)
-585.9374800000001,-0.0001259704947002009
-585.79099563,0.000210575989353465
-585.6445112599999,0.000210575989353312
-585.49802689,-0.0001259704947000478
-585.35154252,-0.0001259704947000478
-585.20505815,-0.0001259704947000478
-585.05857378,0.000210575989353465
-584.91208941,0.000210575989353465
-584.76560504,0.000210575989353465
-584.61912067,-0.0001259704947000478
-584.4726363,0.000210575989353465
-584.32615193,0.000210575989353465
-584.17966756,0.000210575989353465
-584.03318319,0.000210575989353465
-583.88669882,0.009970424026905339
-583.7402144500001,0.01098006347906542
-583.59373008,0.01030697051095885
-583.4472457099999,0.01030697051095885
-583.30076134,0.01030697051095885
-583.15427697,0.01030697051095885
-583.0077926,0.01030697051095885
-582.86130823,0.009970424026905339
-582.71482386,0.009970424026905339
-582.56833949,0.009970424026905339
-582.42185512,0.0103069705109587
-582.27537075,0.008624238090691287
-582.12888638,0.006604959186371127
-581.98240201,0.005595319734209671
-581.83591764,0.005931866218263032
-581.68943327,0.005595319734209671
-581.5429488999999,0.005595319734209671
-581.39646453,0.005595319734209671
-581.24998016,0.005595319734209671
-581.10349579,0.005595319734209671
-580.95701142,0.005595319734209671
-580.81052705,0.005595319734209671
-580.66404268,0.005595319734209671
-580.51755831,0.005595319734209671
-580.37107394,0.005595319734209671
-580.22458957,0.005595319734209671
-580.0781052,0.005595319734209671
-579.93162083,0.005595319734209671
-579.78513646,0.005595319734209671
-579.6386520900001,0.005595319734209671
-579.49216772,0.005595319734209671
-579.3456833499999,0.005595319734209671
-579.19919898,0.005595319734209671
-579.05271461,0.005595319734209671
-578.90623024,0.005595319734209671
-578.75974587,0.005595319734209671
-578.6132615,0.005595319734209671
-578.46677713,0.005595319734209671
-578.32029276,0.005595319734209671
-578.17380839,0.005595319734209671
-578.02732402,0.005595319734209671
-577.88083965,0.005595319734209671
-577.73435528,0.005595319734209671
-577.58787091,0.005595319734209671
-577.4413865400001,0.005595319734209671
-577.29490217,0.005595319734209671
-577.1484177999999,0.005595319734209977
-577.00193343,0.006268412702316697
-576.85544906,0.009297331058798465
-576.70896469,0.009633877542851827
-576.56248032,0.009970424026905339
-576.41599595,0.009970424026905339
-576.26951158,0.009633877542851827
-576.12302721,0.009633877542851827
-575.97654284,0.009633877542851827
-575.83005847,0.009633877542851827
-575.6835741,0.009633877542851827
-575.53708973,0.009970424026905187
-575.39060536,0.009970424026905339
-575.2441209899999,0.009970424026905339
-575.09763662,0.009970424026905339
-574.95115225,0.04328852594820158
-574.80466788,0.03992306110766799
-574.65818351,0.009970424026905187
-574.51169914,0.009633877542851827
-574.36521477,0.009633877542851827
-574.2187304,0.01434552831960101
-574.07224603,0.0167013537079756
-573.92576166,0.0167013537079756
-573.77927729,0.0167013537079756
-573.63279292,0.0167013537079756
-573.48630855,0.0167013537079756
-573.3398241800001,0.0167013537079756
-573.19333981,0.0167013537079756
-573.0468554399999,0.0167013537079756
-572.90037107,0.0167013537079756
-572.7538867,0.0167013537079756
-572.60740233,0.0167013537079756
-572.46091796,0.0167013537079756
-572.31443359,0.0167013537079756
-572.16794922,0.0167013537079756
-572.02146485,0.0167013537079756
-571.87498048,0.0167013537079756
-571.72849611,0.0167013537079756
-571.58201174,0.0167013537079756
-571.43552737,0.0167013537079756
-571.289043,0.0167013537079756
-571.1425586300001,0.0167013537079756
-570.99607426,0.0167013537079756
-570.8495898899999,0.0167013537079756
-570.70310552,0.0167013537079756
-570.55662115,0.0167013537079756
-570.41013678,0.0167013537079756
-570.26365241,0.0167013537079756
-570.11716804,0.0167013537079756
-569.97068367,0.0167013537079756
-569.8241993,0.0167013537079756
-569.67771493,0.0167013537079756
-569.53123056,0.0167013537079756
-569.38474619,0.0167013537079756
-569.23826182,0.0167013537079756
-569.09177745,0.0167013537079756
-568.9452930799999,0.0167013537079756
-568.79880871,0.0167013537079756
-568.65232434,0.0167013537079756
-568.50583997,0.0167013537079756
-568.3593556,0.0167013537079756
-568.21287123,0.0167013537079756
-568.06638686,0.0167013537079756
-567.91990249,0.0167013537079756
-567.77341812,0.0167013537079756
-567.62693375,0.0167013537079756
-567.48044938,0.0167013537079756
-567.33396501,0.0167013537079756
-567.18748064,0.0167013537079756
-567.0409962700001,0.0167013537079756
-566.8945119,0.0167013537079756
-566.7480275299999,0.0167013537079756
-566.60154316,0.0167013537079756
-566.45505879,0.0167013537079756
-566.30857442,0.0167013537079756
-566.16209005,0.0167013537079756
-566.01560568,0.0167013537079756
-565.86912131,0.0167013537079756
-565.72263694,0.0167013537079756
-565.57615257,0.0167013537079756
-565.4296682,0.0167013537079756
-565.28318383,0.0167013537079756
-565.13669946,0.0167013537079756
-564.99021509,0.0167013537079756
-564.8437307200001,0.0167013537079756
-564.69724635,0.0167013537079756
-564.5507619799999,0.0167013537079756
-564.40427761,0.0167013537079756
-564.25779324,0.0167013537079756
-564.11130887,0.0167013537079756
-563.9648245,0.0167013537079756
-563.81834013,0.0167013537079756
-563.67185576,0.0167013537079756
-563.52537139,0.0167013537079756
-563.37888702,0.0167013537079756
-563.23240265,0.0167013537079756
-563.08591828,0.0167013537079756
-562.93943391,0.0167013537079756
-562.79294954,0.0167013537079756
-562.6464651699999,0.0167013537079756
-562.4999808,0.0167013537079756
-562.35349643,0.0167013537079756
-562.20701206,0.0167013537079756
-562.06052769,0.0167013537079756
-561.91404332,0.0167013537079756
-561.76755895,0.0167013537079756
-561.62107458,0.0167013537079756
-561.47459021,0.0167013537079756
-561.32810584,0.0167013537079756
-561.18162147,0.0167013537079756
-561.0351371,0.0167013537079756
-560.88865273,0.0167013537079756
-560.7421683600001,0.0167013537079756
-560.59568399,0.0167013537079756
-560.4491996199999,0.0167013537079756
-560.30271525,0.0167013537079756
-560.15623088,0.0167013537079756
-560.00974651,0.0167013537079756
-559.86326214,0.0167013537079756
-559.71677777,0.0167013537079756
-559.5702934,0.0167013537079756
-559.42380903,0.0167013537079756
-559.27732466,0.0167013537079756
-559.13084029,0.0167013537079756
-558.98435592,0.0167013537079756
-558.83787155,0.0167013537079756
-558.69138718,0.0167013537079756
-558.5449028100001,0.0167013537079756
-558.39841844,0.0167013537079756
-558.2519340699999,0.0167013537079756
-558.1054497,0.0167013537079756
-557.95896533,0.0167013537079756
-557.81248096,0.0167013537079756
-557.66599659,0.0167013537079756
-557.51951222,0.0167013537079756
-557.37302785,0.0167013537079756
-557.22654348,0.0167013537079756
-557.08005911,0.0167013537079756
-556.93357474,0.0167013537079756
-556.78709037,0.0167013537079756
-556.640606,0.0167013537079756
-556.49412163,0.0167013537079756
-556.3476372599999,0.0167013537079756
-556.20115289,0.0167013537079756
-556.05466852,0.0167013537079756
-555.90818415,0.0167013537079756
-555.76169978,0.0167013537079756
-555.61521541,0.0167013537079756
-555.46873104,0.0167013537079756
-555.32224667,0.0167013537079756
-555.1757623,0.0167013537079756
-555.02927793,0.0167013537079756
-554.88279356,0.0167013537079756
-554.73630919,0.0167013537079756
-554.58982482,0.0167013537079756
-554.4433404500001,0.0167013537079756
-554.29685608,0.0167013537079756
-554.1503717099999,0.0167013537079756
-554.00388734,0.0167013537079756
-553.85740297,0.0167013537079756
-553.7109186,0.0167013537079756
-553.56443423,0.0167013537079756
-553.41794986,0.0167013537079756
-553.27146549,0.0167013537079756
-553.12498112,0.0167013537079756
-552.97849675,0.0167013537079756
-552.83201238,0.0167013537079756
-552.68552801,0.0167013537079756
-552.53904364,0.0167013537079756
-552.39255927,0.0167013537079756
-552.2460749000001,0.0167013537079756
-552.09959053,0.0167013537079756
-551.9531061599999,0.0167013537079756
-551.80662179,0.0167013537079756
-551.66013742,0.0167013537079756
-551.51365305,0.0167013537079756
-551.36716868,0.0167013537079756
-551.22068431,0.0167013537079756
-551.07419994,0.0167013537079756
-550.92771557,0.0167013537079756
-550.7812312,0.0167013537079756
-550.63474683,0.0167013537079756
-550.48826246,0.0167013537079756
-550.34177809,0.0167013537079756
-550.19529372,0.0167013537079756
-550.0488093499999,0.0167013537079756
-549.90232498,0.0167013537079756
-549.75584061,0.0167013537079756
-549.60935624,0.0167013537079756
-549.46287187,0.0167013537079756
-549.3163875,0.0167013537079756
-549.16990313,0.0167013537079756
-549.02341876,0.0167013537079756
-548.87693439,0.0167013537079756
-548.73045002,0.0167013537079756
-548.58396565,0.0167013537079756
-548.43748128,0.0167013537079756
-548.29099691,0.0167013537079756
-548.1445125400001,0.0167013537079756
-547.99802817,0.0167013537079756
-547.8515437999999,0.0167013537079756
-547.70505943,0.0167013537079756
-547.55857506,0.0167013537079756
-547.41209069,0.0167013537079756
-547.26560632,0.0167013537079756
-547.11912195,0.0167013537079756
-546.97263758,0.0167013537079756
-546.82615321,0.0167013537079756
-546.67966884,0.0167013537079756
-546.53318447,0.0167013537079756
-546.3867001,0.0167013537079756
-546.24021573,0.0167013537079756
-546.09373136,0.0167013537079756
-545.9472469900001,0.0167013537079756
-545.80076262,0.0167013537079756
-545.6542782499999,0.0167013537079756
-545.50779388,0.0167013537079756
-545.36130951,0.0167013537079756
-545.21482514,0.0167013537079756
-545.06834077,0.0167013537079756
-544.9218564,0.0167013537079756
-544.77537203,0.0167013537079756
-544.62888766,0.0167013537079756
-544.48240329,0.0167013537079756
-544.33591892,0.0167013537079756
-544.18943455,0.0167013537079756
-544.04295018,0.007951145122588241
-543.89646581,0.005931866218263184
-543.7499814399999,0.005931866218263337
-543.60349707,0.006268412702316697
-543.4570127,0.006268412702316697
-543.31052833,0.006268412702316697
-543.16404396,0.006268412702316697
-543.01755959,0.006268412702316697
-542.87107522,0.006268412702316697
-542.72459085,0.006268412702316697
-542.57810648,0.006268412702316697
-542.43162211,0.006268412702316697
-542.28513774,0.006268412702316697
-542.13865337,0.006268412702316697
-541.992169,0.006268412702316697
-541.8456846300001,0.006268412702316697
-541.69920026,0.006268412702316697
-541.5527158899999,0.006268412702316697
-541.40623152,0.006268412702316697
-541.25974715,0.006268412702316697
-541.11326278,0.006268412702316697
-540.96677841,0.006268412702316697
-540.82029404,0.006268412702316697
-540.67380967,0.006268412702316697
-540.5273253,0.006268412702316697
-540.38084093,0.006268412702316697
-540.23435656,0.006268412702316697
-540.08787219,0.006268412702316697
-539.94138782,0.006268412702316697
-539.79490345,0.006268412702316697
-539.6484190800001,0.006268412702316697
-539.50193471,0.006268412702316697
-539.3554503399999,0.006268412702316697
-539.20896597,0.006268412702316697
-539.0624816,0.006268412702316697
-538.91599723,0.006268412702316697
-538.76951286,0.006268412702316697
-538.62302849,0.006268412702316697
-538.47654412,0.006268412702316697
-538.33005975,0.006268412702316697
-538.18357538,0.006268412702316697
-538.03709101,0.006268412702316697
-537.89060664,0.006268412702316697
-537.74412227,0.006268412702316697
-537.5976379,0.006268412702316697
-537.4511535299999,0.006268412702316697
-537.30466916,0.006268412702316697
-537.15818479,0.006268412702316697
-537.01170042,0.006268412702316697
-536.86521605,0.006268412702316697
-536.71873168,0.006268412702316697
-536.57224731,0.006268412702316697
-536.42576294,0.006268412702316697
-536.27927857,0.006268412702316697
-536.1327942,0.006268412702316697
-535.98630983,0.006268412702316697
-535.83982546,0.006268412702316697
-535.69334109,0.006268412702316697
-535.5468567200001,0.006268412702316697
-535.40037235,0.006268412702316697
-535.2538879799999,0.006268412702316697
-535.10740361,0.006268412702316697
-534.96091924,0.006268412702316697
-534.81443487,0.006268412702316697
-534.6679505,0.006268412702316697
-534.52146613,0.006268412702316697
-534.37498176,0.006268412702316697
-534.22849739,0.006268412702316697
-534.08201302,0.006268412702316697
-533.93552865,0.006268412702316697
-533.78904428,0.006268412702316697
-533.64255991,0.006268412702316697
-533.49607554,0.006268412702316697
-533.3495911700001,0.006268412702316697
-533.2031068,0.006268412702316697
-533.0566224299999,0.006268412702316697
-532.91013806,0.006268412702316697
-532.76365369,0.006268412702316697
-532.61716932,0.006268412702316697
-532.47068495,0.006268412702316697
-532.32420058,0.006268412702316697
-532.17771621,0.006268412702316697
-532.03123184,0.006268412702316697
-531.88474747,0.006268412702316697
-531.7382631,0.006268412702316697
-531.59177873,0.006268412702316697
-531.44529436,0.006268412702316697
-531.29880999,0.006268412702316697
-531.1523256199999,0.006268412702316697
-531.00584125,0.006268412702316697
-530.85935688,0.006268412702316697
-530.71287251,0.006268412702316697
-530.56638814,0.006268412702316697
-530.41990377,0.006268412702316697
-530.2734194,0.006268412702316697
-530.12693503,0.006268412702316697
-529.98045066,0.006268412702316697
-529.83396629,0.006268412702316697
-529.68748192,0.006268412702316697
-529.54099755,0.006268412702316697
-529.39451318,0.006268412702316697
-529.2480288100001,0.006268412702316697
-529.10154444,0.006268412702316697
-528.9550600699999,0.006268412702316697
-528.8085757,0.006268412702316697
-528.66209133,0.006268412702316697
-528.51560696,0.006268412702316697
-528.36912259,0.006268412702316697
-528.22263822,0.006268412702316697
-528.07615385,0.006268412702316697
-527.92966948,0.006268412702316697
-527.78318511,0.006268412702316697
-527.63670074,0.006268412702316697
-527.49021637,0.006268412702316697
-527.343732,0.006268412702316697
-527.19724763,0.006268412702316697
-527.0507632600001,0.006268412702316697
-526.90427889,0.006268412702316697
-526.7577945199999,0.006268412702316697
-526.61131015,0.006268412702316697
-526.46482578,0.006268412702316697
-526.31834141,0.006268412702316697
-526.17185704,0.006268412702316697
-526.02537267,0.006268412702316697
-525.8788883,0.006268412702316697
-525.73240393,0.006268412702316697
-525.58591956,0.006268412702316697
-525.43943519,0.006268412702316697
-525.29295082,0.006268412702316697
-525.14646645,0.006268412702316697
-524.99998208,0.006268412702316697
-524.8534977099999,0.006268412702316697
-524.70701334,0.006268412702316697
-524.56052897,0.006268412702316697
-524.4140446,0.006268412702316697
-524.26756023,0.006268412702316697
-524.12107586,0.006268412702316697
-523.97459149,0.006268412702316697
-523.82810712,0.006268412702316697
-523.68162275,0.006268412702316697
-523.53513838,0.006268412702316697
-523.38865401,0.006268412702316697
-523.24216964,0.006268412702316697
-523.09568527,0.006268412702316697
-522.9492009000001,0.006268412702316697
-522.80271653,0.006268412702316697
-522.6562321599999,0.006268412702316697
-522.50974779,0.006268412702316697
-522.36326342,0.006268412702316697
-522.21677905,0.006268412702316697
-522.07029468,0.006268412702316697
-521.92381031,0.006268412702316697
-521.77732594,0.006268412702316697
-521.63084157,0.006268412702316697
-521.4843572,0.006268412702316697
-521.33787283,0.006268412702316697
-521.19138846,0.006268412702316697
-521.04490409,0.006268412702316697
-520.89841972,0.006268412702316697
-520.7519353500001,0.006268412702316697
-520.60545098,0.006268412702316697
-520.4589666099999,0.006268412702316697
-520.31248224,0.006268412702316697
-520.16599787,0.006268412702316697
-520.0195135,0.006268412702316697
-519.87302913,0.006268412702316697
-519.72654476,0.006268412702316697
-519.58006039,0.006268412702316697
-519.43357602,0.006268412702316697
-519.28709165,0.006268412702316697
-519.14060728,0.006268412702316697
-518.99412291,0.006268412702316697
-518.84763854,0.006268412702316697
-518.70115417,0.006268412702316697
-518.5546697999999,0.006268412702316697
-518.40818543,0.006268412702316697
-518.26170106,0.006268412702316697
-518.11521669,0.006268412702316697
-517.96873232,0.006268412702316697
-517.82224795,0.006268412702316697
-517.67576358,0.006268412702316697
-517.52927921,0.006268412702316697
-517.38279484,0.006268412702316697
-517.23631047,0.006268412702316697
-517.0898261,0.006268412702316697
-516.94334173,0.006268412702316697
-516.79685736,0.006268412702316697
-516.6503729900001,0.006268412702316697
-516.50388862,0.006268412702316697
-516.3574042499999,0.006268412702316697
-516.21091988,0.006268412702316697
-516.06443551,0.006268412702316697
-515.91795114,0.006268412702316697
-515.77146677,0.006268412702316697
-515.6249824,0.006268412702316697
-515.47849803,0.006268412702316697
-515.33201366,0.006268412702316697
-515.18552929,0.006268412702316697
-515.03904492,0.006268412702316697
-514.89256055,0.006268412702316697
-514.74607618,0.006268412702316697
-514.59959181,0.006268412702316697
-514.4531074400001,0.006268412702316697
-514.30662307,0.006268412702316697
-514.1601386999999,0.006268412702316697
-514.01365433,0.006268412702316697
-513.86716996,0.006268412702316697
-513.72068559,0.006268412702316697
-513.57420122,0.006268412702316697
-513.42771685,0.006268412702316697
-513.28123248,0.006268412702316697
-513.13474811,0.006268412702316697
-512.98826374,0.006268412702316697
-512.84177937,0.006268412702316697
-512.695295,0.006268412702316697
-512.54881063,0.006268412702316697
-512.40232626,0.006268412702316697
-512.2558418899999,0.006268412702316697
-512.10935752,0.006268412702316697
-511.96287315,0.006268412702316697
-511.81638878,0.006268412702316697
-511.66990441,0.006268412702316697
-511.52342004,0.006268412702316697
-511.37693567,0.006268412702316697
-511.2304513,0.006268412702316697
-511.08396693,0.006268412702316697
-510.93748256,0.006268412702316697
-510.79099819,0.006268412702316697
-510.64451382,0.006268412702316697
-510.49802945,0.006268412702316697
-510.35154508,0.006268412702316697
-510.20506071,0.006268412702316697
-510.05857634,0.006268412702316697
-509.91209197,0.006268412702316697
-509.7656076,0.006268412702316697
-509.61912323,0.006268412702316697
-509.47263886,0.006268412702316697
-509.32615449,0.006268412702316697
-509.17967012,0.006268412702316697
-509.03318575,0.006268412702316697
-508.88670138,0.006268412702316697
-508.74021701,0.006268412702316697
-508.59373264,0.006268412702316697
-508.44724827,0.006268412702316697
-508.3007639,0.006268412702316697
-508.15427953,0.006268412702316697
-508.00779516,0.006268412702316697
-507.86131079,0.006268412702316697
-507.71482642,0.006268412702316697
-507.56834205,0.006268412702316697
-507.42185768,0.006268412702316697
-507.27537331,0.006268412702316697
-507.12888894,0.006268412702316697
-506.98240457,0.006268412702316697
-506.8359202,0.006268412702316697
-506.68943583,0.006268412702316697
-506.54295146,0.006268412702316697
-506.39646709,0.006268412702316697
-506.24998272,0.006268412702316697
-506.10349835,0.006268412702316697
-505.95701398,0.006268412702316697
-505.81052961,0.006268412702316697
-505.66404524,0.006268412702316697
-505.51756087,0.006268412702316697
-505.3710765,0.006268412702316697
-505.22459213,0.006268412702316697
-505.07810776,0.006268412702316697
-504.93162339,0.006268412702316697
-504.78513902,0.006268412702316697
-504.63865465,0.006268412702316697
-504.49217028,0.006268412702316697
-504.34568591,0.006268412702316697
-504.19920154,0.006268412702316697
-504.05271717,0.006268412702316697
-503.9062328,0.006268412702316697
-503.75974843,0.006268412702316697
-503.61326406,0.006268412702316697
-503.46677969,0.006268412702316697
-503.32029532,0.006268412702316697
-503.17381095,0.006268412702316697
