Testing/Satellite beacon testing/Regulator Testing/measurements/worse resolution/no_regulator_1Ohm.csv

#Digilent WaveForms Oscilloscope Acquisition
#Device Name: Discovery2
#Serial Number: SN:210321A95EED
#Date Time: 2020-04-16 08:45:14.237
#Sample rate: 68.2667Hz
#Samples: 7804
#Trigger: Source: Channel 1 Type: Edge Condition: Rising Level: 0 V Hyst.: Auto HoldOff: 0 s
#Channel 1: Range: 800 mV/div Offset: -4 V Attenuation: 1 X
#Channel 2: Range: 800 mV/div Offset: -4 V Attenuation: 1 X

Time (s),Channel 1 (V),Channel 2 (V)
-58.59376,2.947991241601546,2.947849737692026
-58.57911156,0.1115272148225048,0.1226345509661289
-58.56446312,0.1115272148212147,0.1189462804860879
-58.54981468,0.1115272148212147,0.1189462804860879
-58.53516624,0.1115272148212147,0.1189462804860879
-58.5205178,0.1115272148212147,0.1189462804860879
-58.50586936,0.1115272148212147,0.1189462804860879
-58.49122092,0.1115272148212147,0.1189462804860879
-58.47657247999999,0.1115272148212147,0.1189462804860879
-58.46192404,0.1115272148212147,0.1189462804860879
-58.4472756,0.1115272148212147,0.1189462804860879
-58.43262716,0.1078290870157645,0.1189462804860879
-58.41797872,0.1078290870157645,0.1189462804860879
-58.40333028,0.1078290870157645,0.1152580100073317
-58.38868184,0.1078290870157645,0.1152580100073317
-58.37403339999999,0.1078290870157645,0.1152580100073317
-58.35938496,0.1078290870157645,0.1152580100073317
-58.34473652,0.1078290870157645,0.1152580100073317
-58.33008808,0.1078290870157645,0.1152580100073317
-58.31543964,0.1041309592103143,0.1152580100073317
-58.3007912,0.1041309592103143,0.1152580100073317
-58.28614276,0.1041309592103143,0.111569739528576
-58.27149432,0.1041309592103143,0.111569739528576
-58.25684588,0.1041309592103143,0.111569739528576
-58.24219744,0.1041309592103143,0.111569739528576
-58.227549,0.1041309592103143,0.111569739528576
-58.21290056,0.1041309592103143,0.111569739528576
-58.19825212,0.1004328314048641,0.111569739528576
-58.18360368,0.1004328314048641,0.111569739528576
-58.16895524,0.1004328314048641,0.111569739528576
-58.1543068,0.1004328314048641,0.1078814690498198
-58.13965836,0.1004328314048641,0.1078814690498198
-58.12500992,0.1004328314048641,0.1078814690498198
-58.11036147999999,0.115225342626665,0.1226345509648441
-58.09571304,0.1189234704321152,0.1263228214436003
-58.0810646,0.1189234704321152,0.1263228214436003
-58.06641616,0.1189234704321152,0.1263228214436003
-58.05176772,0.115225342626665,0.1263228214436003
-58.03711928,0.115225342626665,0.1263228214436003
-58.02247084,0.115225342626665,0.1226345509648441
-58.00782239999999,0.115225342626665,0.1226345509648441
-57.99317396,0.115225342626665,0.1226345509648441
-57.97852552,0.115225342626665,0.1226345509648441
-57.96387708,0.115225342626665,0.1226345509648441
-57.94922864,0.1115272148212147,0.1226345509648441
-57.9345802,0.1115272148212147,0.1226345509648441
-57.91993176,0.1115272148212147,0.1189462804860879
-57.90528332,0.1115272148212147,0.1189462804860879
-57.89063488,0.1115272148212147,0.1189462804860879
-57.87598644,0.1115272148212147,0.1189462804860879
-57.861338,0.1115272148212147,0.1189462804860879
-57.84668955999999,0.1115272148212131,0.1189462804860879
-57.83204112,0.1078290870157645,0.1189462804860879
-57.81739268,0.1078290870157645,0.1152580100073317
-57.80274424,0.1078290870157645,0.1152580100073317
-57.7880958,0.1078290870157645,0.1152580100073317
-57.77344736,0.1078290870157645,0.1152580100073317
-57.75879892,0.1078290870157645,0.1152580100073317
-57.74415047999999,0.1078290870157645,0.1152580100073317
-57.72950204,0.1078290870157645,0.1152580100073317
-57.7148536,0.1078290870157645,0.1152580100073317
-57.70020516,0.1041309592103143,0.111569739528576
-57.68555672,0.1041309592103143,0.111569739528576
-57.67090828,0.1041309592103143,0.111569739528576
-57.65625984,0.1041309592103143,0.111569739528576
-57.6416114,0.1041309592103143,0.111569739528576
-57.62696296,0.1041309592103143,0.111569739528576
-57.61231452,0.1041309592103143,0.111569739528576
-57.59766608,0.1004328314048641,0.111569739528576
-57.58301764,0.1004328314048641,0.111569739528576
-57.5683692,0.1004328314048641,0.1078814690498198
-57.55372076,0.1004328314048641,0.1078814690498198
-57.53907232,0.1004328314048641,0.1078814690498198
-57.52442388,0.1004328314048641,0.1078814690498198
-57.50977544,0.1004328314048641,0.1078814690498198
-57.495127,0.09673470359941394,0.1078814690498198
-57.48047855999999,0.09673470359941394,0.1078814690498198
-57.46583012,0.09673470359941394,0.1078814690498198
-57.45118168,0.09673470359941394,0.1041931985710636
-57.43653324,0.09673470359941394,0.1041931985710636
-57.4218848,0.09673470359941394,0.1041931985710636
-57.40723636,0.09673470359941394,0.1041931985710636
-57.39258792,0.09673470359941394,0.1041931985710636
-57.37793947999999,0.09673470359941394,0.1041931985710636
-57.36329104,0.09303657579396329,0.1041931985710636
-57.3486426,0.09303657579396329,0.1041931985710636
-57.33399416,0.09303657579396329,0.1041931985710636
-57.31934572,0.09303657579396329,0.1005049280923074
-57.30469728,0.09303657579396329,0.1005049280923074
-57.29004884,0.09303657579396329,0.1005049280923074
-57.2754004,0.09303657579396329,0.1005049280923074
-57.26075196,0.09303657579396329,0.1005049280923074
-57.24610352,0.09303657579396329,0.1005049280923074
-57.23145508,0.08933844798851309,0.1005049280923074
-57.21680663999999,0.08933844798851309,0.1005049280923074
-57.2021582,0.08933844798851309,0.1005049280923074
-57.18750976,0.08933844798851309,0.1005049280923074
-57.17286132,0.08933844798851309,0.09681665761355118
-57.15821288,0.08933844798851309,0.09681665761355118
-57.14356444,0.08933844798851309,0.09681665761355118
-57.128916,0.08933844798851309,0.09681665761355118
-57.11426755999999,0.08933844798851309,0.09681665761355118
-57.09961912,0.08933844798851309,0.09681665761355118
-57.08497068,0.08564032018306289,0.09681665761355118
-57.07032224,0.08564032018306289,0.09681665761355118
-57.0556738,0.08564032018306289,0.09312838713479543
-57.04102536,0.08564032018306289,0.09312838713479543
-57.02637692,0.08564032018306289,0.09312838713479543
-57.01172848,0.08564032018306289,0.09312838713479543
-56.99708004,0.1041309592103143,0.111569739528576
-56.9824316,0.1041309592103143,0.111569739528576
-56.96778316,0.1041309592103143,0.111569739528576
-56.95313472,0.1041309592103143,0.111569739528576
-56.93848628,0.1004328314048641,0.111569739528576
-56.92383784,0.1004328314048641,0.111569739528576
-56.9091894,0.1004328314048641,0.1078814690498198
-56.89454096,0.1004328314048641,0.1078814690498198
-56.87989252,0.1004328314048641,0.1078814690498198
-56.86524408,0.1004328314048641,0.1078814690498198
-56.85059563999999,0.1004328314048641,0.1078814690498198
-56.8359472,0.1004328314048641,0.1078814690498198
-56.82129876,0.09673470359941394,0.1041931985710636
-56.80665032,0.09673470359941394,0.1041931985710636
-56.79200188,0.09673470359941394,0.1041931985710636
-56.77735344,0.09673470359941394,0.1041931985710636
-56.762705,0.09673470359941394,0.1041931985710636
-56.74805655999999,0.09673470359941394,0.1041931985710636
-56.73340812,0.09673470359941394,0.1041931985710636
-56.71875968,0.09673470359941394,0.1041931985710636
-56.70411124,0.09303657579396329,0.1041931985710636
-56.6894628,0.09303657579396329,0.1041931985710636
-56.67481436,0.09303657579396329,0.1005049280923074
-56.66016592,0.09303657579396329,0.1005049280923074
-56.64551748,0.09303657579396329,0.1005049280923074
-56.63086904,0.09303657579396329,0.1005049280923074
-56.6162206,0.09303657579396329,0.1005049280923074
-56.60157216,0.09303657579396329,0.1005049280923074
-56.58692371999999,0.09303657579396162,0.1005049280923074
-56.57227528,0.08933844798851309,0.1005049280923074
-56.55762684,0.08933844798851309,0.09681665761355118
-56.5429784,0.08933844798851309,0.09681665761355118
-56.52832996,0.08933844798851309,0.09681665761355118
-56.51368152,0.08933844798851309,0.09681665761355118
-56.49903308,0.08933844798851309,0.09681665761355118
-56.48438463999999,0.08933844798851309,0.09681665761355118
-56.4697362,0.08933844798851309,0.09681665761355118
-56.45508776,0.08564032018306289,0.09681665761355118
-56.44043932,0.08564032018306289,0.09681665761355118
-56.42579088,0.08564032018306289,0.09681665761355118
-56.41114244,0.08564032018306289,0.09312838713479543
-56.396494,0.08564032018306289,0.09312838713479543
-56.38184556,0.08564032018306289,0.09312838713479543
-56.36719712,0.08564032018306289,0.09312838713479543
-56.35254868,0.08564032018306289,0.09312838713479543
-56.33790024,0.08564032018306289,0.09312838713479543
-56.3232518,0.08564032018306289,0.09312838713479543
-56.30860336,0.08564032018306289,0.09312838713479543
-56.29395492,0.08194219237761269,0.09312838713479543
-56.27930648,0.08194219237761269,0.08944011665603924
-56.26465804,0.08194219237761269,0.08944011665603924
-56.2500096,0.08194219237761269,0.08944011665603924
-56.23536116,0.08194219237761269,0.08944011665603924
-56.22071271999999,0.08194219237761269,0.08944011665603924
-56.20606428,0.08194219237761269,0.08944011665603924
-56.19141584,0.08194219237761269,0.08944011665603924
-56.1767674,0.08194219237761269,0.08944011665603924
-56.16211896,0.07824406457216249,0.08944011665603924
-56.14747052,0.07824406457216249,0.08575184617728304
-56.13282208,0.07824406457216249,0.08575184617728304
-56.11817363999999,0.07824406457216249,0.08575184617728304
-56.1035252,0.07824406457216249,0.08575184617728304
-56.08887676,0.07824406457216249,0.08575184617728304
-56.07422832,0.07824406457216249,0.08575184617728304
-56.05957988,0.07824406457216249,0.08575184617728304
-56.04493144,0.07824406457216249,0.08575184617728304
-56.030283,0.07824406457216249,0.08575184617728304
-56.01563456,0.07824406457216249,0.08206357569852685
-56.00098612,0.07824406457216249,0.08206357569852685
-55.98633768,0.07454593676671228,0.08206357569852685
-55.97168924,0.07454593676671228,0.08206357569852685
-55.9570408,0.07454593676671228,0.08206357569852685
-55.94239236,0.07454593676671228,0.08206357569852685
-55.92774392,0.07454593676671228,0.08206357569852685
-55.91309548,0.07454593676671228,0.07837530521977065
-55.89844704,0.07454593676671228,0.07837530521977065
-55.8837986,0.07454593676671228,0.07837530521977065
-55.86915016,0.07454593676671228,0.07837530521977065
-55.85450171999999,2.781575490356285,2.76343621375422
-55.83985328,4.996754045820977,4.9837750419654
-55.82520484,4.985659662404626,4.976398501007887
-55.8105564,4.989357790210077,4.980086771486643
-55.79590796,4.993055918015527,4.980086771486643
-55.78125952,4.941282128739224,4.921074443826546
-55.76661108,4.856225189213868,4.832555952336399
-55.75196264,4.837734550186617,4.814114599942618
-55.7373142,4.848828933602968,4.825179411378887
-55.72266576,4.867319572630219,4.843620763772668
-55.70801732,4.88581021165747,4.862062116166448
-55.69336888,4.900602722879264,4.876815198081466
-55.67872044,4.952376512155574,4.93582752574157
-55.664072,4.978263406793726,4.961645419092863
-55.64942356,4.859923317019319,4.847309034251424
-55.63477512,4.811847655548465,4.799361518027594
-55.62012668,4.808149527743016,4.791984977070082
-55.60547824,4.819243911159366,4.803049788506351
-55.59082979999999,4.837734550186625,4.821491140900139
-55.57618136,4.856225189213868,4.839932493293912
-55.56153292,4.87101770043567,4.854685575208936
-55.54688448,4.88581021165747,4.86943865712396
-55.53223604,4.896904595073821,4.880503468560229
-55.5175876,4.907998978490172,4.891568279996497
-55.50293916,4.915395234101072,4.898944820954009
-55.48829071999999,4.919093361906523,4.902633091432765
-55.47364228,4.922791489711972,4.906321361911521
-55.45899384,4.922791489711972,4.906321361911521
-55.4443454,4.922791489711972,4.906321361911521
-55.42969696,4.922791489711972,4.906321361911521
-55.41504852,4.922791489711972,4.906321361911521
-55.40040008,4.922791489711972,4.906321361911521
-55.38575164,4.922791489711972,4.906321361911521
-55.3711032,4.922791489711972,4.906321361911521
-55.35645476,4.922791489711972,4.906321361911521
-55.34180632,4.922791489711972,4.906321361911521
-55.32715788,4.922791489711972,4.906321361911521
-55.31250944,4.919093361906523,4.902633091432765
-55.297861,4.919093361906523,4.902633091432765
-55.28321256,4.919093361906523,4.902633091432765
-55.26856412,4.919093361906523,4.902633091432765
-55.25391568,4.919093361906523,4.902633091432765
-55.23926724,4.919093361906523,4.902633091432765
-55.22461879999999,4.919093361906523,4.902633091432765
-55.20997036,4.919093361906523,4.902633091432765
-55.19532192,4.919093361906523,4.902633091432765
-55.18067348,4.919093361906523,4.902633091432765
-55.16602504,4.919093361906523,4.902633091432765
-55.1513766,4.919093361906523,4.902633091432765
-55.13672816,4.922791489711972,4.902633091432765
-55.12207972,4.922791489711972,4.902633091432765
-55.10743128,4.919093361906523,4.902633091432765
-55.09278284,4.919093361906523,4.902633091432765
-55.0781344,4.919093361906523,4.902633091432765
-55.06348596,4.919093361906523,4.902633091432765
-55.04883752,4.919093361906523,4.902633091432765
-55.03418908,4.919093361906523,4.902633091432765
-55.01954064,4.919093361906523,4.902633091432765
-55.0048922,4.919093361906523,4.902633091432765
-54.99024376,4.919093361906523,4.902633091432765
-54.97559532,4.919093361906523,4.902633091432765
-54.96094687999999,4.922791489711972,4.902633091432767
-54.94629844,4.922791489711972,4.906321361911521
-54.93165,4.922791489711972,4.906321361911521
-54.91700156,4.922791489711972,4.906321361911521
-54.90235312,4.922791489711972,4.906321361911521
-54.88770468,4.922791489711972,4.902633091432765
-54.87305624,4.922791489711972,4.902633091432765
-54.85840779999999,4.922791489711972,4.902633091432765
-54.84375936,4.919093361906523,4.902633091432765
-54.82911092,4.919093361906523,4.902633091432765
-54.81446248,4.919093361906523,4.902633091432765
-54.79981404,4.919093361906523,4.902633091432765
-54.7851656,4.919093361906523,4.902633091432765
-54.77051716,4.919093361906523,4.902633091432765
-54.75586872,4.919093361906523,4.902633091432765
-54.74122028,4.919093361906523,4.902633091432765
-54.72657184,4.919093361906523,4.902633091432765
-54.7119234,4.919093361906523,4.902633091432765
-54.69727496,4.919093361906523,4.902633091432765
-54.68262652,4.922791489711972,4.902633091432765
-54.66797808,4.922791489711972,4.902633091432765
-54.65332964,4.922791489711972,4.902633091432765
-54.6386812,4.922791489711972,4.902633091432765
-54.62403276,4.922791489711972,4.902633091432765
-54.60938432,4.919093361906523,4.902633091432765
-54.59473587999999,4.919093361906523,4.902633091432765
-54.58008744,4.919093361906523,4.902633091432765
-54.565439,4.919093361906523,4.902633091432765
-54.55079056,4.919093361906523,4.902633091432765
-54.53614212,4.919093361906523,4.902633091432765
-54.52149368,4.919093361906523,4.902633091432765
-54.50684524,4.919093361906523,4.902633091432765
-54.49219679999999,4.919093361906523,4.902633091432765
-54.47754836,4.922791489711972,4.906321361911521
-54.46289992,4.926489617517423,4.910009632390278
-54.44825148,4.926489617517423,4.910009632390278
-54.43360304,4.926489617517423,4.910009632390278
-54.4189546,4.926489617517423,4.910009632390278
-54.40430616,4.926489617517423,4.910009632390278
-54.38965772,4.930187745322873,4.913697902869034
-54.37500928,4.896904595073821,4.876815198081473
-54.36036084,4.915395234101072,4.902633091432765
-54.3457124,4.941282128739224,4.928450984784059
-54.33106395999999,4.952376512155574,4.939515796220326
-54.31641552,4.952376512155574,4.939515796220326
-54.30176708,4.948678384350124,4.93582752574157
-54.28711864,4.944980256544675,4.928450984784059
-54.2724702,4.937584000933773,4.924762714305302
-54.25782176,4.937584000933773,4.924762714305302
-54.24317332,4.956074639961025,4.943204066699082
-54.22852487999999,4.963470895571925,4.954268878135351
-54.21387644,4.963470895571925,4.950580607656595
-54.199228,4.956074639961025,4.946892337177839
-54.18457956,4.952376512155574,4.939515796220326
-54.16993112,4.944980256544675,4.932139255262814
-54.15528268,4.944980256544675,4.932139255262814
-54.14063424,5.026339068264579,5.028034287710473
-54.1259858,5.081810985346333,5.083358344891815
-54.11133736,5.096603496568134,5.098111426806839
-54.09668892,5.092905368762684,5.094423156328083
-54.08204048,5.078112857540883,5.075981803934303
-54.06739204,5.059622218513639,5.061228722019285
-54.0527436,5.04482970729183,5.046475640104253
-54.03809516,5.03743345168093,5.039099099146742
-54.02344672,5.026339068264579,5.024346017231717
-54.00879828,5.007848429237328,5.009592935316693
-53.99414984,4.993055918015527,4.994839853401668
-53.9795014,4.981961534599177,4.980086771486643
-53.96485295999999,4.96716902337737,4.969021960050368
-53.95020452,4.956074639961025,4.954268878135351
-53.93555608,4.941282128739224,4.943204066699082
-53.92090764,4.933885873128323,4.932139255262814
-53.9062592,4.922791489711972,4.924762714305302
-53.89161076,4.919093361906523,4.91738617334779
-53.87696232,4.919093361906523,4.91738617334779
-53.86231387999999,4.919093361906523,4.91738617334779
-53.84766544,4.919093361906523,4.91738617334779
-53.833017,4.922791489711972,4.921074443826546
-53.81836856,4.926489617517423,4.924762714305302
-53.80372012,4.930187745322873,4.928450984784059
-53.78907168,4.930187745322873,4.932139255262814
-53.77442324,4.937584000933773,4.93582752574157
-53.7597748,4.941282128739224,4.939515796220326
-53.74512636,4.941282128739224,4.943204066699082
-53.73047792,4.944980256544675,4.943204066699082
-53.71582948,4.944980256544675,4.946892337177839
-53.70118103999999,4.944980256544675,4.946892337177839
-53.6865326,4.944980256544675,4.946892337177839
-53.67188416,4.944980256544675,4.946892337177839
-53.65723572,4.944980256544675,4.946892337177839
-53.64258728,4.948678384350124,4.946892337177839
-53.62793884,4.944980256544675,4.946892337177839
-53.6132904,4.944980256544675,4.946892337177839
-53.59864195999999,4.948678384350124,4.946892337177839
-53.58399352,4.948678384350124,4.946892337177839
-53.56934508,4.944980256544675,4.946892337177839
-53.55469664,4.948678384350124,4.946892337177839
-53.5400482,4.948678384350124,4.946892337177839
-53.52539976,4.948678384350124,4.950580607656595
-53.51075132,4.948678384350124,4.950580607656595
-53.49610288,4.948678384350124,4.950580607656595
-53.48145444,4.948678384350124,4.950580607656595
-53.466806,4.948678384350124,4.950580607656595
-53.45215756,4.948678384350124,4.950580607656595
-53.43750912,4.952376512155572,4.950580607656595
-53.42286068,4.948678384350124,4.950580607656595
-53.40821224,4.948678384350124,4.950580607656595
-53.3935638,4.948678384350124,4.950580607656595
-53.37891536,4.948678384350124,4.950580607656595
-53.36426692,4.948678384350124,4.950580607656595
-53.34961848,4.948678384350124,4.950580607656595
-53.33497003999999,4.948678384350124,4.950580607656595
-53.3203216,4.948678384350124,4.950580607656595
-53.30567316,4.948678384350124,4.950580607656595
-53.29102472,4.948678384350124,4.950580607656595
-53.27637628,4.948678384350124,4.950580607656595
-53.26172784,4.948678384350124,4.950580607656595
-53.2470794,4.948678384350124,4.950580607656595
-53.23243095999999,4.948678384350124,4.950580607656595
-53.21778252,4.948678384350124,4.950580607656595
-53.20313408,4.948678384350124,4.950580607656595
-53.18848564,4.948678384350124,4.950580607656595
-53.1738372,4.948678384350124,4.950580607656595
-53.15918876,4.948678384350124,4.946892337177839
-53.14454032,4.952376512155574,4.950580607656595
-53.12989188,4.952376512155574,4.950580607656595
-53.11524344,4.952376512155574,4.950580607656595
-53.100595,4.952376512155574,4.950580607656595
-53.08594656,4.948678384350124,4.950580607656595
-53.07129812,4.948678384350124,4.94689233717784
-53.05664968,4.948678384350124,4.950580607656595
-53.04200124,4.948678384350124,4.950580607656595
-53.0273528,4.948678384350124,4.950580607656595
-53.01270436,4.948678384350124,4.950580607656595
-52.99805592,4.948678384350124,4.946892337177839
-52.98340748,4.948678384350124,4.950580607656595
-52.96875903999999,4.948678384350124,4.950580607656595
-52.9541106,4.948678384350124,4.950580607656595
-52.93946216,4.948678384350124,4.950580607656595
