Testing/Satellite beacon testing/Regulator Testing/measurements/worse resolution/TS2940CZ_regulator_2Ohm.csv

#Digilent WaveForms Oscilloscope Acquisition
#Device Name: Discovery2
#Serial Number: SN:210321A95EED
#Date Time: 2020-04-16 09:04:12.241
#Sample rate: 68.2667Hz
#Samples: 7683
#Trigger: Source: Channel 1 Type: Edge Condition: Rising Level: 0 V Hyst.: Auto HoldOff: 0 s
#Channel 1: Range: 800 mV/div Offset: -4 V Attenuation: 1 X
#Channel 2: Range: 800 mV/div Offset: -4 V Attenuation: 1 X

Time (s),Channel 1 (V),Channel 2 (V)
-58.59376,3.543389818279034,3.54166128477176
-58.57911156,0.06345155335194397,0.06731049378508258
-58.56446312,0.06345155335036168,0.06731049378350251
-58.54981468,0.06345155335036168,0.06731049378350251
-58.53516624,0.05975342554491148,0.06731049378350251
-58.5205178,0.05975342554491148,0.06731049378350251
-58.50586936,0.05975342554491148,0.06731049378350251
-58.49122092,0.05975342554491148,0.06731049378350251
-58.47657247999999,0.05975342554491148,0.06362222330474632
-58.46192404,0.05975342554491148,0.06362222330474632
-58.4472756,0.05975342554491148,0.06362222330474632
-58.43262716,0.05975342554491148,0.06362222330474632
-58.41797872,0.05975342554491148,0.06362222330474632
-58.40333028,0.05975342554491148,0.06362222330474632
-58.38868184,0.05605529773946127,0.06362222330474632
-58.37403339999999,0.05605529773946127,0.06362222330474632
-58.35938496,0.05605529773946127,0.06362222330474632
-58.34473652,0.05605529773946127,0.06362222330474632
-58.33008808,0.05605529773946127,0.05993395282599012
-58.31543964,0.05605529773946127,0.05993395282599012
-58.3007912,0.05605529773946127,0.05993395282599012
-58.28614276,0.05605529773946127,0.05993395282599012
-58.27149432,0.05605529773946127,0.05993395282599012
-58.25684588,0.05605529773946127,0.05993395282599012
-58.24219744,0.05605529773946127,0.05993395282599012
-58.227549,0.05235716993401107,0.05993395282599012
-58.21290056,0.05235716993401107,0.05993395282599012
-58.19825212,0.05235716993401107,0.05993395282599012
-58.18360368,0.05235716993401107,0.05993395282599012
-58.16895524,0.05235716993401107,0.05624568234723393
-58.1543068,0.05235716993401107,0.05624568234723393
-58.13965836,0.05235716993401107,0.05624568234723393
-58.12500992,0.05235716993401107,0.05624568234723393
-58.11036147999999,0.05235716993401107,0.05624568234723393
-58.09571304,0.05235716993401107,0.05624568234723393
-58.0810646,0.05235716993401107,0.05624568234723393
-58.06641616,0.04865904212856043,0.05624568234723393
-58.05176772,0.04865904212856043,0.05624568234723393
-58.03711928,0.04865904212856043,0.05624568234723393
-58.02247084,0.04865904212856043,0.05624568234723393
-58.00782239999999,0.04865904212856043,0.05624568234723393
-57.99317396,0.04865904212856043,0.05624568234723393
-57.97852552,0.04865904212856043,0.05255741186847818
-57.96387708,0.04865904212856043,0.05255741186847818
-57.94922864,0.04865904212856043,0.05255741186847818
-57.9345802,0.04865904212856043,0.05255741186847818
-57.91993176,0.04865904212856043,0.05255741186847818
-57.90528332,0.04496091432311022,0.05255741186847818
-57.89063488,0.04865904212856043,0.05255741186847818
-57.87598644,0.04496091432311022,0.05255741186847818
-57.861338,0.04496091432311022,0.05255741186847818
-57.84668955999999,0.04496091432311022,0.0525574118684765
-57.83204112,0.04496091432311022,0.04886914138972198
-57.81739268,0.04496091432311022,0.04886914138972198
-57.80274424,0.04496091432311022,0.04886914138972198
-57.7880958,0.04496091432311022,0.04886914138972198
-57.77344736,0.04496091432311022,0.04886914138972198
-57.75879892,0.04496091432311022,0.04886914138972198
-57.74415047999999,0.04496091432311022,0.04886914138972198
-57.72950204,0.04126278651766002,0.04886914138972198
-57.7148536,0.04126278651766002,0.04886914138972198
-57.70020516,0.04126278651766002,0.04886914138972198
-57.68555672,0.04126278651766002,0.04886914138972198
-57.67090828,0.04126278651766002,0.04886914138972198
-57.65625984,0.04126278651766002,0.04886914138972198
-57.6416114,0.04126278651766002,0.04886914138972198
-57.62696296,0.04126278651766002,0.04886914138972198
-57.61231452,0.04126278651766002,0.04518087091096579
-57.59766608,0.04126278651766002,0.04518087091096579
-57.58301764,0.04126278651766002,0.04518087091096579
-57.5683692,0.04126278651766002,0.04518087091096579
-57.55372076,0.04126278651766002,0.04518087091096579
-57.53907232,0.04126278651766002,0.04518087091096579
-57.52442388,0.04126278651766002,0.04518087091096579
-57.50977544,0.03756465871220982,0.04518087091096579
-57.495127,0.03756465871220982,0.04518087091096579
-57.48047855999999,0.03756465871220982,0.04518087091096579
-57.46583012,0.03756465871220982,0.04518087091096579
-57.45118168,0.03756465871220982,0.04518087091096579
-57.43653324,0.03756465871220982,0.04149260043220959
-57.4218848,0.03756465871220982,0.04518087091096579
-57.40723636,0.03756465871220982,0.04149260043220959
-57.39258792,0.03756465871220982,0.04149260043220959
-57.37793947999999,0.03756465871220982,0.04149260043220959
-57.36329104,0.03756465871220982,0.04149260043220959
-57.3486426,0.03756465871220982,0.04149260043220959
-57.33399416,0.03756465871220982,0.04149260043220959
-57.31934572,0.03756465871220982,0.04149260043220959
-57.30469728,0.03756465871220982,0.04149260043220959
-57.29004884,0.03386653090675962,0.04149260043220959
-57.2754004,0.03756465871220982,0.04149260043220959
-57.26075196,0.03756465871220982,0.04149260043220959
-57.24610352,0.03386653090675962,0.04149260043220959
-57.23145508,0.03386653090675962,0.0378043299534534
-57.21680663999999,0.03386653090675962,0.0378043299534534
-57.2021582,0.03386653090675962,0.0378043299534534
-57.18750976,1.631457742861262,1.605319283424801
-57.17286132,5.018942812653679,5.002216394359181
-57.15821288,4.915395234101072,4.898944820954009
-57.14356444,4.893206467268371,4.876815198081473
-57.128916,4.900602722879271,4.884191739038985
-57.11426755999999,4.896904595073821,4.873126927602716
-57.09961912,4.859923317019319,4.832555952336399
-57.08497068,4.852527061408418,4.825179411378887
-57.07032224,4.863621444824769,4.836244222815155
-57.0556738,4.88211208385202,4.85099730473018
-57.04102536,4.900602722879271,4.86943865712396
-57.02637692,4.915395234101072,4.884191739038985
-57.01172848,4.941282128739224,4.91738617334779
-56.99708004,4.981961534599177,4.961645419092863
-56.9824316,4.996754045820977,4.976398501007887
-56.96778316,5.000452173626428,4.980086771486643
-56.95313472,4.996754045820979,4.976398501007889
-56.93848628,4.989357790210077,4.969021960050375
-56.92383784,4.985659662404626,4.961645419092863
-56.9091894,4.978263406793726,4.954268878135351
-56.89454096,4.970867151182826,4.946892337177839
-56.87989252,4.963470895571925,4.939515796220326
-56.86524408,4.956074639961025,4.93582752574157
-56.85059563999999,4.952376512155572,4.928450984784059
-56.8359472,4.948678384350124,4.928450984784059
-56.82129876,4.948678384350124,4.924762714305302
-56.80665032,4.944980256544675,4.924762714305302
-56.79200188,4.944980256544675,4.921074443826546
-56.77735344,4.944980256544675,4.921074443826546
-56.762705,4.944980256544675,4.921074443826546
-56.74805655999999,4.944980256544675,4.921074443826546
-56.73340812,4.944980256544675,4.921074443826546
-56.71875968,4.944980256544675,4.921074443826546
-56.70411124,4.944980256544675,4.921074443826546
-56.6894628,4.944980256544675,4.921074443826546
-56.67481436,4.941282128739224,4.921074443826546
-56.66016592,4.941282128739224,4.921074443826546
-56.64551748,4.941282128739224,4.921074443826546
-56.63086904,4.941282128739224,4.91738617334779
-56.6162206,4.941282128739224,4.921074443826546
-56.60157216,4.941282128739224,4.921074443826546
-56.58692371999999,4.941282128739224,4.921074443826546
-56.57227528,4.941282128739224,4.921074443826546
-56.55762684,4.941282128739224,4.921074443826546
-56.5429784,4.941282128739224,4.921074443826546
-56.52832996,4.941282128739224,4.91738617334779
-56.51368152,4.941282128739224,4.91738617334779
-56.49903308,4.941282128739224,4.91738617334779
-56.48438463999999,4.941282128739224,4.91738617334779
-56.4697362,4.941282128739224,4.91738617334779
-56.45508776,4.941282128739224,4.91738617334779
-56.44043932,4.941282128739224,4.91738617334779
-56.42579088,4.941282128739224,4.91738617334779
-56.41114244,4.941282128739224,4.91738617334779
-56.396494,4.941282128739224,4.91738617334779
-56.38184556,4.941282128739224,4.91738617334779
-56.36719712,4.941282128739224,4.91738617334779
-56.35254868,4.941282128739224,4.91738617334779
-56.33790024,4.941282128739224,4.91738617334779
-56.3232518,4.941282128739224,4.91738617334779
-56.30860336,4.941282128739224,4.91738617334779
-56.29395492,4.937584000933773,4.91738617334779
-56.27930648,4.937584000933773,4.91738617334779
-56.26465804,4.937584000933773,4.91738617334779
-56.2500096,4.937584000933773,4.913697902869034
-56.23536116,4.937584000933773,4.91738617334779
-56.22071271999999,4.937584000933775,4.91738617334779
-56.20606428,4.941282128739224,4.91738617334779
-56.19141584,4.941282128739224,4.91738617334779
-56.1767674,4.941282128739224,4.91738617334779
-56.16211896,4.941282128739224,4.91738617334779
-56.14747052,4.941282128739224,4.91738617334779
-56.13282208,4.941282128739224,4.91738617334779
-56.11817363999999,4.941282128739224,4.91738617334779
-56.1035252,4.944980256544675,4.921074443826546
-56.08887676,4.944980256544675,4.921074443826546
-56.07422832,4.944980256544675,4.921074443826546
-56.05957988,4.944980256544675,4.921074443826546
-56.04493144,4.944980256544675,4.921074443826546
-56.030283,4.944980256544675,4.921074443826546
-56.01563456,4.944980256544675,4.921074443826546
-56.00098612,4.944980256544675,4.921074443826546
-55.98633768,4.944980256544675,4.921074443826546
-55.97168924,4.944980256544675,4.921074443826546
-55.9570408,4.944980256544675,4.921074443826546
-55.94239236,4.944980256544675,4.921074443826546
-55.92774392,4.944980256544675,4.921074443826546
-55.91309548,4.944980256544675,4.921074443826546
-55.89844704,4.944980256544675,4.921074443826546
-55.8837986,4.944980256544675,4.921074443826546
-55.86915016,4.944980256544675,4.921074443826546
-55.85450171999999,4.944980256544675,4.921074443826546
-55.83985328,4.941282128739224,4.921074443826546
-55.82520484,4.941282128739224,4.91738617334779
-55.8105564,4.941282128739224,4.91738617334779
-55.79590796,4.941282128739224,4.91738617334779
-55.78125952,4.941282128739224,4.91738617334779
-55.76661108,4.941282128739224,4.921074443826546
-55.75196264,4.941282128739224,4.91738617334779
-55.7373142,4.941282128739224,4.921074443826546
-55.72266576,4.944980256544675,4.921074443826546
-55.70801732,4.915395234101072,4.880503468560229
-55.69336888,4.907998978490175,4.887880009517737
-55.67872044,4.933885873128323,4.913697902869034
-55.664072,4.948678384350124,4.928450984784059
-55.64942356,4.956074639961025,4.93582752574157
-55.63477512,4.963470895571925,4.939515796220326
-55.62012668,4.963470895571925,4.939515796220326
-55.60547824,4.959772767766475,4.939515796220326
-55.59082979999999,4.956074639961032,4.935827525741577
-55.57618136,4.970867151182826,4.950580607656595
-55.56153292,4.978263406793726,4.961645419092863
-55.54688448,4.981961534599177,4.961645419092863
-55.53223604,4.970867151182826,4.950580607656595
-55.5175876,4.967169023377376,4.950580607656595
-55.50293916,4.959772767766475,4.939515796220326
-55.48829071999999,4.963470895571925,4.943204066699082
-55.47364228,4.989357790210077,4.980086771486643
-55.45899384,5.022640940459129,5.013281205795448
-55.4443454,5.033735323875479,5.024346017231717
-55.42969696,5.03003719607003,5.024346017231717
-55.41504852,5.022640940459129,5.013281205795448
-55.40040008,5.015244684848229,5.005904664837937
-55.38575164,5.004150301431878,4.994839853401668
-55.3711032,4.996754045820977,4.987463312444156
-55.35645476,4.985659662404626,4.976398501007887
-55.34180632,4.974565278988276,4.96533368957162
-55.32715788,4.967169023377379,4.957957148614111
-55.31250944,4.959772767766475,4.950580607656595
-55.297861,4.956074639961025,4.946892337177839
-55.28321256,4.956074639961025,4.946892337177839
-55.26856412,4.956074639961025,4.946892337177839
-55.25391568,4.956074639961025,4.946892337177839
-55.23926724,4.952376512155574,4.946892337177839
-55.22461879999999,4.952376512155574,4.943204066699082
-55.20997036,4.952376512155574,4.943204066699082
-55.19532192,4.948678384350124,4.939515796220326
-55.18067348,4.952376512155574,4.943204066699082
-55.16602504,4.948678384350124,4.939515796220326
-55.1513766,4.948678384350124,4.943204066699082
-55.13672816,4.948678384350124,4.939515796220326
-55.12207972,4.948678384350124,4.939515796220326
-55.10743128,4.952376512155574,4.943204066699082
-55.09278284,4.948678384350124,4.939515796220326
-55.0781344,4.948678384350124,4.943204066699082
-55.06348596,4.952376512155574,4.943204066699082
-55.04883752,4.944980256544675,4.939515796220326
-55.03418908,4.948678384350124,4.939515796220326
-55.01954064,4.952376512155574,4.943204066699082
-55.0048922,4.948678384350124,4.943204066699082
-54.99024376,4.948678384350124,4.939515796220326
-54.97559532,4.948678384350124,4.939515796220326
-54.96094687999999,4.952376512155574,4.943204066699084
-54.94629844,4.952376512155574,4.946892337177839
-54.93165,4.948678384350124,4.939515796220326
-54.91700156,4.944980256544675,4.939515796220326
-54.90235312,4.948678384350124,4.943204066699082
-54.88770468,4.952376512155574,4.943204066699082
-54.87305624,4.948678384350124,4.939515796220326
-54.85840779999999,4.948678384350124,4.939515796220326
-54.84375936,4.948678384350124,4.943204066699082
-54.82911092,4.948678384350124,4.943204066699082
-54.81446248,4.948678384350124,4.939515796220326
-54.79981404,4.948678384350124,4.939515796220326
-54.7851656,4.952376512155574,4.943204066699082
-54.77051716,4.952376512155574,4.943204066699082
-54.75586872,4.944980256544675,4.939515796220326
-54.74122028,4.948678384350124,4.943204066699082
-54.72657184,4.952376512155574,4.943204066699082
-54.7119234,4.948678384350124,4.939515796220326
-54.69727496,4.952376512155572,4.943204066699081
-54.68262652,4.948678384350124,4.939515796220326
-54.66797808,4.952376512155574,4.943204066699082
-54.65332964,4.952376512155574,4.943204066699082
-54.6386812,4.948678384350124,4.939515796220326
-54.62403276,4.948678384350124,4.943204066699082
-54.60938432,4.948678384350124,4.943204066699082
-54.59473587999999,4.948678384350126,4.939515796220328
-54.58008744,4.952376512155574,4.943204066699082
-54.565439,4.948678384350124,4.939515796220326
-54.55079056,4.952376512155574,4.943204066699082
-54.53614212,4.948678384350124,4.939515796220326
-54.52149368,4.948678384350124,4.939515796220326
-54.50684524,4.952376512155574,4.943204066699082
-54.49219679999999,4.948678384350124,4.939515796220326
-54.47754836,4.952376512155574,4.943204066699082
-54.46289992,4.948678384350124,4.939515796220326
-54.44825148,4.948678384350124,4.939515796220326
-54.43360304,4.952376512155574,4.943204066699082
-54.4189546,4.948678384350124,4.939515796220326
-54.40430616,4.952376512155574,4.943204066699082
-54.38965772,4.948678384350124,4.943204066699082
-54.37500928,4.944980256544675,4.939515796220326
-54.36036084,4.948678384350124,4.939515796220326
-54.3457124,4.952376512155574,4.943204066699082
-54.33106395999999,4.952376512155572,4.943204066699081
-54.31641552,4.948678384350124,4.939515796220326
-54.30176708,4.952376512155574,4.943204066699082
-54.28711864,4.952376512155574,4.943204066699082
-54.2724702,4.948678384350124,4.939515796220326
-54.25782176,4.952376512155574,4.946892337177839
-54.24317332,4.948678384350124,4.939515796220326
-54.22852487999999,4.948678384350124,4.939515796220326
-54.21387644,4.952376512155574,4.943204066699082
-54.199228,4.952376512155574,4.946892337177839
-54.18457956,4.948678384350124,4.939515796220326
-54.16993112,4.948678384350124,4.939515796220326
-54.15528268,4.952376512155574,4.943204066699082
-54.14063424,4.952376512155574,4.943204066699082
-54.1259858,4.952376512155574,4.943204066699082
-54.11133736,4.952376512155574,4.943204066699082
-54.09668892,4.948678384350124,4.939515796220326
-54.08204048,4.948678384350124,4.943204066699082
-54.06739204,4.952376512155572,4.943204066699082
-54.0527436,4.948678384350124,4.939515796220326
-54.03809516,4.952376512155574,4.946892337177839
-54.02344672,4.948678384350124,4.939515796220326
-54.00879828,4.948678384350124,4.939515796220326
-53.99414984,4.952376512155574,4.943204066699082
-53.9795014,4.952376512155574,4.943204066699082
-53.96485295999999,4.948678384350124,4.939515796220326
-53.95020452,4.948678384350124,4.939515796220326
-53.93555608,4.952376512155574,4.943204066699082
-53.92090764,4.952376512155574,4.943204066699082
-53.9062592,4.948678384350124,4.939515796220326
-53.89161076,4.952376512155574,4.943204066699082
-53.87696232,4.948678384350124,4.939515796220326
-53.86231387999999,4.948678384350124,4.939515796220326
-53.84766544,4.948678384350124,4.939515796220326
-53.833017,4.948678384350124,4.939515796220326
-53.81836856,4.952376512155574,4.943204066699082
-53.80372012,4.948678384350124,4.939515796220326
-53.78907168,4.948678384350124,4.939515796220326
-53.77442324,4.948678384350124,4.939515796220326
-53.7597748,4.948678384350124,4.939515796220326
-53.74512636,4.952376512155574,4.943204066699082
-53.73047792,4.948678384350124,4.939515796220326
-53.71582948,4.948678384350124,4.939515796220326
-53.70118103999999,4.948678384350126,4.939515796220328
-53.6865326,4.952376512155574,4.943204066699082
-53.67188416,4.952376512155574,4.943204066699082
-53.65723572,4.952376512155574,4.943204066699082
-53.64258728,4.948678384350124,4.939515796220326
-53.62793884,4.952376512155574,4.943204066699082
-53.6132904,4.952376512155574,4.943204066699082
-53.59864195999999,4.952376512155574,4.943204066699082
-53.58399352,4.952376512155574,4.943204066699082
-53.56934508,4.948678384350124,4.939515796220326
-53.55469664,4.948678384350124,4.939515796220326
-53.5400482,4.952376512155574,4.943204066699082
-53.52539976,4.948678384350124,4.939515796220326
-53.51075132,4.948678384350124,4.939515796220326
-53.49610288,4.952376512155574,4.943204066699082
-53.48145444,4.948678384350124,4.939515796220326
-53.466806,4.948678384350124,4.939515796220326
-53.45215756,4.952376512155574,4.943204066699082
-53.43750912,4.952376512155574,4.943204066699082
-53.42286068,4.948678384350124,4.939515796220326
-53.40821224,4.944980256544675,4.93582752574157
-53.3935638,4.948678384350124,4.939515796220326
-53.37891536,4.952376512155574,4.943204066699082
-53.36426692,4.948678384350124,4.939515796220326
-53.34961848,4.948678384350124,4.939515796220326
-53.33497003999999,4.952376512155574,4.943204066699082
-53.3203216,4.952376512155574,4.943204066699082
-53.30567316,4.944980256544675,4.93582752574157
-53.29102472,4.948678384350124,4.939515796220326
-53.27637628,4.952376512155574,4.943204066699082
-53.26172784,4.948678384350124,4.939515796220326
-53.2470794,4.948678384350124,4.939515796220326
-53.23243095999999,4.948678384350124,4.939515796220326
-53.21778252,4.952376512155574,4.943204066699082
-53.20313408,4.948678384350124,4.939515796220326
-53.18848564,4.948678384350124,4.939515796220326
-53.1738372,4.952376512155574,4.943204066699082
-53.15918876,4.948678384350124,4.939515796220326
-53.14454032,4.948678384350124,4.939515796220326
-53.12989188,4.952376512155574,4.943204066699082
-53.11524344,4.948678384350124,4.939515796220326
-53.100595,4.948678384350124,4.939515796220326
-53.08594656,4.952376512155574,4.943204066699082
-53.07129812,4.952376512155574,4.943204066699082
-53.05664968,4.948678384350124,4.939515796220326
-53.04200124,4.948678384350124,4.939515796220326
-53.0273528,4.952376512155574,4.943204066699082
-53.01270436,4.948678384350124,4.943204066699082
-52.99805592,4.948678384350124,4.939515796220326
-52.98340748,4.948678384350124,4.939515796220326
-52.96875903999999,4.948678384350124,4.939515796220326
-52.9541106,4.952376512155574,4.943204066699082
-52.93946216,4.948678384350124,4.939515796220326
-52.92481372,4.948678384350124,4.943204066699082
-52.91016528,4.948678384350124,4.943204066699082
-52.89551684,4.948678384350124,4.939515796220326
