Testing/Satellite beacon testing/Solar Power and Reg checks/2Panels - full sun - 1Ohm - ch1-panel I - ch2-reg I.csv

#Digilent WaveForms Oscilloscope Acquisition
#Device Name: Discovery2
#Serial Number: SN:210321A95EED
#Date Time: 2019-10-05 15:18:05.025
#Sample rate: 27.3067Hz
#Samples: 4115
#Trigger: Source: Channel 1 Type: Edge Condition: Rising Level: 0 V Hyst.: Auto HoldOff: 0 s
#Channel 1: Range: 20 mV/div Offset: 0 V Attenuation: 1 X
#Channel 2: Range: 20 mV/div Offset: 0 V Attenuation: 1 X

Time (s),Channel 1 (V),Channel 2 (V)
-146.48436,0.2637264730032948,0.001366907478957535
-146.44773891,0.3532478377614885,0.002038170923725028
-146.41111782,0.3481996405006858,0.002038170923725028
-146.37449673,0.3556036631498597,0.002038170923725028
-146.33787564,0.352238198309328,0.002038170923725028
-146.30125455,0.3522381983093276,0.002038170923725028
-146.26463346,0.3515651053412209,0.002038170923725028
-146.22801237,0.3519016518252744,0.002038170923725028
-146.19139128,0.3519016518252744,0.002038170923725028
-146.15477019,0.3475265475325788,0.002038170923725028
-146.1181491,0.3508920123731136,0.002038170923725028
-146.08152801,0.3502189194050069,0.002038170923725028
-146.04490692,0.3549305701817561,0.002038170923725028
-146.00828583,0.3475265475325822,0.002038170923725028
-145.97166474,0.3539209307295955,0.002038170923725028
-145.93504365,0.3542574772136501,0.002038170923725028
-145.89842256,0.3566133026020236,0.002038170923725028
-145.86180147,0.352911291277435,0.002038170923725028
-145.82518038,0.356613302602022,0.002038170923725028
-145.78855929,0.3552671166658096,0.002038170923725028
-145.7519382,0.3556036631498606,0.002038170923725028
-145.71531711,0.3502189194050093,0.002038170923725028
-145.67869602,0.3512285588571674,0.002038170923725028
-145.64207493,0.3468534545644714,0.002038170923725028
-145.60545384,0.3461803615963647,0.002038170923725028
-145.56883275,0.3495458264368999,0.002038170923725028
-145.53221166,0.3512285588571666,0.002038170923725028
-145.49559057,0.3502189194050069,0.002038170923725028
-145.45896948,0.3458438151123104,0.002038170923725028
-145.42234839,0.3441610826920437,0.002038170923725028
-145.3857273,0.352238198309328,0.002038170923725028
-145.34910621,0.3465169080804208,0.002038170923725028
-145.31248512,0.3505554658890604,0.002038170923725028
-145.27586403,0.3498823729209477,0.002038170923725028
-145.23924294,0.3374301530109734,0.002038170923725028
-145.20262185,0.339785978399348,0.002038170923725028
-145.16600076,0.3418052573036681,0.002038170923725028
-145.12937967,0.339785978399348,0.002038170923725028
-145.09275858,0.3397859783993488,0.002038170923725028
-145.05613749,0.3414687108196156,0.002038170923725028
-145.0195164,0.3401225248834015,0.002038170923725028
-144.98289531,0.3465169080804154,0.002038170923725028
-144.94627422,0.3468534545644718,0.002038170923725028
-144.90965313,0.3468534545644711,0.002038170923725028
-144.87303204,0.3455072686282577,0.002038170923725028
-144.83641095,0.3394494319152945,0.002038170923725028
-144.79978986,0.3401225248834012,0.002038170923725028
-144.76316877,0.3451707221442042,0.002038170923725028
-144.72654768,0.3411321643355626,0.002038170923725028
-144.68992659,0.3424783502717761,0.002038170923725028
-144.6533055,0.3401225248834015,0.002038170923725028
-144.61668441,0.3387763389471881,0.002038170923725028
-144.58006332,0.3444976291760972,0.002038170923725028
-144.54344223,0.3455072686282543,0.002038170923725028
-144.50682114,0.3381032459790804,0.002038170923725028
-144.47020005,0.3421418037877226,0.002038170923725028
-144.43357896,0.3461803615963629,0.002038170923725028
-144.39695787,0.3438245362079901,0.002038170923725028
-144.36033678,0.3448341756601511,0.002038170923725028
-144.32371569,0.3458438151123112,0.002038170923725028
-144.2870946,0.3401225248834015,0.002038170923725028
-144.25047351,0.3391128854312414,0.002038170923725028
-144.21385242,0.3347377811385453,0.002038170923725028
-144.17723133,0.3414687108196171,0.002038170923725028
-144.14061024,0.3448341756601491,0.002038170923725028
-144.10398915,0.3434879897239366,0.002038170923725028
-144.06736806,0.343487989723936,0.002038170923725028
-144.03074697,0.3421418037877226,0.002038170923725028
-143.99412588,0.3394494319152945,0.002038170923725028
-143.95750479,0.3458438151123083,0.002038170923725028
-143.9208837,0.340459071367455,0.002038170923725028
-143.88426261,0.3438245362079907,0.002038170923725028
-143.84764152,0.3451707221442042,0.002038170923725028
-143.81102043,0.3418052573036691,0.002038170923725028
-143.77439934,0.3421418037877224,0.002038170923725028
-143.73777825,0.3418052573036691,0.002038170923725028
-143.70115716,0.3448341756601496,0.002038170923725028
-143.66453607,0.3424783502717761,0.002038170923725028
-143.62791498,0.3434879897239366,0.002038170923725028
-143.59129389,0.3421418037877232,0.002038170923725028
-143.5546728,0.3407956178515085,0.002038170923725028
-143.51805171,0.342141803787723,0.002038170923725028
-143.48143062,0.3431514432398831,0.002038170923725028
-143.44480953,0.341132164335562,0.002038170923725028
-143.40818844,0.3438245362079889,0.002038170923725028
-143.37156735,0.3438245362079901,0.002038170923725028
-143.33494626,0.3434879897239352,0.002038170923725028
-143.29832517,0.340459071367455,0.002038170923725028
-143.26170408,0.3350743276225988,0.002038170923725028
-143.22508299,0.3458438151123063,0.002038170923725028
-143.1884619,0.3424783502717761,0.002038170923725028
-143.15184081,0.3414687108196174,0.002038170923725028
-143.11521972,0.3455072686282577,0.002038170923725028
-143.07859863,0.3438245362079901,0.002038170923725028
-143.04197754,0.3441610826920435,0.002038170923725028
-143.00535645,0.3434879897239366,0.002038170923725028
-142.96873536,0.3444976291760964,0.002038170923725028
-142.93211427,0.3428148967558296,0.002038170923725028
-142.89549318,0.3428148967558296,0.002038170923725028
-142.85887209,0.3471900010485233,0.002038170923725028
-142.822251,0.3465169080804182,0.002038170923725028
-142.78562991,0.3404590713674561,0.002038170923725028
-142.74900882,0.3428148967558296,0.002038170923725028
-142.71238773,0.3458438151123112,0.002038170923725028
-142.67576664,0.3441610826920444,0.002038170923725028
-142.63914555,0.3441610826920437,0.002038170923725028
-142.60252446,0.3458438151123104,0.002038170923725028
-142.56590337,0.3441610826920444,0.002038170923725028
-142.52928228,0.3438245362079901,0.002038170923725028
-142.49266119,0.3465169080804176,0.002038170923725028
-142.4560401,0.3451707221442042,0.002038170923725028
-142.41941901,0.3428148967558296,0.002038170923725028
-142.38279792,0.3407956178515095,0.002038170923725028
-142.34617683,0.3444976291760972,0.002038170923725028
-142.30955574,0.3421418037877234,0.002038170923725028
-142.27293465,0.3438245362079901,0.002038170923725028
-142.23631356,0.3428148967558296,0.002038170923725028
-142.19969247,0.3451707221442031,0.002038170923725028
-142.16307138,0.3505554658890604,0.002038170923725028
-142.12645029,0.3488727334687928,0.002038170923725028
-142.0898292,0.3488727334687928,0.002038170923725028
-142.05320811,0.3505554658890604,0.002038170923725028
-142.01658702,0.3481996405006869,0.002038170923725028
-141.97996593,0.3508920123731139,0.002038170923725028
-141.94334484,0.348872733468796,0.002038170923725028
-141.90672375,0.3559402096339166,0.002038170923725028
-141.87010266,0.3512285588571674,0.002038170923725028
-141.83348157,0.3505554658890607,0.002038170923725028
-141.79686048,0.3519016518252744,0.002038170923725028
-141.76023939,0.3468534545644728,0.002038170923725028
-141.7236183,0.3492092799528463,0.002038170923725028
-141.68699721,0.3485361869847393,0.002038170923725028
-141.65037612,0.3539209307295931,0.002038170923725028
-141.61375503,0.3495458264368999,0.002038170923725028
-141.57713394,0.352574744793383,0.002038170923725028
-141.54051285,0.3559402096339166,0.002038170923725028
-141.50389176,0.3525747447933815,0.002038170923725028
-141.46727067,0.3569498490860751,0.002038170923725028
-141.43064958,0.3569498490860771,0.002038170923725028
-141.39402849,0.3488727334687936,0.002038170923725028
-141.3574074,0.3505554658890604,0.002038170923725028
-141.32078631,0.3492092799528463,0.002038170923725028
-141.28416522,0.3424783502717791,0.002038170923725028
-141.24754413,0.3434879897239366,0.002038170923725028
-141.21092304,0.3465169080804193,0.002038170923725028
-141.17430195,0.3488727334687928,0.002038170923725028
-141.13768086,0.3481996405006858,0.002038170923725028
-141.10105977,0.3498823729209526,0.002038170923725028
-141.06443868,0.3495458264368999,0.002038170923725028
-141.02781759,0.3525747447933813,0.002038170923725028
-140.9911965,0.3522381983093281,0.002038170923725028
-140.95457541,0.354257477213649,0.002038170923725028
-140.91795432,0.3522381983093267,0.002038170923725028
-140.88133323,0.3495458264368999,0.002038170923725028
-140.84471214,0.3465169080804182,0.002038170923725028
-140.80809105,0.3478630940166317,0.002038170923725028
-140.77146996,0.3485361869847393,0.002038170923725028
-140.73484887,0.354257477213649,0.002038170923725028
-140.69822778,0.354257477213649,0.002038170923725028
-140.66160669,0.3525747447933815,0.002038170923725028
-140.6249856,0.3498823729209546,0.002038170923725028
-140.58836451,0.3505554658890604,0.002038170923725028
-140.55174342,0.3465169080804169,0.002038170923725028
-140.51512233,0.3434879897239366,0.002038170923725028
-140.47850124,0.3458438151123112,0.002038170923725028
-140.44188015,0.3529112912774318,0.002038170923725028
-140.40525906,0.3512285588571674,0.002038170923725028
-140.36863797,0.3471900010485242,0.002038170923725028
-140.33201688,0.3448341756601507,0.002038170923725028
-140.29539579,0.3071409694461572,0.01378528120716149
-140.2587747,0.08030863919419268,0.07789094018245701
-140.22215361,0.08098173216219656,0.07856220362725397
-140.18553252,0.08434719700273154,0.08158288912870906
-140.14891143,0.08401065051867818,0.08158288912870906
-140.11229034,0.08266446458246413,0.08024036223917347
-140.07566925,0.08131827864625069,0.07889783534963848
-140.03904816,0.08131827864625008,0.07889783534963787
-140.00242707,0.08131827864625008,0.07889783534963787
-139.96580598,0.08131827864625008,0.07889783534963787
-139.92918489,0.08098173216219656,0.07856220362725397
-139.8925638,0.0806451856781432,0.07822657190487023
-139.85594271,0.08098173216219656,0.07856220362725397
-139.81932162,0.08064518567814305,0.07822657190487008
-139.78270053,0.08064518567814305,0.07822657190487008
-139.74607944,0.08098173216219656,0.07856220362725397
-139.70945835,0.0806451856781432,0.07822657190487023
-139.67283726,0.08030863919408954,0.07789094018248617
-139.63621617,0.08030863919408954,0.07789094018248617
-139.59959508,0.08030863919408954,0.07789094018248617
-139.56297399,0.08030863919408954,0.07789094018248617
-139.5263529,0.08030863919408954,0.07789094018248617
-139.48973181,0.08064518567814305,0.07822657190487008
-139.45311072,0.08064518567814305,0.07789094018248617
-139.41648963,0.08064518567814305,0.07789094018248617
-139.37986854,0.08064518567814305,0.07822657190487008
-139.34324745,0.08064518567814305,0.07789094018248617
-139.30662636,0.08064518567814305,0.07789094018248617
-139.27000527,0.08064518567814305,0.07822657190487008
-139.23338418,0.08064518567814305,0.07822657190487008
-139.19676309,0.08030863919408954,0.07789094018248617
-139.160142,0.08030863919408954,0.07789094018248617
-139.12352091,0.08030863919408954,0.07789094018248617
-139.08689982,0.08030863919408954,0.07789094018248617
-139.05027873,0.0806451856781429,0.07789094018248617
-139.01365764,0.08030863919408954,0.07822657190487008
-138.97703655,0.08030863919408954,0.07789094018248617
-138.94041546,0.08030863919408954,0.07789094018248617
-138.90379437,0.08030863919408954,0.07789094018248617
-138.86717328,0.08030863919408954,0.07789094018248617
-138.83055219,0.08030863919408954,0.07789094018248617
-138.7939311,0.0823279180984097,0.0799047305167888
-138.75731001,0.08030863919408954,0.07822657190487008
-138.72068892,0.08030863919408954,0.07822657190487008
-138.68406783,0.02545156229339188,0.02351860115631943
-138.64744674,0.0167013537079756,0.01445654465192929
-138.61082565,0.0167013537079756,0.01445654465192929
-138.57420456,0.0167013537079756,0.01445654465192929
-138.53758347,0.0167013537079756,0.01445654465192929
-138.50096238,0.01535516777176216,0.0131140177623943
-138.46434129,0.01299934238338695,0.0111002274280903
-138.4277202,0.01299934238338695,0.0111002274280903
-138.39109911,0.01299934238338695,0.0111002274280903
-138.35447802,0.01299934238338695,0.0111002274280903
-138.31785693,0.01299934238338695,0.0111002274280903
-138.28123584,0.01333588886744047,0.0111002274280903
-138.24461475,0.01299934238338695,0.01076459570570655
-138.20799366,0.01299934238338695,0.0111002274280903
-138.17137257,0.01299934238338695,0.0107645957057064
-138.13475148,0.01299934238338695,0.0107645957057064
-138.09813039,0.01333588886744047,0.0107645957057064
-138.0615093,0.01333588886744031,0.0107645957057064
-138.02488821,0.01299934238338695,0.0107645957057064
-137.98826712,0.01299934238338695,0.0111002274280903
-137.95164603,0.01333588886744031,0.0111002274280903
-137.91502494,0.01299934238338695,0.0111002274280903
-137.87840385,0.01333588886744031,0.0111002274280903
-137.84178276,0.01299934238338711,0.0111002274280903
-137.80516167,0.01299934238338695,0.0111002274280903
-137.76854058,0.01333588886744047,0.0107645957057064
-137.73191949,0.01333588886744047,0.0107645957057064
-137.6952984,0.01333588886744047,0.0111002274280903
-137.65867731,0.01333588886744047,0.0111002274280903
-137.62205622,0.01333588886744047,0.0111002274280903
-137.58543513,0.01299934238338711,0.0111002274280903
-137.54881404,0.01333588886744047,0.0111002274280903
-137.51219295,0.01299934238338695,0.0111002274280903
-137.47557186,0.01333588886744031,0.0111002274280903
-137.43895077,0.01333588886744047,0.0111002274280903
-137.40232968,0.01333588886744047,0.0107645957057064
-137.36570859,0.01333588886744047,0.0107645957057064
-137.3290875,0.01333588886744047,0.0111002274280903
-137.29246641,0.01333588886744047,0.0111002274280903
-137.25584532,0.01299934238338695,0.0111002274280903
-137.21922423,0.01299934238338695,0.0111002274280903
-137.18260314,0.01299934238338695,0.0111002274280903
-137.14598205,0.01333588886744047,0.0111002274280903
-137.10936096,0.01333588886744047,0.0111002274280903
-137.07273987,0.01333588886744047,0.0111002274280903
-137.03611878,0.01333588886744047,0.0111002274280903
-136.99949769,0.01333588886744047,0.0111002274280903
-136.9628766,0.01333588886744047,0.0111002274280903
-136.92625551,0.01333588886744047,0.0111002274280903
-136.88963442,0.01333588886744047,0.0111002274280903
-136.85301333,0.01333588886744047,0.0111002274280903
-136.81639224,0.01333588886744047,0.0111002274280903
-136.77977115,0.01299934238338695,0.0111002274280903
-136.74315006,0.01333588886744031,0.0111002274280903
-136.70652897,0.01333588886744047,0.0111002274280903
-136.66990788,0.01333588886744031,0.0111002274280903
-136.63328679,0.01299934238338695,0.0111002274280903
-136.5966657,0.01333588886744047,0.0111002274280903
-136.56004461,0.01333588886744047,0.0111002274280903
-136.52342352,0.01333588886744047,0.0111002274280903
-136.48680243,0.01333588886744047,0.0111002274280903
-136.45018134,0.01333588886744047,0.0111002274280903
-136.41356025,0.01333588886744047,0.0111002274280903
-136.37693916,0.01299934238338711,0.01076459570570655
-136.34031807,0.01333588886744047,0.0107645957057064
-136.30369698,0.01299934238338711,0.0107645957057064
-136.26707589,0.01333588886744031,0.0107645957057064
-136.2304548,0.01333588886744047,0.0111002274280903
-136.19383371,0.01333588886744047,0.0111002274280903
-136.15721262,0.01333588886744047,0.0111002274280903
-136.12059153,0.01333588886744047,0.0111002274280903
-136.08397044,0.01333588886744047,0.0111002274280903
-136.04734935,0.01333588886744047,0.0111002274280903
-136.01072826,0.01299934238338711,0.0111002274280903
-135.97410717,0.01333588886744047,0.0111002274280903
-135.93748608,0.01299934238338695,0.0111002274280903
-135.90086499,0.01333588886744031,0.0111002274280903
-135.8642439,0.01333588886744047,0.0111002274280903
-135.82762281,0.01333588886744047,0.0111002274280903
-135.79100172,0.01333588886744047,0.0111002274280903
-135.75438063,0.01333588886744047,0.0111002274280903
-135.71775954,0.01333588886744047,0.0111002274280903
-135.68113845,0.01333588886744047,0.0111002274280903
-135.64451736,0.01333588886744047,0.0111002274280903
-135.60789627,0.01333588886744047,0.0111002274280903
-135.57127518,0.01333588886744047,0.0111002274280903
-135.53465409,0.01333588886744047,0.0111002274280903
-135.498033,0.01333588886744047,0.0111002274280903
-135.46141191,0.01333588886744047,0.0111002274280903
-135.42479082,0.01333588886744047,0.0111002274280903
-135.38816973,0.01333588886744047,0.0111002274280903
-135.35154864,0.01333588886744047,0.0111002274280903
-135.31492755,0.01333588886744047,0.0111002274280903
-135.27830646,0.01333588886744047,0.0111002274280903
-135.24168537,0.01333588886744047,0.0111002274280903
-135.20506428,0.01333588886744047,0.0111002274280903
-135.16844319,0.01333588886744047,0.0111002274280903
-135.1318221,0.01333588886744047,0.0111002274280903
-135.09520101,0.01333588886744047,0.01110022742809014
-135.05857992,0.01333588886744047,0.0107645957057064
-135.02195883,0.01333588886744047,0.0107645957057064
-134.98533774,0.01333588886744047,0.0107645957057064
-134.94871665,0.01299934238338695,0.0107645957057064
-134.91209556,0.01299934238338695,0.0107645957057064
-134.87547447,0.01299934238338695,0.0107645957057064
-134.83885338,0.01299934238338695,0.0107645957057064
-134.80223229,0.01333588886744031,0.01110022742809014
-134.7656112,0.01333588886744047,0.0111002274280903
-134.72899011,0.01333588886744047,0.01110022742809014
-134.69236902,0.01333588886744047,0.01076459570570655
-134.65574793,0.01333588886744047,0.0107645957057064
-134.61912684,0.01333588886744047,0.0111002274280903
-134.58250575,0.01333588886744047,0.0111002274280903
-134.54588466,0.01299934238338695,0.0111002274280903
-134.50926357,0.01333588886744031,0.0111002274280903
-134.47264248,0.01333588886744047,0.0111002274280903
-134.43602139,0.01333588886744047,0.01110022742809014
-134.3994003,0.01333588886744047,0.0107645957057064
-134.36277921,0.01299934238338695,0.0107645957057064
-134.32615812,0.01670135370797391,0.01445654465192761
-134.28953703,0.0167013537079756,0.01445654465192929
-134.25291594,0.01703790019202988,0.0147921763743138
-134.21629485,0.01872063261229667,0.01613470326384878
-134.17967376,0.01872063261229667,0.01647033498623268
-134.14305267,0.01872063261229667,0.01647033498623268
-134.10643158,0.01838408612824316,0.01613470326384878
-134.06981049,0.01838408612824316,0.01613470326384878
-134.0331894,0.01838408612824316,0.01613470326384878
-133.99656831,0.01838408612824316,0.01613470326384878
-133.95994722,0.01838408612824316,0.01613470326384878
-133.92332613,0.01872063261229667,0.01613470326384878
-133.88670504,0.01872063261229652,0.01613470326384878
-133.85008395,0.01838408612824316,0.01613470326384878
-133.81346286,0.01872063261229667,0.01613470326384878
-133.77684177,0.01872063261229667,0.01613470326384878
-133.74022068,0.01872063261229667,0.01613470326384878
-133.70359959,0.01872063261229667,0.01613470326384878
-133.6669785,0.01872063261229667,0.01613470326384878
-133.63035741,0.01872063261229667,0.01613470326384878
-133.59373632,0.01838408612824331,0.01613470326384878
-133.55711523,0.01872063261229667,0.01613470326384878
-133.52049414,0.01838408612824331,0.01613470326384878
-133.48387305,0.01872063261229667,0.01613470326384878
-133.44725196,0.01872063261229667,0.01613470326384878
-133.41063087,0.01838408612824331,0.01613470326384878
-133.37400978,0.01872063261229667,0.01613470326384878
-133.33738869,0.01872063261229652,0.01613470326384893
-133.3007676,0.01838408612824316,0.01647033498623268
-133.26414651,0.01838408612824316,0.01613470326384878
-133.22752542,0.01872063261229652,0.01613470326384878
-133.19090433,0.01872063261229667,0.01613470326384878
-133.15428324,0.01872063261229667,0.01613470326384878
