Testing/Satellite beacon testing/Solar Power and Reg checks/3Panels - full sun - 1Ohm - ch1-panel I - ch2 - panel V.csv

#Digilent WaveForms Oscilloscope Acquisition
#Device Name: Discovery2
#Serial Number: SN:210321A95EED
#Date Time: 2019-10-05 15:36:37.953
#Sample rate: 27.3067Hz
#Samples: 4377
#Trigger: Source: Channel 1 Type: Edge Condition: Rising Level: 0 V Hyst.: Auto HoldOff: 0 s
#Channel 1: Range: 20 mV/div Offset: 0 V Attenuation: 1 X
#Channel 2: Range: 2 V/div Offset: 0 V Attenuation: 1 X

Time (s),Channel 1 (V),Channel 2 (V)
-146.48436,0.002902947861782181,4.060089991448472
-146.44773891,0.00424913379799562,6.13658627098722
-146.41111782,0.00424913379799562,6.13658627098722
-146.37449673,0.00424913379799562,6.13658627098722
-146.33787564,0.00424913379799562,6.13658627098722
-146.30125455,0.00424913379799562,6.13658627098722
-146.26463346,0.00424913379799562,6.13658627098722
-146.22801237,0.00424913379799562,6.13658627098722
-146.19139128,0.00424913379799562,6.13658627098722
-146.15477019,0.00424913379799562,6.13658627098722
-146.1181491,0.00424913379799562,6.13658627098722
-146.08152801,0.00424913379799562,6.13658627098722
-146.04490692,0.00424913379799562,6.132898000508463
-146.00828583,0.00424913379799562,6.132898000508463
-145.97166474,0.00424913379799562,6.13658627098722
-145.93504365,0.00424913379799562,6.132898000508463
-145.89842256,0.00424913379799562,6.132898000508463
-145.86180147,0.00424913379799562,6.132898000508463
-145.82518038,0.00424913379799562,6.132898000508463
-145.78855929,0.00424913379799562,6.132898000508463
-145.7519382,0.00424913379799562,6.132898000508463
-145.71531711,0.00424913379799562,6.132898000508463
-145.67869602,0.00424913379799562,6.132898000508463
-145.64207493,0.00424913379799562,6.136586270987218
-145.60545384,0.00424913379799562,6.132898000508463
-145.56883275,0.00424913379799562,6.132898000508463
-145.53221166,0.00424913379799562,6.132898000508463
-145.49559057,0.00424913379799562,6.13658627098722
-145.45896948,0.00424913379799562,6.13658627098722
-145.42234839,0.00424913379799562,6.13658627098722
-145.3857273,0.00424913379799562,6.13658627098722
-145.34910621,0.00424913379799562,6.13658627098722
-145.31248512,0.00424913379799562,6.132898000508463
-145.27586403,0.00424913379799562,6.132898000508463
-145.23924294,0.00424913379799562,6.132898000508463
-145.20262185,0.00424913379799562,6.132898000508463
-145.16600076,0.00424913379799562,6.132898000508463
-145.12937967,0.00424913379799562,6.132898000508463
-145.09275858,0.00424913379799562,6.13658627098722
-145.05613749,0.00424913379799562,6.13658627098722
-145.0195164,0.00424913379799562,6.132898000508463
-144.98289531,0.00424913379799562,6.132898000508463
-144.94627422,0.00424913379799562,6.132898000508463
-144.90965313,0.00424913379799562,6.136586270987218
-144.87303204,0.00424913379799562,6.132898000508463
-144.83641095,0.00424913379799562,6.13658627098722
-144.79978986,0.00424913379799562,6.132898000508465
-144.76316877,0.00424913379799562,6.132898000508463
-144.72654768,0.00424913379799562,6.132898000508463
-144.68992659,0.00424913379799562,6.132898000508463
-144.6533055,0.00424913379799562,6.132898000508463
-144.61668441,0.00424913379799562,6.132898000508463
-144.58006332,0.00424913379799562,6.132898000508463
-144.54344223,0.00424913379799562,6.132898000508463
-144.50682114,0.00424913379799562,6.132898000508463
-144.47020005,0.00424913379799562,6.132898000508463
-144.43357896,0.00424913379799562,6.132898000508463
-144.39695787,0.00424913379799562,6.132898000508463
-144.36033678,0.00424913379799562,6.132898000508463
-144.32371569,0.00424913379799562,6.132898000508463
-144.2870946,0.00424913379799562,6.132898000508463
-144.25047351,0.00424913379799562,6.132898000508463
-144.21385242,0.00424913379799562,6.132898000508463
-144.17723133,0.00424913379799562,6.132898000508463
-144.14061024,0.00424913379799562,6.132898000508463
-144.10398915,0.00424913379799562,6.132898000508463
-144.06736806,0.00424913379799562,6.132898000508463
-144.03074697,0.00424913379799562,6.132898000508463
-143.99412588,0.00424913379799562,6.132898000508463
-143.95750479,0.00424913379799562,6.132898000508463
-143.9208837,0.00424913379799562,6.132898000508463
-143.88426261,0.00424913379799562,6.132898000508463
-143.84764152,0.00424913379799562,6.132898000508463
-143.81102043,0.00424913379799562,6.132898000508463
-143.77439934,0.00424913379799562,6.132898000508463
-143.73777825,0.00424913379799562,6.132898000508463
-143.70115716,0.00424913379799562,6.132898000508463
-143.66453607,0.00424913379799562,6.132898000508463
-143.62791498,0.005258773250156158,6.114456648114682
-143.59129389,0.08098173216216213,5.642358026834115
-143.5546728,0.07896245325787549,5.67186419066395
-143.51805171,0.08300101106651779,5.627604944918876
-143.48143062,0.08333755755057115,5.627604944918876
-143.44480953,0.08131827864625008,5.649734567791413
-143.40818844,0.07963554622598328,5.66448764970643
-143.37156735,0.079298999741929,5.67186419066395
-143.33494626,0.07963554622598236,5.668175920185194
-143.29832517,0.079298999741929,5.668175920185194
-143.26170408,0.07997209271003602,5.660799379227681
-143.22508299,0.0809817321621961,5.649734567791418
-143.1884619,0.08064518567814305,5.653422838270169
-143.15184081,0.08064518567814305,5.653422838270171
-143.11521972,0.08064518567814305,5.657111108748925
-143.07859863,0.08030863919408954,5.657111108748925
-143.04197754,0.0806451856781429,5.653422838270171
-143.00535645,0.08064518567814305,5.653422838270169
-142.96873536,0.08064518567814305,5.653422838270169
-142.93211427,0.08064518567814305,5.653422838270169
-142.89549318,0.08064518567814305,5.657111108748925
-142.85887209,0.08064518567814305,5.657111108748925
-142.822251,0.08064518567814305,5.657111108748925
-142.78562991,0.08064518567814305,5.657111108748925
-142.74900882,0.08064518567814305,5.657111108748925
-142.71238773,0.08064518567814305,5.657111108748925
-142.67576664,0.08064518567814305,5.657111108748925
-142.63914555,0.08064518567814305,5.657111108748925
-142.60252446,0.08064518567814305,5.657111108748927
-142.56590337,0.08064518567814305,5.660799379227679
-142.52928228,0.08064518567814305,5.657111108748925
-142.49266119,0.08064518567814305,5.657111108748925
-142.4560401,0.08064518567814305,5.657111108748925
-142.41941901,0.08064518567814305,5.657111108748925
-142.38279792,0.08064518567814305,5.660799379227679
-142.34617683,0.08064518567814305,5.657111108748925
-142.30955574,0.08064518567814305,5.657111108748925
-142.27293465,0.08064518567814305,5.657111108748925
-142.23631356,0.08064518567814305,5.660799379227681
-142.19969247,0.08064518567814305,5.657111108748927
-142.16307138,0.08064518567814305,5.657111108748925
-142.12645029,0.08199137161435634,5.638669756355154
-142.0898292,0.08030863919408954,5.660799379227681
-142.05320811,0.08030863919408954,5.660799379227681
-142.01658702,0.0328555849425658,5.974302369921809
-141.97996593,0.0167013537079756,6.077573943327121
-141.94334484,0.0167013537079756,6.077573943327121
-141.90672375,0.0167013537079756,6.077573943327121
-141.87010266,0.0167013537079756,6.077573943327121
-141.83348157,0.01569171425581552,6.081262213805876
-141.79686048,0.01299934238338695,6.092327025242146
-141.76023939,0.01299934238338695,6.092327025242146
-141.7236183,0.01299934238338695,6.092327025242146
-141.68699721,0.01299934238338695,6.092327025242146
-141.65037612,0.01299934238338695,6.092327025242146
-141.61375503,0.01299934238338695,6.092327025242146
-141.57713394,0.01299934238338695,6.092327025242146
-141.54051285,0.01299934238338695,6.092327025242146
-141.50389176,0.01299934238338695,6.092327025242146
-141.46727067,0.01299934238338695,6.092327025242146
-141.43064958,0.01299934238338695,6.092327025242146
-141.39402849,0.01299934238338695,6.092327025242146
-141.3574074,0.01299934238338695,6.092327025242146
-141.32078631,0.01299934238338695,6.092327025242146
-141.28416522,0.01299934238338695,6.092327025242146
-141.24754413,0.01299934238338695,6.092327025242146
-141.21092304,0.01299934238338695,6.092327025242146
-141.17430195,0.01299934238338695,6.092327025242146
-141.13768086,0.01299934238338695,6.092327025242146
-141.10105977,0.01299934238338695,6.092327025242146
-141.06443868,0.01299934238338695,6.092327025242146
-141.02781759,0.01299934238338695,6.092327025242146
-140.9911965,0.01299934238338695,6.092327025242146
-140.95457541,0.01299934238338695,6.092327025242146
-140.91795432,0.01299934238338695,6.092327025242146
-140.88133323,0.01299934238338695,6.092327025242146
-140.84471214,0.01299934238338695,6.092327025242146
-140.80809105,0.01299934238338695,6.092327025242146
-140.77146996,0.01299934238338695,6.092327025242146
-140.73484887,0.01299934238338695,6.092327025242146
-140.69822778,0.01299934238338695,6.092327025242146
-140.66160669,0.01299934238338695,6.092327025242146
-140.6249856,0.01299934238338695,6.092327025242146
-140.58836451,0.01299934238338695,6.092327025242146
-140.55174342,0.01299934238338695,6.092327025242146
-140.51512233,0.01299934238338695,6.092327025242146
-140.47850124,0.01299934238338695,6.092327025242146
-140.44188015,0.01299934238338695,6.092327025242146
-140.40525906,0.01299934238338695,6.092327025242146
-140.36863797,0.01299934238338695,6.092327025242146
-140.33201688,0.01299934238338695,6.092327025242146
-140.29539579,0.01299934238338695,6.092327025242146
-140.2587747,0.01299934238338695,6.092327025242146
-140.22215361,0.01299934238338695,6.092327025242146
-140.18553252,0.01299934238338695,6.092327025242146
-140.14891143,0.01299934238338695,6.092327025242146
-140.11229034,0.01299934238338695,6.092327025242146
-140.07566925,0.01299934238338695,6.092327025242146
-140.03904816,0.01299934238338695,6.092327025242146
-140.00242707,0.01299934238338695,6.092327025242146
-139.96580598,0.01299934238338695,6.092327025242146
-139.92918489,0.01299934238338695,6.092327025242146
-139.8925638,0.01299934238338695,6.092327025242146
-139.85594271,0.01299934238338695,6.092327025242146
-139.81932162,0.01299934238338695,6.092327025242146
-139.78270053,0.01299934238338695,6.092327025242146
-139.74607944,0.01299934238338695,6.092327025242146
-139.70945835,0.01299934238338695,6.092327025242146
-139.67283726,0.01299934238338695,6.092327025242146
-139.63621617,0.01299934238338695,6.092327025242146
-139.59959508,0.01299934238338695,6.092327025242146
-139.56297399,0.01299934238338695,6.092327025242146
-139.5263529,0.01299934238338695,6.092327025242146
-139.48973181,0.01299934238338695,6.092327025242146
-139.45311072,0.01299934238338695,6.092327025242144
-139.41648963,0.01299934238338695,6.088638754763392
-139.37986854,0.01299934238338695,6.08863875476339
-139.34324745,0.01299934238338695,6.092327025242144
-139.30662636,0.01299934238338695,6.08863875476339
-139.27000527,0.01299934238338695,6.092327025242146
-139.23338418,0.01299934238338695,6.088638754763392
-139.19676309,0.01299934238338695,6.08863875476339
-139.160142,0.01299934238338695,6.088638754763392
-139.12352091,0.01299934238338695,6.092327025242146
-139.08689982,0.01299934238338695,6.092327025242146
-139.05027873,0.01299934238338695,6.088638754763392
-139.01365764,0.01299934238338695,6.08863875476339
-138.97703655,0.01299934238338695,6.092327025242146
-138.94041546,0.01299934238338695,6.092327025242146
-138.90379437,0.01299934238338695,6.08863875476339
-138.86717328,0.01299934238338695,6.08863875476339
-138.83055219,0.01299934238338695,6.092327025242146
-138.7939311,0.01299934238338695,6.092327025242144
-138.75731001,0.01299934238338695,6.08863875476339
-138.72068892,0.01299934238338695,6.08863875476339
-138.68406783,0.01299934238338695,6.08863875476339
-138.64744674,0.01299934238338695,6.08863875476339
-138.61082565,0.01299934238338695,6.088638754763392
-138.57420456,0.01299934238338695,6.092327025242146
-138.53758347,0.01299934238338695,6.092327025242146
-138.50096238,0.01299934238338695,6.092327025242146
-138.46434129,0.01299934238338695,6.092327025242146
-138.4277202,0.01299934238338695,6.092327025242146
-138.39109911,0.01299934238338695,6.092327025242146
-138.35447802,0.01299934238338695,6.092327025242146
-138.31785693,0.01299934238338695,6.092327025242146
-138.28123584,0.01299934238338695,6.092327025242146
-138.24461475,0.01299934238338695,6.092327025242146
-138.20799366,0.01299934238338695,6.092327025242146
-138.17137257,0.01299934238338695,6.092327025242146
-138.13475148,0.01299934238338695,6.092327025242146
-138.09813039,0.01299934238338695,6.092327025242146
-138.0615093,0.01299934238338695,6.092327025242146
-138.02488821,0.01299934238338695,6.092327025242146
-137.98826712,0.01299934238338695,6.092327025242146
-137.95164603,0.01299934238338695,6.092327025242146
-137.91502494,0.01299934238338695,6.092327025242146
-137.87840385,0.01299934238338695,6.092327025242146
-137.84178276,0.01299934238338695,6.092327025242146
-137.80516167,0.01299934238338695,6.092327025242146
-137.76854058,0.01299934238338695,6.092327025242146
-137.73191949,0.01299934238338695,6.092327025242146
-137.6952984,0.01299934238338695,6.092327025242146
-137.65867731,0.01569171425581383,6.077573943327129
-137.62205622,0.0167013537079756,6.073885672848365
-137.58543513,0.01670135370797636,6.073885672848362
-137.54881404,0.01838408612824316,6.066509131890854
-137.51219295,0.01838408612824316,6.066509131890854
-137.47557186,0.01838408612824316,6.066509131890854
-137.43895077,0.01838408612824316,6.066509131890854
-137.40232968,0.01838408612824316,6.066509131890854
-137.36570859,0.01838408612824316,6.066509131890854
-137.3290875,0.01838408612824316,6.066509131890854
-137.29246641,0.01838408612824316,6.066509131890854
-137.25584532,0.01838408612824316,6.066509131890854
-137.21922423,0.01838408612824316,6.066509131890854
-137.18260314,0.01838408612824316,6.066509131890854
-137.14598205,0.01838408612824316,6.066509131890854
-137.10936096,0.01838408612824316,6.066509131890854
-137.07273987,0.01838408612824316,6.066509131890854
-137.03611878,0.01838408612824316,6.066509131890854
-136.99949769,0.01838408612824316,6.066509131890854
-136.9628766,0.01838408612824316,6.066509131890854
-136.92625551,0.01838408612824316,6.066509131890854
-136.88963442,0.01838408612824316,6.066509131890854
-136.85301333,0.01838408612824316,6.066509131890854
-136.81639224,0.01838408612824316,6.066509131890854
-136.77977115,0.01838408612824316,6.066509131890854
-136.74315006,0.01838408612824316,6.066509131890854
-136.70652897,0.01838408612824316,6.066509131890854
-136.66990788,0.01838408612824316,6.066509131890854
-136.63328679,0.01838408612824316,6.066509131890854
-136.5966657,0.01838408612824316,6.066509131890854
-136.56004461,0.01838408612824316,6.066509131890854
-136.52342352,0.01838408612824316,6.066509131890854
-136.48680243,0.01838408612824316,6.066509131890854
-136.45018134,0.01838408612824316,6.066509131890854
-136.41356025,0.01838408612824316,6.066509131890854
-136.37693916,0.01838408612824316,6.066509131890854
-136.34031807,0.01838408612824316,6.066509131890854
-136.30369698,0.01838408612824316,6.066509131890854
-136.26707589,0.01838408612824316,6.066509131890854
-136.2304548,0.01838408612824316,6.066509131890854
-136.19383371,0.01838408612824316,6.066509131890854
-136.15721262,0.01838408612824316,6.066509131890854
-136.12059153,0.01838408612824316,6.066509131890854
-136.08397044,0.01838408612824316,6.066509131890854
-136.04734935,0.01838408612824316,6.066509131890854
-136.01072826,0.01838408612824316,6.066509131890854
-135.97410717,0.01838408612824316,6.066509131890854
-135.93748608,0.01838408612824316,6.066509131890854
-135.90086499,0.01838408612824316,6.066509131890854
-135.8642439,0.01838408612824316,6.066509131890854
-135.82762281,0.01838408612824316,6.066509131890854
-135.79100172,0.01838408612824316,6.066509131890854
-135.75438063,0.01838408612824316,6.066509131890854
-135.71775954,0.01838408612824316,6.066509131890854
-135.68113845,0.01838408612824316,6.066509131890854
-135.64451736,0.01838408612824316,6.066509131890854
-135.60789627,0.01838408612824316,6.066509131890854
-135.57127518,0.01838408612824316,6.066509131890854
-135.53465409,0.01838408612824316,6.066509131890854
-135.498033,0.01838408612824316,6.066509131890854
-135.46141191,0.01838408612824316,6.066509131890854
-135.42479082,0.01838408612824316,6.066509131890854
-135.38816973,0.01838408612824316,6.066509131890854
-135.35154864,0.01838408612824316,6.066509131890854
-135.31492755,0.01838408612824316,6.066509131890854
-135.27830646,0.01838408612826382,6.066509131890725
-135.24168537,0.06381786147546741,5.782512305026633
-135.20506428,0.0742508024811263,5.712435165930267
-135.16844319,0.07357770951301958,5.716123436409021
-135.1318221,0.01838408612824316,6.066509131890854
-135.09520101,0.01838408612824316,6.066509131890854
-135.05857992,0.01838408612824316,6.066509131890854
-135.02195883,0.01838408612824316,6.066509131890854
-134.98533774,0.01838408612824316,6.066509131890854
-134.94871665,0.01838408612824316,6.066509131890854
-134.91209556,0.01838408612824316,6.066509131890854
-134.87547447,0.01838408612824316,6.066509131890854
-134.83885338,0.01838408612824316,6.066509131890854
-134.80223229,0.01838408612824316,6.066509131890854
-134.7656112,0.01838408612824316,6.066509131890854
-134.72899011,0.01838408612824316,6.066509131890854
-134.69236902,0.01838408612824316,6.066509131890854
-134.65574793,0.01838408612824316,6.066509131890854
-134.61912684,0.01838408612824316,6.066509131890854
-134.58250575,0.01838408612824316,6.066509131890854
-134.54588466,0.01838408612824316,6.066509131890854
-134.50926357,0.01838408612824316,6.066509131890854
-134.47264248,0.01838408612824316,6.066509131890854
-134.43602139,0.01838408612824316,6.066509131890854
-134.3994003,0.01838408612824316,6.066509131890854
-134.36277921,0.01838408612824316,6.066509131890854
-134.32615812,0.01838408612824316,6.066509131890854
-134.28953703,0.01838408612824316,6.066509131890854
-134.25291594,0.01838408612824316,6.066509131890854
-134.21629485,0.01838408612824316,6.066509131890854
-134.17967376,0.01838408612824316,6.066509131890854
-134.14305267,0.01872063261229652,6.066509131890854
-134.10643158,0.02679774822958098,6.025938156624536
-134.06981049,0.02679774822958098,6.025938156624536
-134.0331894,0.02679774822958098,6.025938156624536
-133.99656831,0.02679774822958098,6.02224988614578
-133.95994722,0.02679774822958098,6.02224988614578
-133.92332613,0.02679774822958098,6.02224988614578
-133.88670504,0.02679774822958098,6.025938156624536
-133.85008395,0.02679774822958098,6.025938156624536
-133.81346286,0.02679774822958098,6.025938156624536
-133.77684177,0.02679774822958098,6.025938156624536
-133.74022068,0.0271342947136345,6.025938156624536
-133.70359959,0.0271342947136345,6.025938156624536
-133.6669785,0.0271342947136345,6.025938156624536
-133.63035741,0.0271342947136345,6.025938156624536
-133.59373632,0.0271342947136345,6.025938156624536
-133.55711523,0.0271342947136345,6.025938156624536
-133.52049414,0.0271342947136345,6.025938156624536
-133.48387305,0.0271342947136345,6.025938156624536
-133.44725196,0.0271342947136345,6.025938156624536
-133.41063087,0.0271342947136345,6.025938156624536
-133.37400978,0.0271342947136345,6.025938156624536
-133.33738869,0.02679774822958098,6.025938156624536
-133.3007676,0.02679774822958098,6.025938156624536
-133.26414651,0.0271342947136345,6.025938156624536
-133.22752542,0.02679774822958114,6.025938156624536
-133.19090433,0.02679774822958098,6.025938156624536
-133.15428324,0.02679774822958098,6.025938156624536
-133.11766215,0.02679774822958098,6.025938156624536
-133.08104106,0.02679774822958098,6.025938156624536
-133.04441997,0.02679774822958114,6.025938156624536
-133.00779888,0.0271342947136345,6.025938156624536
-132.97117779,0.0271342947136345,6.025938156624536
-132.9345567,0.02679774822958114,6.025938156624536
-132.89793561,0.02679774822958098,6.025938156624536
-132.86131452,0.02679774822958114,6.025938156624536
-132.82469343,0.0271342947136345,6.025938156624536
-132.78807234,0.0271342947136345,6.025938156624536
-132.75145125,0.0271342947136345,6.025938156624536
-132.71483016,0.0271342947136345,6.025938156624536
-132.67820907,0.0271342947136345,6.025938156624536
